=== Run information ===

Scheme:       weka.associations.FPGrowth -P 2 -I -1 -N 250 -T 0 -C 0.9 -D 0.05 -U 821.0 -M 3.0
Relation:     cancelaciones_artes
Instances:    821
Attributes:   323
[list of attributes omitted]
=== Associator model (full training set) ===

FPGrowth found 1101 rules (displaying top 250)

  1. [509002M   -INTRODUCCION AL DISENO=1]: 3 ==> [204101M   -LECTURA DE TEXTOS ACADEMICOS EN INGLES I=1]: 3   <conf:(1)> lift:(16.42) lev:(0) conv:(2.82) 
  2. [502072M   -ACONDICIONAMIENTO AMBIENTAL I=1]: 4 ==> [502001M   -INTRODUCCION A LA TECNOLOGIA=1]: 4   <conf:(1)> lift:(82.1) lev:(0) conv:(3.95) 
  3. [502072M   -ACONDICIONAMIENTO AMBIENTAL I=1]: 4 ==> [501118M   -GEOMETRIA I=1]: 4   <conf:(1)> lift:(82.1) lev:(0) conv:(3.95) 
  4. [504070M   -PRODUCCION II=1]: 3 ==> [504079M   -SEMINARIO DE TEATRO MODERNO=1]: 3   <conf:(1)> lift:(102.63) lev:(0) conv:(2.97) 
  5. [506005M   -IMAGEN I (FOTOGRAFIA I)=1]: 5 ==> [506004M   -ESCRITURA I=1]: 5   <conf:(1)> lift:(117.29) lev:(0.01) conv:(4.96) 
  6. [506101M   -ANALISIS TEXTUAL I=1]: 3 ==> [506004M   -ESCRITURA I=1]: 3   <conf:(1)> lift:(117.29) lev:(0) conv:(2.97) 
  7. [502072M   -ACONDICIONAMIENTO AMBIENTAL I=1]: 4 ==> [501062M   -TALLER DE PROYECTOS I=1]: 4   <conf:(1)> lift:(117.29) lev:(0) conv:(3.97) 
  8. [502072M   -ACONDICIONAMIENTO AMBIENTAL I=1]: 4 ==> [501087M   -TEORIA I=1]: 4   <conf:(1)> lift:(164.2) lev:(0) conv:(3.98) 
  9. [204101M   -LECTURA DE TEXTOS ACADEMICOS EN INGLES I=1, 505330M   -ELECTIVA COMPLEMENTARIA I=1]: 3 ==> [204001M   -ESPANOL=1]: 3   <conf:(1)> lift:(16.42) lev:(0) conv:(2.82) 
 10. [204101M   -LECTURA DE TEXTOS ACADEMICOS EN INGLES I=1, 505008M   -TECNICA VOCAL=1]: 3 ==> [204001M   -ESPANOL=1]: 3   <conf:(1)> lift:(16.42) lev:(0) conv:(2.82) 
 11. [204001M   -ESPANOL=1, 505002M   -APRECIACION MUSICAL I=1]: 3 ==> [204101M   -LECTURA DE TEXTOS ACADEMICOS EN INGLES I=1]: 3   <conf:(1)> lift:(16.42) lev:(0) conv:(2.82) 
 12. [204101M   -LECTURA DE TEXTOS ACADEMICOS EN INGLES I=1, 505011M   -PIANO COMPLEMENTARIO I=1]: 3 ==> [204001M   -ESPANOL=1]: 3   <conf:(1)> lift:(16.42) lev:(0) conv:(2.82) 
 13. [204001M   -ESPANOL=1, 505011M   -PIANO COMPLEMENTARIO I=1]: 3 ==> [204101M   -LECTURA DE TEXTOS ACADEMICOS EN INGLES I=1]: 3   <conf:(1)> lift:(16.42) lev:(0) conv:(2.82) 
 14. [204101M   -LECTURA DE TEXTOS ACADEMICOS EN INGLES I=1, 505330M   -ELECTIVA COMPLEMENTARIA I=1]: 3 ==> [505008M   -TECNICA VOCAL=1]: 3   <conf:(1)> lift:(91.22) lev:(0) conv:(2.97) 
 15. [204101M   -LECTURA DE TEXTOS ACADEMICOS EN INGLES I=1, 505008M   -TECNICA VOCAL=1]: 3 ==> [505330M   -ELECTIVA COMPLEMENTARIA I=1]: 3   <conf:(1)> lift:(91.22) lev:(0) conv:(2.97) 
 16. [204101M   -LECTURA DE TEXTOS ACADEMICOS EN INGLES I=1, 505330M   -ELECTIVA COMPLEMENTARIA I=1]: 3 ==> [505003M   -ESTUDIO MUSICAL BASICO I=1]: 3   <conf:(1)> lift:(102.63) lev:(0) conv:(2.97) 
 17. [204101M   -LECTURA DE TEXTOS ACADEMICOS EN INGLES I=1, 505330M   -ELECTIVA COMPLEMENTARIA I=1]: 3 ==> [505002M   -APRECIACION MUSICAL I=1]: 3   <conf:(1)> lift:(136.83) lev:(0) conv:(2.98) 
 18. [204101M   -LECTURA DE TEXTOS ACADEMICOS EN INGLES I=1, 505330M   -ELECTIVA COMPLEMENTARIA I=1]: 3 ==> [505011M   -PIANO COMPLEMENTARIO I=1]: 3   <conf:(1)> lift:(164.2) lev:(0) conv:(2.98) 
 19. [204101M   -LECTURA DE TEXTOS ACADEMICOS EN INGLES I=1, 505011M   -PIANO COMPLEMENTARIO I=1]: 3 ==> [505330M   -ELECTIVA COMPLEMENTARIA I=1]: 3   <conf:(1)> lift:(91.22) lev:(0) conv:(2.97) 
 20. [204101M   -LECTURA DE TEXTOS ACADEMICOS EN INGLES I=1, 505008M   -TECNICA VOCAL=1]: 3 ==> [505003M   -ESTUDIO MUSICAL BASICO I=1]: 3   <conf:(1)> lift:(102.63) lev:(0) conv:(2.97) 
 21. [204101M   -LECTURA DE TEXTOS ACADEMICOS EN INGLES I=1, 505008M   -TECNICA VOCAL=1]: 3 ==> [505002M   -APRECIACION MUSICAL I=1]: 3   <conf:(1)> lift:(136.83) lev:(0) conv:(2.98) 
 22. [204101M   -LECTURA DE TEXTOS ACADEMICOS EN INGLES I=1, 505008M   -TECNICA VOCAL=1]: 3 ==> [505011M   -PIANO COMPLEMENTARIO I=1]: 3   <conf:(1)> lift:(164.2) lev:(0) conv:(2.98) 
 23. [204101M   -LECTURA DE TEXTOS ACADEMICOS EN INGLES I=1, 505011M   -PIANO COMPLEMENTARIO I=1]: 3 ==> [505008M   -TECNICA VOCAL=1]: 3   <conf:(1)> lift:(91.22) lev:(0) conv:(2.97) 
 24. [204101M   -LECTURA DE TEXTOS ACADEMICOS EN INGLES I=1, 505011M   -PIANO COMPLEMENTARIO I=1]: 3 ==> [505003M   -ESTUDIO MUSICAL BASICO I=1]: 3   <conf:(1)> lift:(102.63) lev:(0) conv:(2.97) 
 25. [204101M   -LECTURA DE TEXTOS ACADEMICOS EN INGLES I=1, 505011M   -PIANO COMPLEMENTARIO I=1]: 3 ==> [505002M   -APRECIACION MUSICAL I=1]: 3   <conf:(1)> lift:(136.83) lev:(0) conv:(2.98) 
 26. [204001M   -ESPANOL=1, 505330M   -ELECTIVA COMPLEMENTARIA I=1]: 4 ==> [505008M   -TECNICA VOCAL=1]: 4   <conf:(1)> lift:(91.22) lev:(0) conv:(3.96) 
 27. [204001M   -ESPANOL=1, 505008M   -TECNICA VOCAL=1]: 4 ==> [505330M   -ELECTIVA COMPLEMENTARIA I=1]: 4   <conf:(1)> lift:(91.22) lev:(0) conv:(3.96) 
 28. [204001M   -ESPANOL=1, 505330M   -ELECTIVA COMPLEMENTARIA I=1]: 4 ==> [505003M   -ESTUDIO MUSICAL BASICO I=1]: 4   <conf:(1)> lift:(102.63) lev:(0) conv:(3.96) 
 29. [204001M   -ESPANOL=1, 505002M   -APRECIACION MUSICAL I=1]: 3 ==> [505330M   -ELECTIVA COMPLEMENTARIA I=1]: 3   <conf:(1)> lift:(91.22) lev:(0) conv:(2.97) 
 30. [204001M   -ESPANOL=1, 505011M   -PIANO COMPLEMENTARIO I=1]: 3 ==> [505330M   -ELECTIVA COMPLEMENTARIA I=1]: 3   <conf:(1)> lift:(91.22) lev:(0) conv:(2.97) 
 31. [204001M   -ESPANOL=1, 505008M   -TECNICA VOCAL=1]: 4 ==> [505003M   -ESTUDIO MUSICAL BASICO I=1]: 4   <conf:(1)> lift:(102.63) lev:(0) conv:(3.96) 
 32. [204001M   -ESPANOL=1, 505002M   -APRECIACION MUSICAL I=1]: 3 ==> [505008M   -TECNICA VOCAL=1]: 3   <conf:(1)> lift:(91.22) lev:(0) conv:(2.97) 
 33. [204001M   -ESPANOL=1, 505011M   -PIANO COMPLEMENTARIO I=1]: 3 ==> [505008M   -TECNICA VOCAL=1]: 3   <conf:(1)> lift:(91.22) lev:(0) conv:(2.97) 
 34. [204001M   -ESPANOL=1, 505002M   -APRECIACION MUSICAL I=1]: 3 ==> [505003M   -ESTUDIO MUSICAL BASICO I=1]: 3   <conf:(1)> lift:(102.63) lev:(0) conv:(2.97) 
 35. [204001M   -ESPANOL=1, 505011M   -PIANO COMPLEMENTARIO I=1]: 3 ==> [505003M   -ESTUDIO MUSICAL BASICO I=1]: 3   <conf:(1)> lift:(102.63) lev:(0) conv:(2.97) 
 36. [204001M   -ESPANOL=1, 505002M   -APRECIACION MUSICAL I=1]: 3 ==> [505011M   -PIANO COMPLEMENTARIO I=1]: 3   <conf:(1)> lift:(164.2) lev:(0) conv:(2.98) 
 37. [204001M   -ESPANOL=1, 505011M   -PIANO COMPLEMENTARIO I=1]: 3 ==> [505002M   -APRECIACION MUSICAL I=1]: 3   <conf:(1)> lift:(136.83) lev:(0) conv:(2.98) 
 38. [507037M   -FOTOGRAFIA I=1, 507042M   -METODOS DE DISENO I=1]: 3 ==> [507035M   -ERGONOMIA I=1]: 3   <conf:(1)> lift:(136.83) lev:(0) conv:(2.98) 
 39. [507037M   -FOTOGRAFIA I=1, 507035M   -ERGONOMIA I=1]: 3 ==> [507042M   -METODOS DE DISENO I=1]: 3   <conf:(1)> lift:(74.64) lev:(0) conv:(2.96) 
 40. [501078M   -PENSAMIENTO GRAFICO I=1, 501062M   -TALLER DE PROYECTOS I=1]: 3 ==> [502001M   -INTRODUCCION A LA TECNOLOGIA=1]: 3   <conf:(1)> lift:(82.1) lev:(0) conv:(2.96) 
 41. [501078M   -PENSAMIENTO GRAFICO I=1, 502072M   -ACONDICIONAMIENTO AMBIENTAL I=1]: 3 ==> [502001M   -INTRODUCCION A LA TECNOLOGIA=1]: 3   <conf:(1)> lift:(82.1) lev:(0) conv:(2.96) 
 42. [501078M   -PENSAMIENTO GRAFICO I=1, 501062M   -TALLER DE PROYECTOS I=1]: 3 ==> [501118M   -GEOMETRIA I=1]: 3   <conf:(1)> lift:(82.1) lev:(0) conv:(2.96) 
 43. [501078M   -PENSAMIENTO GRAFICO I=1, 502072M   -ACONDICIONAMIENTO AMBIENTAL I=1]: 3 ==> [501118M   -GEOMETRIA I=1]: 3   <conf:(1)> lift:(82.1) lev:(0) conv:(2.96) 
 44. [501078M   -PENSAMIENTO GRAFICO I=1, 501062M   -TALLER DE PROYECTOS I=1]: 3 ==> [501087M   -TEORIA I=1]: 3   <conf:(1)> lift:(164.2) lev:(0) conv:(2.98) 
 45. [501078M   -PENSAMIENTO GRAFICO I=1, 501062M   -TALLER DE PROYECTOS I=1]: 3 ==> [502072M   -ACONDICIONAMIENTO AMBIENTAL I=1]: 3   <conf:(1)> lift:(205.25) lev:(0) conv:(2.99) 
 46. [501078M   -PENSAMIENTO GRAFICO I=1, 502072M   -ACONDICIONAMIENTO AMBIENTAL I=1]: 3 ==> [501062M   -TALLER DE PROYECTOS I=1]: 3   <conf:(1)> lift:(117.29) lev:(0) conv:(2.97) 
 47. [501078M   -PENSAMIENTO GRAFICO I=1, 502072M   -ACONDICIONAMIENTO AMBIENTAL I=1]: 3 ==> [501087M   -TEORIA I=1]: 3   <conf:(1)> lift:(164.2) lev:(0) conv:(2.98) 
 48. [502001M   -INTRODUCCION A LA TECNOLOGIA=1, 501118M   -GEOMETRIA I=1]: 4 ==> [501062M   -TALLER DE PROYECTOS I=1]: 4   <conf:(1)> lift:(117.29) lev:(0) conv:(3.97) 
 49. [502001M   -INTRODUCCION A LA TECNOLOGIA=1, 501062M   -TALLER DE PROYECTOS I=1]: 4 ==> [501118M   -GEOMETRIA I=1]: 4   <conf:(1)> lift:(82.1) lev:(0) conv:(3.95) 
 50. [502001M   -INTRODUCCION A LA TECNOLOGIA=1, 501118M   -GEOMETRIA I=1]: 4 ==> [501087M   -TEORIA I=1]: 4   <conf:(1)> lift:(164.2) lev:(0) conv:(3.98) 
 51. [502001M   -INTRODUCCION A LA TECNOLOGIA=1, 501087M   -TEORIA I=1]: 4 ==> [501118M   -GEOMETRIA I=1]: 4   <conf:(1)> lift:(82.1) lev:(0) conv:(3.95) 
 52. [501118M   -GEOMETRIA I=1, 501087M   -TEORIA I=1]: 4 ==> [502001M   -INTRODUCCION A LA TECNOLOGIA=1]: 4   <conf:(1)> lift:(82.1) lev:(0) conv:(3.95) 
 53. [502001M   -INTRODUCCION A LA TECNOLOGIA=1, 501118M   -GEOMETRIA I=1]: 4 ==> [502072M   -ACONDICIONAMIENTO AMBIENTAL I=1]: 4   <conf:(1)> lift:(205.25) lev:(0) conv:(3.98) 
 54. [502072M   -ACONDICIONAMIENTO AMBIENTAL I=1]: 4 ==> [502001M   -INTRODUCCION A LA TECNOLOGIA=1, 501118M   -GEOMETRIA I=1]: 4   <conf:(1)> lift:(205.25) lev:(0) conv:(3.98) 
 55. [502001M   -INTRODUCCION A LA TECNOLOGIA=1, 502072M   -ACONDICIONAMIENTO AMBIENTAL I=1]: 4 ==> [501118M   -GEOMETRIA I=1]: 4   <conf:(1)> lift:(82.1) lev:(0) conv:(3.95) 
 56. [501118M   -GEOMETRIA I=1, 502072M   -ACONDICIONAMIENTO AMBIENTAL I=1]: 4 ==> [502001M   -INTRODUCCION A LA TECNOLOGIA=1]: 4   <conf:(1)> lift:(82.1) lev:(0) conv:(3.95) 
 57. [502001M   -INTRODUCCION A LA TECNOLOGIA=1, 501062M   -TALLER DE PROYECTOS I=1]: 4 ==> [501087M   -TEORIA I=1]: 4   <conf:(1)> lift:(164.2) lev:(0) conv:(3.98) 
 58. [502001M   -INTRODUCCION A LA TECNOLOGIA=1, 501087M   -TEORIA I=1]: 4 ==> [501062M   -TALLER DE PROYECTOS I=1]: 4   <conf:(1)> lift:(117.29) lev:(0) conv:(3.97) 
 59. [501062M   -TALLER DE PROYECTOS I=1, 501087M   -TEORIA I=1]: 4 ==> [502001M   -INTRODUCCION A LA TECNOLOGIA=1]: 4   <conf:(1)> lift:(82.1) lev:(0) conv:(3.95) 
 60. [502001M   -INTRODUCCION A LA TECNOLOGIA=1, 501062M   -TALLER DE PROYECTOS I=1]: 4 ==> [502072M   -ACONDICIONAMIENTO AMBIENTAL I=1]: 4   <conf:(1)> lift:(205.25) lev:(0) conv:(3.98) 
 61. [502072M   -ACONDICIONAMIENTO AMBIENTAL I=1]: 4 ==> [502001M   -INTRODUCCION A LA TECNOLOGIA=1, 501062M   -TALLER DE PROYECTOS I=1]: 4   <conf:(1)> lift:(205.25) lev:(0) conv:(3.98) 
 62. [502001M   -INTRODUCCION A LA TECNOLOGIA=1, 502072M   -ACONDICIONAMIENTO AMBIENTAL I=1]: 4 ==> [501062M   -TALLER DE PROYECTOS I=1]: 4   <conf:(1)> lift:(117.29) lev:(0) conv:(3.97) 
 63. [501062M   -TALLER DE PROYECTOS I=1, 502072M   -ACONDICIONAMIENTO AMBIENTAL I=1]: 4 ==> [502001M   -INTRODUCCION A LA TECNOLOGIA=1]: 4   <conf:(1)> lift:(82.1) lev:(0) conv:(3.95) 
 64. [502001M   -INTRODUCCION A LA TECNOLOGIA=1, 501087M   -TEORIA I=1]: 4 ==> [502072M   -ACONDICIONAMIENTO AMBIENTAL I=1]: 4   <conf:(1)> lift:(205.25) lev:(0) conv:(3.98) 
 65. [502072M   -ACONDICIONAMIENTO AMBIENTAL I=1]: 4 ==> [502001M   -INTRODUCCION A LA TECNOLOGIA=1, 501087M   -TEORIA I=1]: 4   <conf:(1)> lift:(205.25) lev:(0) conv:(3.98) 
 66. [502001M   -INTRODUCCION A LA TECNOLOGIA=1, 502072M   -ACONDICIONAMIENTO AMBIENTAL I=1]: 4 ==> [501087M   -TEORIA I=1]: 4   <conf:(1)> lift:(164.2) lev:(0) conv:(3.98) 
 67. [501087M   -TEORIA I=1, 502072M   -ACONDICIONAMIENTO AMBIENTAL I=1]: 4 ==> [502001M   -INTRODUCCION A LA TECNOLOGIA=1]: 4   <conf:(1)> lift:(82.1) lev:(0) conv:(3.95) 
 68. [501118M   -GEOMETRIA I=1, 501087M   -TEORIA I=1]: 4 ==> [501062M   -TALLER DE PROYECTOS I=1]: 4   <conf:(1)> lift:(117.29) lev:(0) conv:(3.97) 
 69. [501062M   -TALLER DE PROYECTOS I=1, 501087M   -TEORIA I=1]: 4 ==> [501118M   -GEOMETRIA I=1]: 4   <conf:(1)> lift:(82.1) lev:(0) conv:(3.95) 
 70. [502072M   -ACONDICIONAMIENTO AMBIENTAL I=1]: 4 ==> [501118M   -GEOMETRIA I=1, 501062M   -TALLER DE PROYECTOS I=1]: 4   <conf:(1)> lift:(164.2) lev:(0) conv:(3.98) 
 71. [501118M   -GEOMETRIA I=1, 502072M   -ACONDICIONAMIENTO AMBIENTAL I=1]: 4 ==> [501062M   -TALLER DE PROYECTOS I=1]: 4   <conf:(1)> lift:(117.29) lev:(0) conv:(3.97) 
 72. [501062M   -TALLER DE PROYECTOS I=1, 502072M   -ACONDICIONAMIENTO AMBIENTAL I=1]: 4 ==> [501118M   -GEOMETRIA I=1]: 4   <conf:(1)> lift:(82.1) lev:(0) conv:(3.95) 
 73. [501118M   -GEOMETRIA I=1, 501087M   -TEORIA I=1]: 4 ==> [502072M   -ACONDICIONAMIENTO AMBIENTAL I=1]: 4   <conf:(1)> lift:(205.25) lev:(0) conv:(3.98) 
 74. [502072M   -ACONDICIONAMIENTO AMBIENTAL I=1]: 4 ==> [501118M   -GEOMETRIA I=1, 501087M   -TEORIA I=1]: 4   <conf:(1)> lift:(205.25) lev:(0) conv:(3.98) 
 75. [501118M   -GEOMETRIA I=1, 502072M   -ACONDICIONAMIENTO AMBIENTAL I=1]: 4 ==> [501087M   -TEORIA I=1]: 4   <conf:(1)> lift:(164.2) lev:(0) conv:(3.98) 
 76. [501087M   -TEORIA I=1, 502072M   -ACONDICIONAMIENTO AMBIENTAL I=1]: 4 ==> [501118M   -GEOMETRIA I=1]: 4   <conf:(1)> lift:(82.1) lev:(0) conv:(3.95) 
 77. [505330M   -ELECTIVA COMPLEMENTARIA I=1, 505008M   -TECNICA VOCAL=1]: 5 ==> [505003M   -ESTUDIO MUSICAL BASICO I=1]: 5   <conf:(1)> lift:(102.63) lev:(0.01) conv:(4.95) 
 78. [505330M   -ELECTIVA COMPLEMENTARIA I=1, 505003M   -ESTUDIO MUSICAL BASICO I=1]: 5 ==> [505008M   -TECNICA VOCAL=1]: 5   <conf:(1)> lift:(91.22) lev:(0.01) conv:(4.95) 
 79. [505330M   -ELECTIVA COMPLEMENTARIA I=1, 505002M   -APRECIACION MUSICAL I=1]: 4 ==> [505008M   -TECNICA VOCAL=1]: 4   <conf:(1)> lift:(91.22) lev:(0) conv:(3.96) 
 80. [505008M   -TECNICA VOCAL=1, 505002M   -APRECIACION MUSICAL I=1]: 4 ==> [505330M   -ELECTIVA COMPLEMENTARIA I=1]: 4   <conf:(1)> lift:(91.22) lev:(0) conv:(3.96) 
 81. [505330M   -ELECTIVA COMPLEMENTARIA I=1, 505011M   -PIANO COMPLEMENTARIO I=1]: 4 ==> [505008M   -TECNICA VOCAL=1]: 4   <conf:(1)> lift:(91.22) lev:(0) conv:(3.96) 
 82. [505008M   -TECNICA VOCAL=1, 505011M   -PIANO COMPLEMENTARIO I=1]: 4 ==> [505330M   -ELECTIVA COMPLEMENTARIA I=1]: 4   <conf:(1)> lift:(91.22) lev:(0) conv:(3.96) 
 83. [505330M   -ELECTIVA COMPLEMENTARIA I=1, 505002M   -APRECIACION MUSICAL I=1]: 4 ==> [505003M   -ESTUDIO MUSICAL BASICO I=1]: 4   <conf:(1)> lift:(102.63) lev:(0) conv:(3.96) 
 84. [505003M   -ESTUDIO MUSICAL BASICO I=1, 505002M   -APRECIACION MUSICAL I=1]: 4 ==> [505330M   -ELECTIVA COMPLEMENTARIA I=1]: 4   <conf:(1)> lift:(91.22) lev:(0) conv:(3.96) 
 85. [505330M   -ELECTIVA COMPLEMENTARIA I=1, 505011M   -PIANO COMPLEMENTARIO I=1]: 4 ==> [505003M   -ESTUDIO MUSICAL BASICO I=1]: 4   <conf:(1)> lift:(102.63) lev:(0) conv:(3.96) 
 86. [505003M   -ESTUDIO MUSICAL BASICO I=1, 505011M   -PIANO COMPLEMENTARIO I=1]: 4 ==> [505330M   -ELECTIVA COMPLEMENTARIA I=1]: 4   <conf:(1)> lift:(91.22) lev:(0) conv:(3.96) 
 87. [505330M   -ELECTIVA COMPLEMENTARIA I=1, 505002M   -APRECIACION MUSICAL I=1]: 4 ==> [505011M   -PIANO COMPLEMENTARIO I=1]: 4   <conf:(1)> lift:(164.2) lev:(0) conv:(3.98) 
 88. [505330M   -ELECTIVA COMPLEMENTARIA I=1, 505011M   -PIANO COMPLEMENTARIO I=1]: 4 ==> [505002M   -APRECIACION MUSICAL I=1]: 4   <conf:(1)> lift:(136.83) lev:(0) conv:(3.97) 
 89. [505002M   -APRECIACION MUSICAL I=1, 505011M   -PIANO COMPLEMENTARIO I=1]: 4 ==> [505330M   -ELECTIVA COMPLEMENTARIA I=1]: 4   <conf:(1)> lift:(91.22) lev:(0) conv:(3.96) 
 90. [505008M   -TECNICA VOCAL=1, 505002M   -APRECIACION MUSICAL I=1]: 4 ==> [505003M   -ESTUDIO MUSICAL BASICO I=1]: 4   <conf:(1)> lift:(102.63) lev:(0) conv:(3.96) 
 91. [505003M   -ESTUDIO MUSICAL BASICO I=1, 505002M   -APRECIACION MUSICAL I=1]: 4 ==> [505008M   -TECNICA VOCAL=1]: 4   <conf:(1)> lift:(91.22) lev:(0) conv:(3.96) 
 92. [505008M   -TECNICA VOCAL=1, 505011M   -PIANO COMPLEMENTARIO I=1]: 4 ==> [505003M   -ESTUDIO MUSICAL BASICO I=1]: 4   <conf:(1)> lift:(102.63) lev:(0) conv:(3.96) 
 93. [505003M   -ESTUDIO MUSICAL BASICO I=1, 505011M   -PIANO COMPLEMENTARIO I=1]: 4 ==> [505008M   -TECNICA VOCAL=1]: 4   <conf:(1)> lift:(91.22) lev:(0) conv:(3.96) 
 94. [505008M   -TECNICA VOCAL=1, 505002M   -APRECIACION MUSICAL I=1]: 4 ==> [505011M   -PIANO COMPLEMENTARIO I=1]: 4   <conf:(1)> lift:(164.2) lev:(0) conv:(3.98) 
 95. [505008M   -TECNICA VOCAL=1, 505011M   -PIANO COMPLEMENTARIO I=1]: 4 ==> [505002M   -APRECIACION MUSICAL I=1]: 4   <conf:(1)> lift:(136.83) lev:(0) conv:(3.97) 
 96. [505002M   -APRECIACION MUSICAL I=1, 505011M   -PIANO COMPLEMENTARIO I=1]: 4 ==> [505008M   -TECNICA VOCAL=1]: 4   <conf:(1)> lift:(91.22) lev:(0) conv:(3.96) 
 97. [505003M   -ESTUDIO MUSICAL BASICO I=1, 505002M   -APRECIACION MUSICAL I=1]: 4 ==> [505011M   -PIANO COMPLEMENTARIO I=1]: 4   <conf:(1)> lift:(164.2) lev:(0) conv:(3.98) 
 98. [505003M   -ESTUDIO MUSICAL BASICO I=1, 505011M   -PIANO COMPLEMENTARIO I=1]: 4 ==> [505002M   -APRECIACION MUSICAL I=1]: 4   <conf:(1)> lift:(136.83) lev:(0) conv:(3.97) 
 99. [505002M   -APRECIACION MUSICAL I=1, 505011M   -PIANO COMPLEMENTARIO I=1]: 4 ==> [505003M   -ESTUDIO MUSICAL BASICO I=1]: 4   <conf:(1)> lift:(102.63) lev:(0) conv:(3.96) 
100. [501062M   -TALLER DE PROYECTOS I=1, 501087M   -TEORIA I=1]: 4 ==> [502072M   -ACONDICIONAMIENTO AMBIENTAL I=1]: 4   <conf:(1)> lift:(205.25) lev:(0) conv:(3.98) 
101. [502072M   -ACONDICIONAMIENTO AMBIENTAL I=1]: 4 ==> [501062M   -TALLER DE PROYECTOS I=1, 501087M   -TEORIA I=1]: 4   <conf:(1)> lift:(205.25) lev:(0) conv:(3.98) 
102. [501062M   -TALLER DE PROYECTOS I=1, 502072M   -ACONDICIONAMIENTO AMBIENTAL I=1]: 4 ==> [501087M   -TEORIA I=1]: 4   <conf:(1)> lift:(164.2) lev:(0) conv:(3.98) 
103. [501087M   -TEORIA I=1, 502072M   -ACONDICIONAMIENTO AMBIENTAL I=1]: 4 ==> [501062M   -TALLER DE PROYECTOS I=1]: 4   <conf:(1)> lift:(117.29) lev:(0) conv:(3.97) 
104. [204101M   -LECTURA DE TEXTOS ACADEMICOS EN INGLES I=1, 505330M   -ELECTIVA COMPLEMENTARIA I=1]: 3 ==> [204001M   -ESPANOL=1, 505008M   -TECNICA VOCAL=1]: 3   <conf:(1)> lift:(205.25) lev:(0) conv:(2.99) 
105. [204101M   -LECTURA DE TEXTOS ACADEMICOS EN INGLES I=1, 204001M   -ESPANOL=1, 505330M   -ELECTIVA COMPLEMENTARIA I=1]: 3 ==> [505008M   -TECNICA VOCAL=1]: 3   <conf:(1)> lift:(91.22) lev:(0) conv:(2.97) 
106. [204101M   -LECTURA DE TEXTOS ACADEMICOS EN INGLES I=1, 505008M   -TECNICA VOCAL=1]: 3 ==> [204001M   -ESPANOL=1, 505330M   -ELECTIVA COMPLEMENTARIA I=1]: 3   <conf:(1)> lift:(205.25) lev:(0) conv:(2.99) 
107. [204101M   -LECTURA DE TEXTOS ACADEMICOS EN INGLES I=1, 204001M   -ESPANOL=1, 505008M   -TECNICA VOCAL=1]: 3 ==> [505330M   -ELECTIVA COMPLEMENTARIA I=1]: 3   <conf:(1)> lift:(91.22) lev:(0) conv:(2.97) 
108. [204101M   -LECTURA DE TEXTOS ACADEMICOS EN INGLES I=1, 505330M   -ELECTIVA COMPLEMENTARIA I=1, 505008M   -TECNICA VOCAL=1]: 3 ==> [204001M   -ESPANOL=1]: 3   <conf:(1)> lift:(16.42) lev:(0) conv:(2.82) 
109. [204101M   -LECTURA DE TEXTOS ACADEMICOS EN INGLES I=1, 505330M   -ELECTIVA COMPLEMENTARIA I=1]: 3 ==> [204001M   -ESPANOL=1, 505003M   -ESTUDIO MUSICAL BASICO I=1]: 3   <conf:(1)> lift:(164.2) lev:(0) conv:(2.98) 
110. [204101M   -LECTURA DE TEXTOS ACADEMICOS EN INGLES I=1, 204001M   -ESPANOL=1, 505330M   -ELECTIVA COMPLEMENTARIA I=1]: 3 ==> [505003M   -ESTUDIO MUSICAL BASICO I=1]: 3   <conf:(1)> lift:(102.63) lev:(0) conv:(2.97) 
111. [204101M   -LECTURA DE TEXTOS ACADEMICOS EN INGLES I=1, 204001M   -ESPANOL=1, 505003M   -ESTUDIO MUSICAL BASICO I=1]: 3 ==> [505330M   -ELECTIVA COMPLEMENTARIA I=1]: 3   <conf:(1)> lift:(91.22) lev:(0) conv:(2.97) 
112. [204101M   -LECTURA DE TEXTOS ACADEMICOS EN INGLES I=1, 505330M   -ELECTIVA COMPLEMENTARIA I=1, 505003M   -ESTUDIO MUSICAL BASICO I=1]: 3 ==> [204001M   -ESPANOL=1]: 3   <conf:(1)> lift:(16.42) lev:(0) conv:(2.82) 
113. [204101M   -LECTURA DE TEXTOS ACADEMICOS EN INGLES I=1, 505330M   -ELECTIVA COMPLEMENTARIA I=1]: 3 ==> [204001M   -ESPANOL=1, 505002M   -APRECIACION MUSICAL I=1]: 3   <conf:(1)> lift:(273.67) lev:(0) conv:(2.99) 
114. [204101M   -LECTURA DE TEXTOS ACADEMICOS EN INGLES I=1, 204001M   -ESPANOL=1, 505330M   -ELECTIVA COMPLEMENTARIA I=1]: 3 ==> [505002M   -APRECIACION MUSICAL I=1]: 3   <conf:(1)> lift:(136.83) lev:(0) conv:(2.98) 
115. [204001M   -ESPANOL=1, 505002M   -APRECIACION MUSICAL I=1]: 3 ==> [204101M   -LECTURA DE TEXTOS ACADEMICOS EN INGLES I=1, 505330M   -ELECTIVA COMPLEMENTARIA I=1]: 3   <conf:(1)> lift:(273.67) lev:(0) conv:(2.99) 
116. [204101M   -LECTURA DE TEXTOS ACADEMICOS EN INGLES I=1, 204001M   -ESPANOL=1, 505002M   -APRECIACION MUSICAL I=1]: 3 ==> [505330M   -ELECTIVA COMPLEMENTARIA I=1]: 3   <conf:(1)> lift:(91.22) lev:(0) conv:(2.97) 
117. [204101M   -LECTURA DE TEXTOS ACADEMICOS EN INGLES I=1, 505330M   -ELECTIVA COMPLEMENTARIA I=1, 505002M   -APRECIACION MUSICAL I=1]: 3 ==> [204001M   -ESPANOL=1]: 3   <conf:(1)> lift:(16.42) lev:(0) conv:(2.82) 
118. [204001M   -ESPANOL=1, 505330M   -ELECTIVA COMPLEMENTARIA I=1, 505002M   -APRECIACION MUSICAL I=1]: 3 ==> [204101M   -LECTURA DE TEXTOS ACADEMICOS EN INGLES I=1]: 3   <conf:(1)> lift:(16.42) lev:(0) conv:(2.82) 
119. [204101M   -LECTURA DE TEXTOS ACADEMICOS EN INGLES I=1, 505330M   -ELECTIVA COMPLEMENTARIA I=1]: 3 ==> [204001M   -ESPANOL=1, 505011M   -PIANO COMPLEMENTARIO I=1]: 3   <conf:(1)> lift:(273.67) lev:(0) conv:(2.99) 
120. [204101M   -LECTURA DE TEXTOS ACADEMICOS EN INGLES I=1, 204001M   -ESPANOL=1, 505330M   -ELECTIVA COMPLEMENTARIA I=1]: 3 ==> [505011M   -PIANO COMPLEMENTARIO I=1]: 3   <conf:(1)> lift:(164.2) lev:(0) conv:(2.98) 
121. [204101M   -LECTURA DE TEXTOS ACADEMICOS EN INGLES I=1, 505011M   -PIANO COMPLEMENTARIO I=1]: 3 ==> [204001M   -ESPANOL=1, 505330M   -ELECTIVA COMPLEMENTARIA I=1]: 3   <conf:(1)> lift:(205.25) lev:(0) conv:(2.99) 
122. [204001M   -ESPANOL=1, 505011M   -PIANO COMPLEMENTARIO I=1]: 3 ==> [204101M   -LECTURA DE TEXTOS ACADEMICOS EN INGLES I=1, 505330M   -ELECTIVA COMPLEMENTARIA I=1]: 3   <conf:(1)> lift:(273.67) lev:(0) conv:(2.99) 
123. [204101M   -LECTURA DE TEXTOS ACADEMICOS EN INGLES I=1, 204001M   -ESPANOL=1, 505011M   -PIANO COMPLEMENTARIO I=1]: 3 ==> [505330M   -ELECTIVA COMPLEMENTARIA I=1]: 3   <conf:(1)> lift:(91.22) lev:(0) conv:(2.97) 
124. [204101M   -LECTURA DE TEXTOS ACADEMICOS EN INGLES I=1, 505330M   -ELECTIVA COMPLEMENTARIA I=1, 505011M   -PIANO COMPLEMENTARIO I=1]: 3 ==> [204001M   -ESPANOL=1]: 3   <conf:(1)> lift:(16.42) lev:(0) conv:(2.82) 
125. [204001M   -ESPANOL=1, 505330M   -ELECTIVA COMPLEMENTARIA I=1, 505011M   -PIANO COMPLEMENTARIO I=1]: 3 ==> [204101M   -LECTURA DE TEXTOS ACADEMICOS EN INGLES I=1]: 3   <conf:(1)> lift:(16.42) lev:(0) conv:(2.82) 
126. [204101M   -LECTURA DE TEXTOS ACADEMICOS EN INGLES I=1, 505008M   -TECNICA VOCAL=1]: 3 ==> [204001M   -ESPANOL=1, 505003M   -ESTUDIO MUSICAL BASICO I=1]: 3   <conf:(1)> lift:(164.2) lev:(0) conv:(2.98) 
127. [204101M   -LECTURA DE TEXTOS ACADEMICOS EN INGLES I=1, 204001M   -ESPANOL=1, 505008M   -TECNICA VOCAL=1]: 3 ==> [505003M   -ESTUDIO MUSICAL BASICO I=1]: 3   <conf:(1)> lift:(102.63) lev:(0) conv:(2.97) 
128. [204101M   -LECTURA DE TEXTOS ACADEMICOS EN INGLES I=1, 204001M   -ESPANOL=1, 505003M   -ESTUDIO MUSICAL BASICO I=1]: 3 ==> [505008M   -TECNICA VOCAL=1]: 3   <conf:(1)> lift:(91.22) lev:(0) conv:(2.97) 
129. [204101M   -LECTURA DE TEXTOS ACADEMICOS EN INGLES I=1, 505008M   -TECNICA VOCAL=1, 505003M   -ESTUDIO MUSICAL BASICO I=1]: 3 ==> [204001M   -ESPANOL=1]: 3   <conf:(1)> lift:(16.42) lev:(0) conv:(2.82) 
130. [204101M   -LECTURA DE TEXTOS ACADEMICOS EN INGLES I=1, 505008M   -TECNICA VOCAL=1]: 3 ==> [204001M   -ESPANOL=1, 505002M   -APRECIACION MUSICAL I=1]: 3   <conf:(1)> lift:(273.67) lev:(0) conv:(2.99) 
131. [204101M   -LECTURA DE TEXTOS ACADEMICOS EN INGLES I=1, 204001M   -ESPANOL=1, 505008M   -TECNICA VOCAL=1]: 3 ==> [505002M   -APRECIACION MUSICAL I=1]: 3   <conf:(1)> lift:(136.83) lev:(0) conv:(2.98) 
132. [204001M   -ESPANOL=1, 505002M   -APRECIACION MUSICAL I=1]: 3 ==> [204101M   -LECTURA DE TEXTOS ACADEMICOS EN INGLES I=1, 505008M   -TECNICA VOCAL=1]: 3   <conf:(1)> lift:(273.67) lev:(0) conv:(2.99) 
133. [204101M   -LECTURA DE TEXTOS ACADEMICOS EN INGLES I=1, 204001M   -ESPANOL=1, 505002M   -APRECIACION MUSICAL I=1]: 3 ==> [505008M   -TECNICA VOCAL=1]: 3   <conf:(1)> lift:(91.22) lev:(0) conv:(2.97) 
134. [204101M   -LECTURA DE TEXTOS ACADEMICOS EN INGLES I=1, 505008M   -TECNICA VOCAL=1, 505002M   -APRECIACION MUSICAL I=1]: 3 ==> [204001M   -ESPANOL=1]: 3   <conf:(1)> lift:(16.42) lev:(0) conv:(2.82) 
135. [204001M   -ESPANOL=1, 505008M   -TECNICA VOCAL=1, 505002M   -APRECIACION MUSICAL I=1]: 3 ==> [204101M   -LECTURA DE TEXTOS ACADEMICOS EN INGLES I=1]: 3   <conf:(1)> lift:(16.42) lev:(0) conv:(2.82) 
136. [204101M   -LECTURA DE TEXTOS ACADEMICOS EN INGLES I=1, 505008M   -TECNICA VOCAL=1]: 3 ==> [204001M   -ESPANOL=1, 505011M   -PIANO COMPLEMENTARIO I=1]: 3   <conf:(1)> lift:(273.67) lev:(0) conv:(2.99) 
137. [204101M   -LECTURA DE TEXTOS ACADEMICOS EN INGLES I=1, 204001M   -ESPANOL=1, 505008M   -TECNICA VOCAL=1]: 3 ==> [505011M   -PIANO COMPLEMENTARIO I=1]: 3   <conf:(1)> lift:(164.2) lev:(0) conv:(2.98) 
138. [204101M   -LECTURA DE TEXTOS ACADEMICOS EN INGLES I=1, 505011M   -PIANO COMPLEMENTARIO I=1]: 3 ==> [204001M   -ESPANOL=1, 505008M   -TECNICA VOCAL=1]: 3   <conf:(1)> lift:(205.25) lev:(0) conv:(2.99) 
139. [204001M   -ESPANOL=1, 505011M   -PIANO COMPLEMENTARIO I=1]: 3 ==> [204101M   -LECTURA DE TEXTOS ACADEMICOS EN INGLES I=1, 505008M   -TECNICA VOCAL=1]: 3   <conf:(1)> lift:(273.67) lev:(0) conv:(2.99) 
140. [204101M   -LECTURA DE TEXTOS ACADEMICOS EN INGLES I=1, 204001M   -ESPANOL=1, 505011M   -PIANO COMPLEMENTARIO I=1]: 3 ==> [505008M   -TECNICA VOCAL=1]: 3   <conf:(1)> lift:(91.22) lev:(0) conv:(2.97) 
141. [204101M   -LECTURA DE TEXTOS ACADEMICOS EN INGLES I=1, 505008M   -TECNICA VOCAL=1, 505011M   -PIANO COMPLEMENTARIO I=1]: 3 ==> [204001M   -ESPANOL=1]: 3   <conf:(1)> lift:(16.42) lev:(0) conv:(2.82) 
142. [204001M   -ESPANOL=1, 505008M   -TECNICA VOCAL=1, 505011M   -PIANO COMPLEMENTARIO I=1]: 3 ==> [204101M   -LECTURA DE TEXTOS ACADEMICOS EN INGLES I=1]: 3   <conf:(1)> lift:(16.42) lev:(0) conv:(2.82) 
143. [204101M   -LECTURA DE TEXTOS ACADEMICOS EN INGLES I=1, 204001M   -ESPANOL=1, 505003M   -ESTUDIO MUSICAL BASICO I=1]: 3 ==> [505002M   -APRECIACION MUSICAL I=1]: 3   <conf:(1)> lift:(136.83) lev:(0) conv:(2.98) 
144. [204001M   -ESPANOL=1, 505002M   -APRECIACION MUSICAL I=1]: 3 ==> [204101M   -LECTURA DE TEXTOS ACADEMICOS EN INGLES I=1, 505003M   -ESTUDIO MUSICAL BASICO I=1]: 3   <conf:(1)> lift:(205.25) lev:(0) conv:(2.99) 
145. [204101M   -LECTURA DE TEXTOS ACADEMICOS EN INGLES I=1, 204001M   -ESPANOL=1, 505002M   -APRECIACION MUSICAL I=1]: 3 ==> [505003M   -ESTUDIO MUSICAL BASICO I=1]: 3   <conf:(1)> lift:(102.63) lev:(0) conv:(2.97) 
146. [204101M   -LECTURA DE TEXTOS ACADEMICOS EN INGLES I=1, 505003M   -ESTUDIO MUSICAL BASICO I=1, 505002M   -APRECIACION MUSICAL I=1]: 3 ==> [204001M   -ESPANOL=1]: 3   <conf:(1)> lift:(16.42) lev:(0) conv:(2.82) 
147. [204001M   -ESPANOL=1, 505003M   -ESTUDIO MUSICAL BASICO I=1, 505002M   -APRECIACION MUSICAL I=1]: 3 ==> [204101M   -LECTURA DE TEXTOS ACADEMICOS EN INGLES I=1]: 3   <conf:(1)> lift:(16.42) lev:(0) conv:(2.82) 
148. [204101M   -LECTURA DE TEXTOS ACADEMICOS EN INGLES I=1, 204001M   -ESPANOL=1, 505003M   -ESTUDIO MUSICAL BASICO I=1]: 3 ==> [505011M   -PIANO COMPLEMENTARIO I=1]: 3   <conf:(1)> lift:(164.2) lev:(0) conv:(2.98) 
149. [204101M   -LECTURA DE TEXTOS ACADEMICOS EN INGLES I=1, 505011M   -PIANO COMPLEMENTARIO I=1]: 3 ==> [204001M   -ESPANOL=1, 505003M   -ESTUDIO MUSICAL BASICO I=1]: 3   <conf:(1)> lift:(164.2) lev:(0) conv:(2.98) 
150. [204001M   -ESPANOL=1, 505011M   -PIANO COMPLEMENTARIO I=1]: 3 ==> [204101M   -LECTURA DE TEXTOS ACADEMICOS EN INGLES I=1, 505003M   -ESTUDIO MUSICAL BASICO I=1]: 3   <conf:(1)> lift:(205.25) lev:(0) conv:(2.99) 
151. [204101M   -LECTURA DE TEXTOS ACADEMICOS EN INGLES I=1, 204001M   -ESPANOL=1, 505011M   -PIANO COMPLEMENTARIO I=1]: 3 ==> [505003M   -ESTUDIO MUSICAL BASICO I=1]: 3   <conf:(1)> lift:(102.63) lev:(0) conv:(2.97) 
152. [204101M   -LECTURA DE TEXTOS ACADEMICOS EN INGLES I=1, 505003M   -ESTUDIO MUSICAL BASICO I=1, 505011M   -PIANO COMPLEMENTARIO I=1]: 3 ==> [204001M   -ESPANOL=1]: 3   <conf:(1)> lift:(16.42) lev:(0) conv:(2.82) 
153. [204001M   -ESPANOL=1, 505003M   -ESTUDIO MUSICAL BASICO I=1, 505011M   -PIANO COMPLEMENTARIO I=1]: 3 ==> [204101M   -LECTURA DE TEXTOS ACADEMICOS EN INGLES I=1]: 3   <conf:(1)> lift:(16.42) lev:(0) conv:(2.82) 
154. [204001M   -ESPANOL=1, 505002M   -APRECIACION MUSICAL I=1]: 3 ==> [204101M   -LECTURA DE TEXTOS ACADEMICOS EN INGLES I=1, 505011M   -PIANO COMPLEMENTARIO I=1]: 3   <conf:(1)> lift:(273.67) lev:(0) conv:(2.99) 
155. [204101M   -LECTURA DE TEXTOS ACADEMICOS EN INGLES I=1, 204001M   -ESPANOL=1, 505002M   -APRECIACION MUSICAL I=1]: 3 ==> [505011M   -PIANO COMPLEMENTARIO I=1]: 3   <conf:(1)> lift:(164.2) lev:(0) conv:(2.98) 
156. [204101M   -LECTURA DE TEXTOS ACADEMICOS EN INGLES I=1, 505011M   -PIANO COMPLEMENTARIO I=1]: 3 ==> [204001M   -ESPANOL=1, 505002M   -APRECIACION MUSICAL I=1]: 3   <conf:(1)> lift:(273.67) lev:(0) conv:(2.99) 
157. [204001M   -ESPANOL=1, 505011M   -PIANO COMPLEMENTARIO I=1]: 3 ==> [204101M   -LECTURA DE TEXTOS ACADEMICOS EN INGLES I=1, 505002M   -APRECIACION MUSICAL I=1]: 3   <conf:(1)> lift:(205.25) lev:(0) conv:(2.99) 
158. [204101M   -LECTURA DE TEXTOS ACADEMICOS EN INGLES I=1, 204001M   -ESPANOL=1, 505011M   -PIANO COMPLEMENTARIO I=1]: 3 ==> [505002M   -APRECIACION MUSICAL I=1]: 3   <conf:(1)> lift:(136.83) lev:(0) conv:(2.98) 
159. [204101M   -LECTURA DE TEXTOS ACADEMICOS EN INGLES I=1, 505002M   -APRECIACION MUSICAL I=1, 505011M   -PIANO COMPLEMENTARIO I=1]: 3 ==> [204001M   -ESPANOL=1]: 3   <conf:(1)> lift:(16.42) lev:(0) conv:(2.82) 
160. [204001M   -ESPANOL=1, 505002M   -APRECIACION MUSICAL I=1, 505011M   -PIANO COMPLEMENTARIO I=1]: 3 ==> [204101M   -LECTURA DE TEXTOS ACADEMICOS EN INGLES I=1]: 3   <conf:(1)> lift:(16.42) lev:(0) conv:(2.82) 
161. [204101M   -LECTURA DE TEXTOS ACADEMICOS EN INGLES I=1, 505330M   -ELECTIVA COMPLEMENTARIA I=1]: 3 ==> [505008M   -TECNICA VOCAL=1, 505003M   -ESTUDIO MUSICAL BASICO I=1]: 3   <conf:(1)> lift:(136.83) lev:(0) conv:(2.98) 
162. [204101M   -LECTURA DE TEXTOS ACADEMICOS EN INGLES I=1, 505008M   -TECNICA VOCAL=1]: 3 ==> [505330M   -ELECTIVA COMPLEMENTARIA I=1, 505003M   -ESTUDIO MUSICAL BASICO I=1]: 3   <conf:(1)> lift:(164.2) lev:(0) conv:(2.98) 
163. [204101M   -LECTURA DE TEXTOS ACADEMICOS EN INGLES I=1, 505330M   -ELECTIVA COMPLEMENTARIA I=1, 505008M   -TECNICA VOCAL=1]: 3 ==> [505003M   -ESTUDIO MUSICAL BASICO I=1]: 3   <conf:(1)> lift:(102.63) lev:(0) conv:(2.97) 
164. [204101M   -LECTURA DE TEXTOS ACADEMICOS EN INGLES I=1, 505330M   -ELECTIVA COMPLEMENTARIA I=1, 505003M   -ESTUDIO MUSICAL BASICO I=1]: 3 ==> [505008M   -TECNICA VOCAL=1]: 3   <conf:(1)> lift:(91.22) lev:(0) conv:(2.97) 
165. [204101M   -LECTURA DE TEXTOS ACADEMICOS EN INGLES I=1, 505008M   -TECNICA VOCAL=1, 505003M   -ESTUDIO MUSICAL BASICO I=1]: 3 ==> [505330M   -ELECTIVA COMPLEMENTARIA I=1]: 3   <conf:(1)> lift:(91.22) lev:(0) conv:(2.97) 
166. [204101M   -LECTURA DE TEXTOS ACADEMICOS EN INGLES I=1, 505330M   -ELECTIVA COMPLEMENTARIA I=1]: 3 ==> [505008M   -TECNICA VOCAL=1, 505002M   -APRECIACION MUSICAL I=1]: 3   <conf:(1)> lift:(205.25) lev:(0) conv:(2.99) 
167. [204101M   -LECTURA DE TEXTOS ACADEMICOS EN INGLES I=1, 505008M   -TECNICA VOCAL=1]: 3 ==> [505330M   -ELECTIVA COMPLEMENTARIA I=1, 505002M   -APRECIACION MUSICAL I=1]: 3   <conf:(1)> lift:(205.25) lev:(0) conv:(2.99) 
168. [204101M   -LECTURA DE TEXTOS ACADEMICOS EN INGLES I=1, 505330M   -ELECTIVA COMPLEMENTARIA I=1, 505008M   -TECNICA VOCAL=1]: 3 ==> [505002M   -APRECIACION MUSICAL I=1]: 3   <conf:(1)> lift:(136.83) lev:(0) conv:(2.98) 
169. [204101M   -LECTURA DE TEXTOS ACADEMICOS EN INGLES I=1, 505330M   -ELECTIVA COMPLEMENTARIA I=1, 505002M   -APRECIACION MUSICAL I=1]: 3 ==> [505008M   -TECNICA VOCAL=1]: 3   <conf:(1)> lift:(91.22) lev:(0) conv:(2.97) 
170. [204101M   -LECTURA DE TEXTOS ACADEMICOS EN INGLES I=1, 505008M   -TECNICA VOCAL=1, 505002M   -APRECIACION MUSICAL I=1]: 3 ==> [505330M   -ELECTIVA COMPLEMENTARIA I=1]: 3   <conf:(1)> lift:(91.22) lev:(0) conv:(2.97) 
171. [204101M   -LECTURA DE TEXTOS ACADEMICOS EN INGLES I=1, 505330M   -ELECTIVA COMPLEMENTARIA I=1]: 3 ==> [505008M   -TECNICA VOCAL=1, 505011M   -PIANO COMPLEMENTARIO I=1]: 3   <conf:(1)> lift:(205.25) lev:(0) conv:(2.99) 
172. [204101M   -LECTURA DE TEXTOS ACADEMICOS EN INGLES I=1, 505008M   -TECNICA VOCAL=1]: 3 ==> [505330M   -ELECTIVA COMPLEMENTARIA I=1, 505011M   -PIANO COMPLEMENTARIO I=1]: 3   <conf:(1)> lift:(205.25) lev:(0) conv:(2.99) 
173. [204101M   -LECTURA DE TEXTOS ACADEMICOS EN INGLES I=1, 505330M   -ELECTIVA COMPLEMENTARIA I=1, 505008M   -TECNICA VOCAL=1]: 3 ==> [505011M   -PIANO COMPLEMENTARIO I=1]: 3   <conf:(1)> lift:(164.2) lev:(0) conv:(2.98) 
174. [204101M   -LECTURA DE TEXTOS ACADEMICOS EN INGLES I=1, 505011M   -PIANO COMPLEMENTARIO I=1]: 3 ==> [505330M   -ELECTIVA COMPLEMENTARIA I=1, 505008M   -TECNICA VOCAL=1]: 3   <conf:(1)> lift:(164.2) lev:(0) conv:(2.98) 
175. [204101M   -LECTURA DE TEXTOS ACADEMICOS EN INGLES I=1, 505330M   -ELECTIVA COMPLEMENTARIA I=1, 505011M   -PIANO COMPLEMENTARIO I=1]: 3 ==> [505008M   -TECNICA VOCAL=1]: 3   <conf:(1)> lift:(91.22) lev:(0) conv:(2.97) 
176. [204101M   -LECTURA DE TEXTOS ACADEMICOS EN INGLES I=1, 505008M   -TECNICA VOCAL=1, 505011M   -PIANO COMPLEMENTARIO I=1]: 3 ==> [505330M   -ELECTIVA COMPLEMENTARIA I=1]: 3   <conf:(1)> lift:(91.22) lev:(0) conv:(2.97) 
177. [204101M   -LECTURA DE TEXTOS ACADEMICOS EN INGLES I=1, 505330M   -ELECTIVA COMPLEMENTARIA I=1]: 3 ==> [505003M   -ESTUDIO MUSICAL BASICO I=1, 505002M   -APRECIACION MUSICAL I=1]: 3   <conf:(1)> lift:(205.25) lev:(0) conv:(2.99) 
178. [204101M   -LECTURA DE TEXTOS ACADEMICOS EN INGLES I=1, 505330M   -ELECTIVA COMPLEMENTARIA I=1, 505003M   -ESTUDIO MUSICAL BASICO I=1]: 3 ==> [505002M   -APRECIACION MUSICAL I=1]: 3   <conf:(1)> lift:(136.83) lev:(0) conv:(2.98) 
179. [204101M   -LECTURA DE TEXTOS ACADEMICOS EN INGLES I=1, 505330M   -ELECTIVA COMPLEMENTARIA I=1, 505002M   -APRECIACION MUSICAL I=1]: 3 ==> [505003M   -ESTUDIO MUSICAL BASICO I=1]: 3   <conf:(1)> lift:(102.63) lev:(0) conv:(2.97) 
180. [204101M   -LECTURA DE TEXTOS ACADEMICOS EN INGLES I=1, 505003M   -ESTUDIO MUSICAL BASICO I=1, 505002M   -APRECIACION MUSICAL I=1]: 3 ==> [505330M   -ELECTIVA COMPLEMENTARIA I=1]: 3   <conf:(1)> lift:(91.22) lev:(0) conv:(2.97) 
181. [204101M   -LECTURA DE TEXTOS ACADEMICOS EN INGLES I=1, 505330M   -ELECTIVA COMPLEMENTARIA I=1]: 3 ==> [505003M   -ESTUDIO MUSICAL BASICO I=1, 505011M   -PIANO COMPLEMENTARIO I=1]: 3   <conf:(1)> lift:(205.25) lev:(0) conv:(2.99) 
182. [204101M   -LECTURA DE TEXTOS ACADEMICOS EN INGLES I=1, 505330M   -ELECTIVA COMPLEMENTARIA I=1, 505003M   -ESTUDIO MUSICAL BASICO I=1]: 3 ==> [505011M   -PIANO COMPLEMENTARIO I=1]: 3   <conf:(1)> lift:(164.2) lev:(0) conv:(2.98) 
183. [204101M   -LECTURA DE TEXTOS ACADEMICOS EN INGLES I=1, 505011M   -PIANO COMPLEMENTARIO I=1]: 3 ==> [505330M   -ELECTIVA COMPLEMENTARIA I=1, 505003M   -ESTUDIO MUSICAL BASICO I=1]: 3   <conf:(1)> lift:(164.2) lev:(0) conv:(2.98) 
184. [204101M   -LECTURA DE TEXTOS ACADEMICOS EN INGLES I=1, 505330M   -ELECTIVA COMPLEMENTARIA I=1, 505011M   -PIANO COMPLEMENTARIO I=1]: 3 ==> [505003M   -ESTUDIO MUSICAL BASICO I=1]: 3   <conf:(1)> lift:(102.63) lev:(0) conv:(2.97) 
185. [204101M   -LECTURA DE TEXTOS ACADEMICOS EN INGLES I=1, 505003M   -ESTUDIO MUSICAL BASICO I=1, 505011M   -PIANO COMPLEMENTARIO I=1]: 3 ==> [505330M   -ELECTIVA COMPLEMENTARIA I=1]: 3   <conf:(1)> lift:(91.22) lev:(0) conv:(2.97) 
186. [204101M   -LECTURA DE TEXTOS ACADEMICOS EN INGLES I=1, 505330M   -ELECTIVA COMPLEMENTARIA I=1]: 3 ==> [505002M   -APRECIACION MUSICAL I=1, 505011M   -PIANO COMPLEMENTARIO I=1]: 3   <conf:(1)> lift:(205.25) lev:(0) conv:(2.99) 
187. [204101M   -LECTURA DE TEXTOS ACADEMICOS EN INGLES I=1, 505330M   -ELECTIVA COMPLEMENTARIA I=1, 505002M   -APRECIACION MUSICAL I=1]: 3 ==> [505011M   -PIANO COMPLEMENTARIO I=1]: 3   <conf:(1)> lift:(164.2) lev:(0) conv:(2.98) 
188. [204101M   -LECTURA DE TEXTOS ACADEMICOS EN INGLES I=1, 505011M   -PIANO COMPLEMENTARIO I=1]: 3 ==> [505330M   -ELECTIVA COMPLEMENTARIA I=1, 505002M   -APRECIACION MUSICAL I=1]: 3   <conf:(1)> lift:(205.25) lev:(0) conv:(2.99) 
189. [204101M   -LECTURA DE TEXTOS ACADEMICOS EN INGLES I=1, 505330M   -ELECTIVA COMPLEMENTARIA I=1, 505011M   -PIANO COMPLEMENTARIO I=1]: 3 ==> [505002M   -APRECIACION MUSICAL I=1]: 3   <conf:(1)> lift:(136.83) lev:(0) conv:(2.98) 
190. [204101M   -LECTURA DE TEXTOS ACADEMICOS EN INGLES I=1, 505002M   -APRECIACION MUSICAL I=1, 505011M   -PIANO COMPLEMENTARIO I=1]: 3 ==> [505330M   -ELECTIVA COMPLEMENTARIA I=1]: 3   <conf:(1)> lift:(91.22) lev:(0) conv:(2.97) 
191. [204101M   -LECTURA DE TEXTOS ACADEMICOS EN INGLES I=1, 505008M   -TECNICA VOCAL=1]: 3 ==> [505003M   -ESTUDIO MUSICAL BASICO I=1, 505002M   -APRECIACION MUSICAL I=1]: 3   <conf:(1)> lift:(205.25) lev:(0) conv:(2.99) 
192. [204101M   -LECTURA DE TEXTOS ACADEMICOS EN INGLES I=1, 505008M   -TECNICA VOCAL=1, 505003M   -ESTUDIO MUSICAL BASICO I=1]: 3 ==> [505002M   -APRECIACION MUSICAL I=1]: 3   <conf:(1)> lift:(136.83) lev:(0) conv:(2.98) 
193. [204101M   -LECTURA DE TEXTOS ACADEMICOS EN INGLES I=1, 505008M   -TECNICA VOCAL=1, 505002M   -APRECIACION MUSICAL I=1]: 3 ==> [505003M   -ESTUDIO MUSICAL BASICO I=1]: 3   <conf:(1)> lift:(102.63) lev:(0) conv:(2.97) 
194. [204101M   -LECTURA DE TEXTOS ACADEMICOS EN INGLES I=1, 505003M   -ESTUDIO MUSICAL BASICO I=1, 505002M   -APRECIACION MUSICAL I=1]: 3 ==> [505008M   -TECNICA VOCAL=1]: 3   <conf:(1)> lift:(91.22) lev:(0) conv:(2.97) 
195. [204101M   -LECTURA DE TEXTOS ACADEMICOS EN INGLES I=1, 505008M   -TECNICA VOCAL=1]: 3 ==> [505003M   -ESTUDIO MUSICAL BASICO I=1, 505011M   -PIANO COMPLEMENTARIO I=1]: 3   <conf:(1)> lift:(205.25) lev:(0) conv:(2.99) 
196. [204101M   -LECTURA DE TEXTOS ACADEMICOS EN INGLES I=1, 505008M   -TECNICA VOCAL=1, 505003M   -ESTUDIO MUSICAL BASICO I=1]: 3 ==> [505011M   -PIANO COMPLEMENTARIO I=1]: 3   <conf:(1)> lift:(164.2) lev:(0) conv:(2.98) 
197. [204101M   -LECTURA DE TEXTOS ACADEMICOS EN INGLES I=1, 505011M   -PIANO COMPLEMENTARIO I=1]: 3 ==> [505008M   -TECNICA VOCAL=1, 505003M   -ESTUDIO MUSICAL BASICO I=1]: 3   <conf:(1)> lift:(136.83) lev:(0) conv:(2.98) 
198. [204101M   -LECTURA DE TEXTOS ACADEMICOS EN INGLES I=1, 505008M   -TECNICA VOCAL=1, 505011M   -PIANO COMPLEMENTARIO I=1]: 3 ==> [505003M   -ESTUDIO MUSICAL BASICO I=1]: 3   <conf:(1)> lift:(102.63) lev:(0) conv:(2.97) 
199. [204101M   -LECTURA DE TEXTOS ACADEMICOS EN INGLES I=1, 505003M   -ESTUDIO MUSICAL BASICO I=1, 505011M   -PIANO COMPLEMENTARIO I=1]: 3 ==> [505008M   -TECNICA VOCAL=1]: 3   <conf:(1)> lift:(91.22) lev:(0) conv:(2.97) 
200. [204101M   -LECTURA DE TEXTOS ACADEMICOS EN INGLES I=1, 505008M   -TECNICA VOCAL=1]: 3 ==> [505002M   -APRECIACION MUSICAL I=1, 505011M   -PIANO COMPLEMENTARIO I=1]: 3   <conf:(1)> lift:(205.25) lev:(0) conv:(2.99) 
201. [204101M   -LECTURA DE TEXTOS ACADEMICOS EN INGLES I=1, 505008M   -TECNICA VOCAL=1, 505002M   -APRECIACION MUSICAL I=1]: 3 ==> [505011M   -PIANO COMPLEMENTARIO I=1]: 3   <conf:(1)> lift:(164.2) lev:(0) conv:(2.98) 
202. [204101M   -LECTURA DE TEXTOS ACADEMICOS EN INGLES I=1, 505011M   -PIANO COMPLEMENTARIO I=1]: 3 ==> [505008M   -TECNICA VOCAL=1, 505002M   -APRECIACION MUSICAL I=1]: 3   <conf:(1)> lift:(205.25) lev:(0) conv:(2.99) 
203. [204101M   -LECTURA DE TEXTOS ACADEMICOS EN INGLES I=1, 505008M   -TECNICA VOCAL=1, 505011M   -PIANO COMPLEMENTARIO I=1]: 3 ==> [505002M   -APRECIACION MUSICAL I=1]: 3   <conf:(1)> lift:(136.83) lev:(0) conv:(2.98) 
204. [204101M   -LECTURA DE TEXTOS ACADEMICOS EN INGLES I=1, 505002M   -APRECIACION MUSICAL I=1, 505011M   -PIANO COMPLEMENTARIO I=1]: 3 ==> [505008M   -TECNICA VOCAL=1]: 3   <conf:(1)> lift:(91.22) lev:(0) conv:(2.97) 
205. [204101M   -LECTURA DE TEXTOS ACADEMICOS EN INGLES I=1, 505003M   -ESTUDIO MUSICAL BASICO I=1, 505002M   -APRECIACION MUSICAL I=1]: 3 ==> [505011M   -PIANO COMPLEMENTARIO I=1]: 3   <conf:(1)> lift:(164.2) lev:(0) conv:(2.98) 
206. [204101M   -LECTURA DE TEXTOS ACADEMICOS EN INGLES I=1, 505011M   -PIANO COMPLEMENTARIO I=1]: 3 ==> [505003M   -ESTUDIO MUSICAL BASICO I=1, 505002M   -APRECIACION MUSICAL I=1]: 3   <conf:(1)> lift:(205.25) lev:(0) conv:(2.99) 
207. [204101M   -LECTURA DE TEXTOS ACADEMICOS EN INGLES I=1, 505003M   -ESTUDIO MUSICAL BASICO I=1, 505011M   -PIANO COMPLEMENTARIO I=1]: 3 ==> [505002M   -APRECIACION MUSICAL I=1]: 3   <conf:(1)> lift:(136.83) lev:(0) conv:(2.98) 
208. [204101M   -LECTURA DE TEXTOS ACADEMICOS EN INGLES I=1, 505002M   -APRECIACION MUSICAL I=1, 505011M   -PIANO COMPLEMENTARIO I=1]: 3 ==> [505003M   -ESTUDIO MUSICAL BASICO I=1]: 3   <conf:(1)> lift:(102.63) lev:(0) conv:(2.97) 
209. [204001M   -ESPANOL=1, 505330M   -ELECTIVA COMPLEMENTARIA I=1]: 4 ==> [505008M   -TECNICA VOCAL=1, 505003M   -ESTUDIO MUSICAL BASICO I=1]: 4   <conf:(1)> lift:(136.83) lev:(0) conv:(3.97) 
210. [204001M   -ESPANOL=1, 505008M   -TECNICA VOCAL=1]: 4 ==> [505330M   -ELECTIVA COMPLEMENTARIA I=1, 505003M   -ESTUDIO MUSICAL BASICO I=1]: 4   <conf:(1)> lift:(164.2) lev:(0) conv:(3.98) 
211. [204001M   -ESPANOL=1, 505330M   -ELECTIVA COMPLEMENTARIA I=1, 505008M   -TECNICA VOCAL=1]: 4 ==> [505003M   -ESTUDIO MUSICAL BASICO I=1]: 4   <conf:(1)> lift:(102.63) lev:(0) conv:(3.96) 
212. [204001M   -ESPANOL=1, 505330M   -ELECTIVA COMPLEMENTARIA I=1, 505003M   -ESTUDIO MUSICAL BASICO I=1]: 4 ==> [505008M   -TECNICA VOCAL=1]: 4   <conf:(1)> lift:(91.22) lev:(0) conv:(3.96) 
213. [204001M   -ESPANOL=1, 505008M   -TECNICA VOCAL=1, 505003M   -ESTUDIO MUSICAL BASICO I=1]: 4 ==> [505330M   -ELECTIVA COMPLEMENTARIA I=1]: 4   <conf:(1)> lift:(91.22) lev:(0) conv:(3.96) 
214. [204001M   -ESPANOL=1, 505002M   -APRECIACION MUSICAL I=1]: 3 ==> [505330M   -ELECTIVA COMPLEMENTARIA I=1, 505008M   -TECNICA VOCAL=1]: 3   <conf:(1)> lift:(164.2) lev:(0) conv:(2.98) 
215. [204001M   -ESPANOL=1, 505330M   -ELECTIVA COMPLEMENTARIA I=1, 505002M   -APRECIACION MUSICAL I=1]: 3 ==> [505008M   -TECNICA VOCAL=1]: 3   <conf:(1)> lift:(91.22) lev:(0) conv:(2.97) 
216. [204001M   -ESPANOL=1, 505008M   -TECNICA VOCAL=1, 505002M   -APRECIACION MUSICAL I=1]: 3 ==> [505330M   -ELECTIVA COMPLEMENTARIA I=1]: 3   <conf:(1)> lift:(91.22) lev:(0) conv:(2.97) 
217. [204001M   -ESPANOL=1, 505011M   -PIANO COMPLEMENTARIO I=1]: 3 ==> [505330M   -ELECTIVA COMPLEMENTARIA I=1, 505008M   -TECNICA VOCAL=1]: 3   <conf:(1)> lift:(164.2) lev:(0) conv:(2.98) 
218. [204001M   -ESPANOL=1, 505330M   -ELECTIVA COMPLEMENTARIA I=1, 505011M   -PIANO COMPLEMENTARIO I=1]: 3 ==> [505008M   -TECNICA VOCAL=1]: 3   <conf:(1)> lift:(91.22) lev:(0) conv:(2.97) 
219. [204001M   -ESPANOL=1, 505008M   -TECNICA VOCAL=1, 505011M   -PIANO COMPLEMENTARIO I=1]: 3 ==> [505330M   -ELECTIVA COMPLEMENTARIA I=1]: 3   <conf:(1)> lift:(91.22) lev:(0) conv:(2.97) 
220. [204001M   -ESPANOL=1, 505002M   -APRECIACION MUSICAL I=1]: 3 ==> [505330M   -ELECTIVA COMPLEMENTARIA I=1, 505003M   -ESTUDIO MUSICAL BASICO I=1]: 3   <conf:(1)> lift:(164.2) lev:(0) conv:(2.98) 
221. [204001M   -ESPANOL=1, 505330M   -ELECTIVA COMPLEMENTARIA I=1, 505002M   -APRECIACION MUSICAL I=1]: 3 ==> [505003M   -ESTUDIO MUSICAL BASICO I=1]: 3   <conf:(1)> lift:(102.63) lev:(0) conv:(2.97) 
222. [204001M   -ESPANOL=1, 505003M   -ESTUDIO MUSICAL BASICO I=1, 505002M   -APRECIACION MUSICAL I=1]: 3 ==> [505330M   -ELECTIVA COMPLEMENTARIA I=1]: 3   <conf:(1)> lift:(91.22) lev:(0) conv:(2.97) 
223. [204001M   -ESPANOL=1, 505011M   -PIANO COMPLEMENTARIO I=1]: 3 ==> [505330M   -ELECTIVA COMPLEMENTARIA I=1, 505003M   -ESTUDIO MUSICAL BASICO I=1]: 3   <conf:(1)> lift:(164.2) lev:(0) conv:(2.98) 
224. [204001M   -ESPANOL=1, 505330M   -ELECTIVA COMPLEMENTARIA I=1, 505011M   -PIANO COMPLEMENTARIO I=1]: 3 ==> [505003M   -ESTUDIO MUSICAL BASICO I=1]: 3   <conf:(1)> lift:(102.63) lev:(0) conv:(2.97) 
225. [204001M   -ESPANOL=1, 505003M   -ESTUDIO MUSICAL BASICO I=1, 505011M   -PIANO COMPLEMENTARIO I=1]: 3 ==> [505330M   -ELECTIVA COMPLEMENTARIA I=1]: 3   <conf:(1)> lift:(91.22) lev:(0) conv:(2.97) 
226. [204001M   -ESPANOL=1, 505002M   -APRECIACION MUSICAL I=1]: 3 ==> [505330M   -ELECTIVA COMPLEMENTARIA I=1, 505011M   -PIANO COMPLEMENTARIO I=1]: 3   <conf:(1)> lift:(205.25) lev:(0) conv:(2.99) 
227. [204001M   -ESPANOL=1, 505330M   -ELECTIVA COMPLEMENTARIA I=1, 505002M   -APRECIACION MUSICAL I=1]: 3 ==> [505011M   -PIANO COMPLEMENTARIO I=1]: 3   <conf:(1)> lift:(164.2) lev:(0) conv:(2.98) 
228. [204001M   -ESPANOL=1, 505011M   -PIANO COMPLEMENTARIO I=1]: 3 ==> [505330M   -ELECTIVA COMPLEMENTARIA I=1, 505002M   -APRECIACION MUSICAL I=1]: 3   <conf:(1)> lift:(205.25) lev:(0) conv:(2.99) 
229. [204001M   -ESPANOL=1, 505330M   -ELECTIVA COMPLEMENTARIA I=1, 505011M   -PIANO COMPLEMENTARIO I=1]: 3 ==> [505002M   -APRECIACION MUSICAL I=1]: 3   <conf:(1)> lift:(136.83) lev:(0) conv:(2.98) 
230. [204001M   -ESPANOL=1, 505002M   -APRECIACION MUSICAL I=1, 505011M   -PIANO COMPLEMENTARIO I=1]: 3 ==> [505330M   -ELECTIVA COMPLEMENTARIA I=1]: 3   <conf:(1)> lift:(91.22) lev:(0) conv:(2.97) 
231. [204001M   -ESPANOL=1, 505002M   -APRECIACION MUSICAL I=1]: 3 ==> [505008M   -TECNICA VOCAL=1, 505003M   -ESTUDIO MUSICAL BASICO I=1]: 3   <conf:(1)> lift:(136.83) lev:(0) conv:(2.98) 
232. [204001M   -ESPANOL=1, 505008M   -TECNICA VOCAL=1, 505002M   -APRECIACION MUSICAL I=1]: 3 ==> [505003M   -ESTUDIO MUSICAL BASICO I=1]: 3   <conf:(1)> lift:(102.63) lev:(0) conv:(2.97) 
233. [204001M   -ESPANOL=1, 505003M   -ESTUDIO MUSICAL BASICO I=1, 505002M   -APRECIACION MUSICAL I=1]: 3 ==> [505008M   -TECNICA VOCAL=1]: 3   <conf:(1)> lift:(91.22) lev:(0) conv:(2.97) 
234. [204001M   -ESPANOL=1, 505011M   -PIANO COMPLEMENTARIO I=1]: 3 ==> [505008M   -TECNICA VOCAL=1, 505003M   -ESTUDIO MUSICAL BASICO I=1]: 3   <conf:(1)> lift:(136.83) lev:(0) conv:(2.98) 
235. [204001M   -ESPANOL=1, 505008M   -TECNICA VOCAL=1, 505011M   -PIANO COMPLEMENTARIO I=1]: 3 ==> [505003M   -ESTUDIO MUSICAL BASICO I=1]: 3   <conf:(1)> lift:(102.63) lev:(0) conv:(2.97) 
236. [204001M   -ESPANOL=1, 505003M   -ESTUDIO MUSICAL BASICO I=1, 505011M   -PIANO COMPLEMENTARIO I=1]: 3 ==> [505008M   -TECNICA VOCAL=1]: 3   <conf:(1)> lift:(91.22) lev:(0) conv:(2.97) 
237. [204001M   -ESPANOL=1, 505002M   -APRECIACION MUSICAL I=1]: 3 ==> [505008M   -TECNICA VOCAL=1, 505011M   -PIANO COMPLEMENTARIO I=1]: 3   <conf:(1)> lift:(205.25) lev:(0) conv:(2.99) 
238. [204001M   -ESPANOL=1, 505008M   -TECNICA VOCAL=1, 505002M   -APRECIACION MUSICAL I=1]: 3 ==> [505011M   -PIANO COMPLEMENTARIO I=1]: 3   <conf:(1)> lift:(164.2) lev:(0) conv:(2.98) 
239. [204001M   -ESPANOL=1, 505011M   -PIANO COMPLEMENTARIO I=1]: 3 ==> [505008M   -TECNICA VOCAL=1, 505002M   -APRECIACION MUSICAL I=1]: 3   <conf:(1)> lift:(205.25) lev:(0) conv:(2.99) 
240. [204001M   -ESPANOL=1, 505008M   -TECNICA VOCAL=1, 505011M   -PIANO COMPLEMENTARIO I=1]: 3 ==> [505002M   -APRECIACION MUSICAL I=1]: 3   <conf:(1)> lift:(136.83) lev:(0) conv:(2.98) 
241. [204001M   -ESPANOL=1, 505002M   -APRECIACION MUSICAL I=1, 505011M   -PIANO COMPLEMENTARIO I=1]: 3 ==> [505008M   -TECNICA VOCAL=1]: 3   <conf:(1)> lift:(91.22) lev:(0) conv:(2.97) 
242. [204001M   -ESPANOL=1, 505002M   -APRECIACION MUSICAL I=1]: 3 ==> [505003M   -ESTUDIO MUSICAL BASICO I=1, 505011M   -PIANO COMPLEMENTARIO I=1]: 3   <conf:(1)> lift:(205.25) lev:(0) conv:(2.99) 
243. [204001M   -ESPANOL=1, 505003M   -ESTUDIO MUSICAL BASICO I=1, 505002M   -APRECIACION MUSICAL I=1]: 3 ==> [505011M   -PIANO COMPLEMENTARIO I=1]: 3   <conf:(1)> lift:(164.2) lev:(0) conv:(2.98) 
244. [204001M   -ESPANOL=1, 505011M   -PIANO COMPLEMENTARIO I=1]: 3 ==> [505003M   -ESTUDIO MUSICAL BASICO I=1, 505002M   -APRECIACION MUSICAL I=1]: 3   <conf:(1)> lift:(205.25) lev:(0) conv:(2.99) 
245. [204001M   -ESPANOL=1, 505003M   -ESTUDIO MUSICAL BASICO I=1, 505011M   -PIANO COMPLEMENTARIO I=1]: 3 ==> [505002M   -APRECIACION MUSICAL I=1]: 3   <conf:(1)> lift:(136.83) lev:(0) conv:(2.98) 
246. [204001M   -ESPANOL=1, 505002M   -APRECIACION MUSICAL I=1, 505011M   -PIANO COMPLEMENTARIO I=1]: 3 ==> [505003M   -ESTUDIO MUSICAL BASICO I=1]: 3   <conf:(1)> lift:(102.63) lev:(0) conv:(2.97) 
247. [501078M   -PENSAMIENTO GRAFICO I=1, 502001M   -INTRODUCCION A LA TECNOLOGIA=1, 501118M   -GEOMETRIA I=1]: 3 ==> [501062M   -TALLER DE PROYECTOS I=1]: 3   <conf:(1)> lift:(117.29) lev:(0) conv:(2.97) 
248. [501078M   -PENSAMIENTO GRAFICO I=1, 501062M   -TALLER DE PROYECTOS I=1]: 3 ==> [502001M   -INTRODUCCION A LA TECNOLOGIA=1, 501118M   -GEOMETRIA I=1]: 3   <conf:(1)> lift:(205.25) lev:(0) conv:(2.99) 
249. [501078M   -PENSAMIENTO GRAFICO I=1, 502001M   -INTRODUCCION A LA TECNOLOGIA=1, 501062M   -TALLER DE PROYECTOS I=1]: 3 ==> [501118M   -GEOMETRIA I=1]: 3   <conf:(1)> lift:(82.1) lev:(0) conv:(2.96) 
250. [501078M   -PENSAMIENTO GRAFICO I=1, 501118M   -GEOMETRIA I=1, 501062M   -TALLER DE PROYECTOS I=1]: 3 ==> [502001M   -INTRODUCCION A LA TECNOLOGIA=1]: 3   <conf:(1)> lift:(82.1) lev:(0) conv:(2.96) 
