=== Run information ===

Scheme:       weka.associations.FPGrowth -P 2 -I -1 -N 100 -T 0 -C 0.9 -D 0.05 -U 384.0 -M 2.0
Relation:     cancelaciones_ciencias_sociales_economia
Instances:    384
Attributes:   165
[list of attributes omitted]
=== Associator model (full training set) ===

FPGrowth found 63 rules (displaying top 63)

 1. [304002M   -TALLER DE RECURSOS BIBLIOGRAFICOS Y COMUNICACION CIENTIFICA=1]: 3 ==> [204101M   -LECTURA DE TEXTOS ACADEMICOS EN INGLES I=1]: 3   <conf:(1)> lift:(11.64) lev:(0.01) conv:(2.74) 
 2. [202022M   -APRECIACION CINEMATOGRAFICA=1]: 2 ==> [111015M   -ALGEBRA LINEAL=1]: 2   <conf:(1)> lift:(27.43) lev:(0.01) conv:(1.93) 
 3. [204101M   -LECTURA DE TEXTOS ACADEMICOS EN INGLES I=1, 406010M   -CIENCIA CULTURA Y CREATIVIDAD=1]: 2 ==> [204161M   -COMPRENSION Y PRODUCCION DE TEXTOS ACADEMICOS=1]: 2   <conf:(1)> lift:(25.6) lev:(0.01) conv:(1.92) 
 4. [204161M   -COMPRENSION Y PRODUCCION DE TEXTOS ACADEMICOS=1, 406010M   -CIENCIA CULTURA Y CREATIVIDAD=1]: 2 ==> [204101M   -LECTURA DE TEXTOS ACADEMICOS EN INGLES I=1]: 2   <conf:(1)> lift:(11.64) lev:(0) conv:(1.83) 
 5. [204101M   -LECTURA DE TEXTOS ACADEMICOS EN INGLES I=1, 201008M   -HISTORIA ECONOMICA GENERAL=1]: 3 ==> [204161M   -COMPRENSION Y PRODUCCION DE TEXTOS ACADEMICOS=1]: 3   <conf:(1)> lift:(25.6) lev:(0.01) conv:(2.88) 
 6. [204101M   -LECTURA DE TEXTOS ACADEMICOS EN INGLES I=1, 303068M   -PRINCIPIOS DE ECONOMIA=1]: 4 ==> [204161M   -COMPRENSION Y PRODUCCION DE TEXTOS ACADEMICOS=1]: 4   <conf:(1)> lift:(25.6) lev:(0.01) conv:(3.84) 
 7. [204161M   -COMPRENSION Y PRODUCCION DE TEXTOS ACADEMICOS=1, 303068M   -PRINCIPIOS DE ECONOMIA=1]: 4 ==> [204101M   -LECTURA DE TEXTOS ACADEMICOS EN INGLES I=1]: 4   <conf:(1)> lift:(11.64) lev:(0.01) conv:(3.66) 
 8. [204101M   -LECTURA DE TEXTOS ACADEMICOS EN INGLES I=1, 406010M   -CIENCIA CULTURA Y CREATIVIDAD=1]: 2 ==> [111095M   -MATEMATICA BASICA=1]: 2   <conf:(1)> lift:(29.54) lev:(0.01) conv:(1.93) 
 9. [111095M   -MATEMATICA BASICA=1, 406010M   -CIENCIA CULTURA Y CREATIVIDAD=1]: 2 ==> [204101M   -LECTURA DE TEXTOS ACADEMICOS EN INGLES I=1]: 2   <conf:(1)> lift:(11.64) lev:(0) conv:(1.83) 
10. [111095M   -MATEMATICA BASICA=1, 201008M   -HISTORIA ECONOMICA GENERAL=1]: 2 ==> [204101M   -LECTURA DE TEXTOS ACADEMICOS EN INGLES I=1]: 2   <conf:(1)> lift:(11.64) lev:(0) conv:(1.83) 
11. [204101M   -LECTURA DE TEXTOS ACADEMICOS EN INGLES I=1, 303068M   -PRINCIPIOS DE ECONOMIA=1]: 4 ==> [111095M   -MATEMATICA BASICA=1]: 4   <conf:(1)> lift:(29.54) lev:(0.01) conv:(3.86) 
12. [111095M   -MATEMATICA BASICA=1, 303068M   -PRINCIPIOS DE ECONOMIA=1]: 4 ==> [204101M   -LECTURA DE TEXTOS ACADEMICOS EN INGLES I=1]: 4   <conf:(1)> lift:(11.64) lev:(0.01) conv:(3.66) 
13. [201008M   -HISTORIA ECONOMICA GENERAL=1, 303068M   -PRINCIPIOS DE ECONOMIA=1]: 2 ==> [204101M   -LECTURA DE TEXTOS ACADEMICOS EN INGLES I=1]: 2   <conf:(1)> lift:(11.64) lev:(0) conv:(1.83) 
14. [304089M   -ELECTIVA EN CIENCIAS SOCIALES Y ESTADISTICA SOCIAL=1, 304004M   -FUNDAMENTOS DE SOCIOLOGIA=1]: 2 ==> [204101M   -LECTURA DE TEXTOS ACADEMICOS EN INGLES I=1]: 2   <conf:(1)> lift:(11.64) lev:(0) conv:(1.83) 
15. [304089M   -ELECTIVA EN CIENCIAS SOCIALES Y ESTADISTICA SOCIAL=1, 304002M   -TALLER DE RECURSOS BIBLIOGRAFICOS Y COMUNICACION CIENTIFICA=1]: 2 ==> [204101M   -LECTURA DE TEXTOS ACADEMICOS EN INGLES I=1]: 2   <conf:(1)> lift:(11.64) lev:(0) conv:(1.83) 
16. [404001M   -DEPORTE FORMATIVO=1, 111095M   -MATEMATICA BASICA=1]: 2 ==> [204161M   -COMPRENSION Y PRODUCCION DE TEXTOS ACADEMICOS=1]: 2   <conf:(1)> lift:(25.6) lev:(0.01) conv:(1.92) 
17. [204161M   -COMPRENSION Y PRODUCCION DE TEXTOS ACADEMICOS=1, 406010M   -CIENCIA CULTURA Y CREATIVIDAD=1]: 2 ==> [111095M   -MATEMATICA BASICA=1]: 2   <conf:(1)> lift:(29.54) lev:(0.01) conv:(1.93) 
18. [111095M   -MATEMATICA BASICA=1, 406010M   -CIENCIA CULTURA Y CREATIVIDAD=1]: 2 ==> [204161M   -COMPRENSION Y PRODUCCION DE TEXTOS ACADEMICOS=1]: 2   <conf:(1)> lift:(25.6) lev:(0.01) conv:(1.92) 
19. [111095M   -MATEMATICA BASICA=1, 201008M   -HISTORIA ECONOMICA GENERAL=1]: 2 ==> [204161M   -COMPRENSION Y PRODUCCION DE TEXTOS ACADEMICOS=1]: 2   <conf:(1)> lift:(25.6) lev:(0.01) conv:(1.92) 
20. [204161M   -COMPRENSION Y PRODUCCION DE TEXTOS ACADEMICOS=1, 303068M   -PRINCIPIOS DE ECONOMIA=1]: 4 ==> [111095M   -MATEMATICA BASICA=1]: 4   <conf:(1)> lift:(29.54) lev:(0.01) conv:(3.86) 
21. [111095M   -MATEMATICA BASICA=1, 303068M   -PRINCIPIOS DE ECONOMIA=1]: 4 ==> [204161M   -COMPRENSION Y PRODUCCION DE TEXTOS ACADEMICOS=1]: 4   <conf:(1)> lift:(25.6) lev:(0.01) conv:(3.84) 
22. [201008M   -HISTORIA ECONOMICA GENERAL=1, 303068M   -PRINCIPIOS DE ECONOMIA=1]: 2 ==> [204161M   -COMPRENSION Y PRODUCCION DE TEXTOS ACADEMICOS=1]: 2   <conf:(1)> lift:(25.6) lev:(0.01) conv:(1.92) 
23. [111095M   -MATEMATICA BASICA=1, 201008M   -HISTORIA ECONOMICA GENERAL=1]: 2 ==> [303068M   -PRINCIPIOS DE ECONOMIA=1]: 2   <conf:(1)> lift:(64) lev:(0.01) conv:(1.97) 
24. [201008M   -HISTORIA ECONOMICA GENERAL=1, 303068M   -PRINCIPIOS DE ECONOMIA=1]: 2 ==> [111095M   -MATEMATICA BASICA=1]: 2   <conf:(1)> lift:(29.54) lev:(0.01) conv:(1.93) 
25. [204101M   -LECTURA DE TEXTOS ACADEMICOS EN INGLES I=1, 406010M   -CIENCIA CULTURA Y CREATIVIDAD=1]: 2 ==> [204161M   -COMPRENSION Y PRODUCCION DE TEXTOS ACADEMICOS=1, 111095M   -MATEMATICA BASICA=1]: 2   <conf:(1)> lift:(54.86) lev:(0.01) conv:(1.96) 
26. [204161M   -COMPRENSION Y PRODUCCION DE TEXTOS ACADEMICOS=1, 406010M   -CIENCIA CULTURA Y CREATIVIDAD=1]: 2 ==> [204101M   -LECTURA DE TEXTOS ACADEMICOS EN INGLES I=1, 111095M   -MATEMATICA BASICA=1]: 2   <conf:(1)> lift:(54.86) lev:(0.01) conv:(1.96) 
27. [204101M   -LECTURA DE TEXTOS ACADEMICOS EN INGLES I=1, 204161M   -COMPRENSION Y PRODUCCION DE TEXTOS ACADEMICOS=1, 406010M   -CIENCIA CULTURA Y CREATIVIDAD=1]: 2 ==> [111095M   -MATEMATICA BASICA=1]: 2   <conf:(1)> lift:(29.54) lev:(0.01) conv:(1.93) 
28. [111095M   -MATEMATICA BASICA=1, 406010M   -CIENCIA CULTURA Y CREATIVIDAD=1]: 2 ==> [204101M   -LECTURA DE TEXTOS ACADEMICOS EN INGLES I=1, 204161M   -COMPRENSION Y PRODUCCION DE TEXTOS ACADEMICOS=1]: 2   <conf:(1)> lift:(38.4) lev:(0.01) conv:(1.95) 
29. [204101M   -LECTURA DE TEXTOS ACADEMICOS EN INGLES I=1, 111095M   -MATEMATICA BASICA=1, 406010M   -CIENCIA CULTURA Y CREATIVIDAD=1]: 2 ==> [204161M   -COMPRENSION Y PRODUCCION DE TEXTOS ACADEMICOS=1]: 2   <conf:(1)> lift:(25.6) lev:(0.01) conv:(1.92) 
30. [204161M   -COMPRENSION Y PRODUCCION DE TEXTOS ACADEMICOS=1, 111095M   -MATEMATICA BASICA=1, 406010M   -CIENCIA CULTURA Y CREATIVIDAD=1]: 2 ==> [204101M   -LECTURA DE TEXTOS ACADEMICOS EN INGLES I=1]: 2   <conf:(1)> lift:(11.64) lev:(0) conv:(1.83) 
31. [111095M   -MATEMATICA BASICA=1, 201008M   -HISTORIA ECONOMICA GENERAL=1]: 2 ==> [204101M   -LECTURA DE TEXTOS ACADEMICOS EN INGLES I=1, 204161M   -COMPRENSION Y PRODUCCION DE TEXTOS ACADEMICOS=1]: 2   <conf:(1)> lift:(38.4) lev:(0.01) conv:(1.95) 
32. [204101M   -LECTURA DE TEXTOS ACADEMICOS EN INGLES I=1, 111095M   -MATEMATICA BASICA=1, 201008M   -HISTORIA ECONOMICA GENERAL=1]: 2 ==> [204161M   -COMPRENSION Y PRODUCCION DE TEXTOS ACADEMICOS=1]: 2   <conf:(1)> lift:(25.6) lev:(0.01) conv:(1.92) 
33. [204161M   -COMPRENSION Y PRODUCCION DE TEXTOS ACADEMICOS=1, 111095M   -MATEMATICA BASICA=1, 201008M   -HISTORIA ECONOMICA GENERAL=1]: 2 ==> [204101M   -LECTURA DE TEXTOS ACADEMICOS EN INGLES I=1]: 2   <conf:(1)> lift:(11.64) lev:(0) conv:(1.83) 
34. [204101M   -LECTURA DE TEXTOS ACADEMICOS EN INGLES I=1, 303068M   -PRINCIPIOS DE ECONOMIA=1]: 4 ==> [204161M   -COMPRENSION Y PRODUCCION DE TEXTOS ACADEMICOS=1, 111095M   -MATEMATICA BASICA=1]: 4   <conf:(1)> lift:(54.86) lev:(0.01) conv:(3.93) 
35. [204161M   -COMPRENSION Y PRODUCCION DE TEXTOS ACADEMICOS=1, 303068M   -PRINCIPIOS DE ECONOMIA=1]: 4 ==> [204101M   -LECTURA DE TEXTOS ACADEMICOS EN INGLES I=1, 111095M   -MATEMATICA BASICA=1]: 4   <conf:(1)> lift:(54.86) lev:(0.01) conv:(3.93) 
36. [204101M   -LECTURA DE TEXTOS ACADEMICOS EN INGLES I=1, 204161M   -COMPRENSION Y PRODUCCION DE TEXTOS ACADEMICOS=1, 303068M   -PRINCIPIOS DE ECONOMIA=1]: 4 ==> [111095M   -MATEMATICA BASICA=1]: 4   <conf:(1)> lift:(29.54) lev:(0.01) conv:(3.86) 
37. [111095M   -MATEMATICA BASICA=1, 303068M   -PRINCIPIOS DE ECONOMIA=1]: 4 ==> [204101M   -LECTURA DE TEXTOS ACADEMICOS EN INGLES I=1, 204161M   -COMPRENSION Y PRODUCCION DE TEXTOS ACADEMICOS=1]: 4   <conf:(1)> lift:(38.4) lev:(0.01) conv:(3.9) 
38. [204101M   -LECTURA DE TEXTOS ACADEMICOS EN INGLES I=1, 111095M   -MATEMATICA BASICA=1, 303068M   -PRINCIPIOS DE ECONOMIA=1]: 4 ==> [204161M   -COMPRENSION Y PRODUCCION DE TEXTOS ACADEMICOS=1]: 4   <conf:(1)> lift:(25.6) lev:(0.01) conv:(3.84) 
39. [204161M   -COMPRENSION Y PRODUCCION DE TEXTOS ACADEMICOS=1, 111095M   -MATEMATICA BASICA=1, 303068M   -PRINCIPIOS DE ECONOMIA=1]: 4 ==> [204101M   -LECTURA DE TEXTOS ACADEMICOS EN INGLES I=1]: 4   <conf:(1)> lift:(11.64) lev:(0.01) conv:(3.66) 
40. [201008M   -HISTORIA ECONOMICA GENERAL=1, 303068M   -PRINCIPIOS DE ECONOMIA=1]: 2 ==> [204101M   -LECTURA DE TEXTOS ACADEMICOS EN INGLES I=1, 204161M   -COMPRENSION Y PRODUCCION DE TEXTOS ACADEMICOS=1]: 2   <conf:(1)> lift:(38.4) lev:(0.01) conv:(1.95) 
41. [204101M   -LECTURA DE TEXTOS ACADEMICOS EN INGLES I=1, 201008M   -HISTORIA ECONOMICA GENERAL=1, 303068M   -PRINCIPIOS DE ECONOMIA=1]: 2 ==> [204161M   -COMPRENSION Y PRODUCCION DE TEXTOS ACADEMICOS=1]: 2   <conf:(1)> lift:(25.6) lev:(0.01) conv:(1.92) 
42. [204161M   -COMPRENSION Y PRODUCCION DE TEXTOS ACADEMICOS=1, 201008M   -HISTORIA ECONOMICA GENERAL=1, 303068M   -PRINCIPIOS DE ECONOMIA=1]: 2 ==> [204101M   -LECTURA DE TEXTOS ACADEMICOS EN INGLES I=1]: 2   <conf:(1)> lift:(11.64) lev:(0) conv:(1.83) 
43. [111095M   -MATEMATICA BASICA=1, 201008M   -HISTORIA ECONOMICA GENERAL=1]: 2 ==> [204101M   -LECTURA DE TEXTOS ACADEMICOS EN INGLES I=1, 303068M   -PRINCIPIOS DE ECONOMIA=1]: 2   <conf:(1)> lift:(96) lev:(0.01) conv:(1.98) 
44. [204101M   -LECTURA DE TEXTOS ACADEMICOS EN INGLES I=1, 111095M   -MATEMATICA BASICA=1, 201008M   -HISTORIA ECONOMICA GENERAL=1]: 2 ==> [303068M   -PRINCIPIOS DE ECONOMIA=1]: 2   <conf:(1)> lift:(64) lev:(0.01) conv:(1.97) 
45. [201008M   -HISTORIA ECONOMICA GENERAL=1, 303068M   -PRINCIPIOS DE ECONOMIA=1]: 2 ==> [204101M   -LECTURA DE TEXTOS ACADEMICOS EN INGLES I=1, 111095M   -MATEMATICA BASICA=1]: 2   <conf:(1)> lift:(54.86) lev:(0.01) conv:(1.96) 
46. [204101M   -LECTURA DE TEXTOS ACADEMICOS EN INGLES I=1, 201008M   -HISTORIA ECONOMICA GENERAL=1, 303068M   -PRINCIPIOS DE ECONOMIA=1]: 2 ==> [111095M   -MATEMATICA BASICA=1]: 2   <conf:(1)> lift:(29.54) lev:(0.01) conv:(1.93) 
47. [111095M   -MATEMATICA BASICA=1, 201008M   -HISTORIA ECONOMICA GENERAL=1, 303068M   -PRINCIPIOS DE ECONOMIA=1]: 2 ==> [204101M   -LECTURA DE TEXTOS ACADEMICOS EN INGLES I=1]: 2   <conf:(1)> lift:(11.64) lev:(0) conv:(1.83) 
48. [111095M   -MATEMATICA BASICA=1, 201008M   -HISTORIA ECONOMICA GENERAL=1]: 2 ==> [204161M   -COMPRENSION Y PRODUCCION DE TEXTOS ACADEMICOS=1, 303068M   -PRINCIPIOS DE ECONOMIA=1]: 2   <conf:(1)> lift:(96) lev:(0.01) conv:(1.98) 
49. [204161M   -COMPRENSION Y PRODUCCION DE TEXTOS ACADEMICOS=1, 111095M   -MATEMATICA BASICA=1, 201008M   -HISTORIA ECONOMICA GENERAL=1]: 2 ==> [303068M   -PRINCIPIOS DE ECONOMIA=1]: 2   <conf:(1)> lift:(64) lev:(0.01) conv:(1.97) 
50. [201008M   -HISTORIA ECONOMICA GENERAL=1, 303068M   -PRINCIPIOS DE ECONOMIA=1]: 2 ==> [204161M   -COMPRENSION Y PRODUCCION DE TEXTOS ACADEMICOS=1, 111095M   -MATEMATICA BASICA=1]: 2   <conf:(1)> lift:(54.86) lev:(0.01) conv:(1.96) 
51. [204161M   -COMPRENSION Y PRODUCCION DE TEXTOS ACADEMICOS=1, 201008M   -HISTORIA ECONOMICA GENERAL=1, 303068M   -PRINCIPIOS DE ECONOMIA=1]: 2 ==> [111095M   -MATEMATICA BASICA=1]: 2   <conf:(1)> lift:(29.54) lev:(0.01) conv:(1.93) 
52. [111095M   -MATEMATICA BASICA=1, 201008M   -HISTORIA ECONOMICA GENERAL=1, 303068M   -PRINCIPIOS DE ECONOMIA=1]: 2 ==> [204161M   -COMPRENSION Y PRODUCCION DE TEXTOS ACADEMICOS=1]: 2   <conf:(1)> lift:(25.6) lev:(0.01) conv:(1.92) 
53. [111095M   -MATEMATICA BASICA=1, 201008M   -HISTORIA ECONOMICA GENERAL=1]: 2 ==> [204101M   -LECTURA DE TEXTOS ACADEMICOS EN INGLES I=1, 204161M   -COMPRENSION Y PRODUCCION DE TEXTOS ACADEMICOS=1, 303068M   -PRINCIPIOS DE ECONOMIA=1]: 2   <conf:(1)> lift:(96) lev:(0.01) conv:(1.98) 
54. [204101M   -LECTURA DE TEXTOS ACADEMICOS EN INGLES I=1, 111095M   -MATEMATICA BASICA=1, 201008M   -HISTORIA ECONOMICA GENERAL=1]: 2 ==> [204161M   -COMPRENSION Y PRODUCCION DE TEXTOS ACADEMICOS=1, 303068M   -PRINCIPIOS DE ECONOMIA=1]: 2   <conf:(1)> lift:(96) lev:(0.01) conv:(1.98) 
55. [204161M   -COMPRENSION Y PRODUCCION DE TEXTOS ACADEMICOS=1, 111095M   -MATEMATICA BASICA=1, 201008M   -HISTORIA ECONOMICA GENERAL=1]: 2 ==> [204101M   -LECTURA DE TEXTOS ACADEMICOS EN INGLES I=1, 303068M   -PRINCIPIOS DE ECONOMIA=1]: 2   <conf:(1)> lift:(96) lev:(0.01) conv:(1.98) 
56. [204101M   -LECTURA DE TEXTOS ACADEMICOS EN INGLES I=1, 204161M   -COMPRENSION Y PRODUCCION DE TEXTOS ACADEMICOS=1, 111095M   -MATEMATICA BASICA=1, 201008M   -HISTORIA ECONOMICA GENERAL=1]: 2 ==> [303068M   -PRINCIPIOS DE ECONOMIA=1]: 2   <conf:(1)> lift:(64) lev:(0.01) conv:(1.97) 
57. [201008M   -HISTORIA ECONOMICA GENERAL=1, 303068M   -PRINCIPIOS DE ECONOMIA=1]: 2 ==> [204101M   -LECTURA DE TEXTOS ACADEMICOS EN INGLES I=1, 204161M   -COMPRENSION Y PRODUCCION DE TEXTOS ACADEMICOS=1, 111095M   -MATEMATICA BASICA=1]: 2   <conf:(1)> lift:(64) lev:(0.01) conv:(1.97) 
58. [204101M   -LECTURA DE TEXTOS ACADEMICOS EN INGLES I=1, 201008M   -HISTORIA ECONOMICA GENERAL=1, 303068M   -PRINCIPIOS DE ECONOMIA=1]: 2 ==> [204161M   -COMPRENSION Y PRODUCCION DE TEXTOS ACADEMICOS=1, 111095M   -MATEMATICA BASICA=1]: 2   <conf:(1)> lift:(54.86) lev:(0.01) conv:(1.96) 
59. [204161M   -COMPRENSION Y PRODUCCION DE TEXTOS ACADEMICOS=1, 201008M   -HISTORIA ECONOMICA GENERAL=1, 303068M   -PRINCIPIOS DE ECONOMIA=1]: 2 ==> [204101M   -LECTURA DE TEXTOS ACADEMICOS EN INGLES I=1, 111095M   -MATEMATICA BASICA=1]: 2   <conf:(1)> lift:(54.86) lev:(0.01) conv:(1.96) 
60. [204101M   -LECTURA DE TEXTOS ACADEMICOS EN INGLES I=1, 204161M   -COMPRENSION Y PRODUCCION DE TEXTOS ACADEMICOS=1, 201008M   -HISTORIA ECONOMICA GENERAL=1, 303068M   -PRINCIPIOS DE ECONOMIA=1]: 2 ==> [111095M   -MATEMATICA BASICA=1]: 2   <conf:(1)> lift:(29.54) lev:(0.01) conv:(1.93) 
61. [111095M   -MATEMATICA BASICA=1, 201008M   -HISTORIA ECONOMICA GENERAL=1, 303068M   -PRINCIPIOS DE ECONOMIA=1]: 2 ==> [204101M   -LECTURA DE TEXTOS ACADEMICOS EN INGLES I=1, 204161M   -COMPRENSION Y PRODUCCION DE TEXTOS ACADEMICOS=1]: 2   <conf:(1)> lift:(38.4) lev:(0.01) conv:(1.95) 
62. [204101M   -LECTURA DE TEXTOS ACADEMICOS EN INGLES I=1, 111095M   -MATEMATICA BASICA=1, 201008M   -HISTORIA ECONOMICA GENERAL=1, 303068M   -PRINCIPIOS DE ECONOMIA=1]: 2 ==> [204161M   -COMPRENSION Y PRODUCCION DE TEXTOS ACADEMICOS=1]: 2   <conf:(1)> lift:(25.6) lev:(0.01) conv:(1.92) 
63. [204161M   -COMPRENSION Y PRODUCCION DE TEXTOS ACADEMICOS=1, 111095M   -MATEMATICA BASICA=1, 201008M   -HISTORIA ECONOMICA GENERAL=1, 303068M   -PRINCIPIOS DE ECONOMIA=1]: 2 ==> [204101M   -LECTURA DE TEXTOS ACADEMICOS EN INGLES I=1]: 2   <conf:(1)> lift:(11.64) lev:(0) conv:(1.83) 

