=== Run information ===

Scheme:       weka.associations.FPGrowth -P 2 -I -1 -N 227 -T 0 -C 0.9 -D 0.05 -U 1.0 -M 4.0
Relation:     cancelaciones_Salud  
Instances:    632
Attributes:   218
[list of attributes omitted]
=== Associator model (full training set) ===

FPGrowth found 227 rules (displaying top 227)

  1. [620067M   -DISCAPACIDAD Y SOCIEDAD I=1]: 5 ==> [111069M   -MATEMATICAS BASICAS PARA SALUD=1]: 5   <conf:(1)> lift:(8.78) lev:(0.01) conv:(4.43) 
  2. [801008M   -MATEMATICA BASICA=1]: 4 ==> [111069M   -MATEMATICAS BASICAS PARA SALUD=1]: 4   <conf:(1)> lift:(8.78) lev:(0.01) conv:(3.54) 
  3. [620067M   -DISCAPACIDAD Y SOCIEDAD I=1]: 5 ==> [605022M   -FUNDAMENTOS DE BIOQUIMICA I=1]: 5   <conf:(1)> lift:(39.5) lev:(0.01) conv:(4.87) 
  4. [620067M   -DISCAPACIDAD Y SOCIEDAD I=1]: 5 ==> [620051M   -DESARROLLO HUMANO I=1]: 5   <conf:(1)> lift:(90.29) lev:(0.01) conv:(4.94) 
  5. [622008M   -TERAPEUTICA I=1]: 4 ==> [622009M   -SEMIOLOGIA I=1]: 4   <conf:(1)> lift:(126.4) lev:(0.01) conv:(3.97) 
  6. [111069M   -MATEMATICAS BASICAS PARA SALUD=1, 607005M   -ETICA I=1]: 7 ==> [607028M   -CONSTITUCION POLITICA DE COLOMBIA=1]: 7   <conf:(1)> lift:(21.79) lev:(0.01) conv:(6.68) 
  7. [607028M   -CONSTITUCION POLITICA DE COLOMBIA=1, 607005M   -ETICA I=1]: 7 ==> [111069M   -MATEMATICAS BASICAS PARA SALUD=1]: 7   <conf:(1)> lift:(8.78) lev:(0.01) conv:(6.2) 
  8. [607028M   -CONSTITUCION POLITICA DE COLOMBIA=1, 204252M   -CORRECCION IDIOMATICA=1]: 4 ==> [111069M   -MATEMATICAS BASICAS PARA SALUD=1]: 4   <conf:(1)> lift:(8.78) lev:(0.01) conv:(3.54) 
  9. [111069M   -MATEMATICAS BASICAS PARA SALUD=1, 607005M   -ETICA I=1]: 7 ==> [607021M   -FRANJA SOCIAL EN SALUD I=1]: 7   <conf:(1)> lift:(23.41) lev:(0.01) conv:(6.7) 
 10. [607005M   -ETICA I=1, 607021M   -FRANJA SOCIAL EN SALUD I=1]: 7 ==> [111069M   -MATEMATICAS BASICAS PARA SALUD=1]: 7   <conf:(1)> lift:(8.78) lev:(0.01) conv:(6.2) 
 11. [607005M   -ETICA I=1, 605001M   -BIOMOLECULAS Y CELULA=1]: 6 ==> [111069M   -MATEMATICAS BASICAS PARA SALUD=1]: 6   <conf:(1)> lift:(8.78) lev:(0.01) conv:(5.32) 
 12. [607005M   -ETICA I=1, 204252M   -CORRECCION IDIOMATICA=1]: 4 ==> [111069M   -MATEMATICAS BASICAS PARA SALUD=1]: 4   <conf:(1)> lift:(8.78) lev:(0.01) conv:(3.54) 
 13. [111069M   -MATEMATICAS BASICAS PARA SALUD=1, 605001M   -BIOMOLECULAS Y CELULA=1]: 9 ==> [607021M   -FRANJA SOCIAL EN SALUD I=1]: 9   <conf:(1)> lift:(23.41) lev:(0.01) conv:(8.62) 
 14. [111069M   -MATEMATICAS BASICAS PARA SALUD=1, 204161M   -COMPRENSION Y PRODUCCION DE TEXTOS ACADEMICOS=1]: 4 ==> [607021M   -FRANJA SOCIAL EN SALUD I=1]: 4   <conf:(1)> lift:(23.41) lev:(0.01) conv:(3.83) 
 15. [607021M   -FRANJA SOCIAL EN SALUD I=1, 204161M   -COMPRENSION Y PRODUCCION DE TEXTOS ACADEMICOS=1]: 4 ==> [111069M   -MATEMATICAS BASICAS PARA SALUD=1]: 4   <conf:(1)> lift:(8.78) lev:(0.01) conv:(3.54) 
 16. [605022M   -FUNDAMENTOS DE BIOQUIMICA I=1, 620051M   -DESARROLLO HUMANO I=1]: 5 ==> [111069M   -MATEMATICAS BASICAS PARA SALUD=1]: 5   <conf:(1)> lift:(8.78) lev:(0.01) conv:(4.43) 
 17. [620067M   -DISCAPACIDAD Y SOCIEDAD I=1]: 5 ==> [111069M   -MATEMATICAS BASICAS PARA SALUD=1, 605022M   -FUNDAMENTOS DE BIOQUIMICA I=1]: 5   <conf:(1)> lift:(63.2) lev:(0.01) conv:(4.92) 
 18. [111069M   -MATEMATICAS BASICAS PARA SALUD=1, 620067M   -DISCAPACIDAD Y SOCIEDAD I=1]: 5 ==> [605022M   -FUNDAMENTOS DE BIOQUIMICA I=1]: 5   <conf:(1)> lift:(39.5) lev:(0.01) conv:(4.87) 
 19. [605022M   -FUNDAMENTOS DE BIOQUIMICA I=1, 620067M   -DISCAPACIDAD Y SOCIEDAD I=1]: 5 ==> [111069M   -MATEMATICAS BASICAS PARA SALUD=1]: 5   <conf:(1)> lift:(8.78) lev:(0.01) conv:(4.43) 
 20. [605001M   -BIOMOLECULAS Y CELULA=1, 204252M   -CORRECCION IDIOMATICA=1]: 4 ==> [111069M   -MATEMATICAS BASICAS PARA SALUD=1]: 4   <conf:(1)> lift:(8.78) lev:(0.01) conv:(3.54) 
 21. [111069M   -MATEMATICAS BASICAS PARA SALUD=1, 204161M   -COMPRENSION Y PRODUCCION DE TEXTOS ACADEMICOS=1]: 4 ==> [605001M   -BIOMOLECULAS Y CELULA=1]: 4   <conf:(1)> lift:(45.14) lev:(0.01) conv:(3.91) 
 22. [605001M   -BIOMOLECULAS Y CELULA=1, 204161M   -COMPRENSION Y PRODUCCION DE TEXTOS ACADEMICOS=1]: 4 ==> [111069M   -MATEMATICAS BASICAS PARA SALUD=1]: 4   <conf:(1)> lift:(8.78) lev:(0.01) conv:(3.54) 
 23. [620067M   -DISCAPACIDAD Y SOCIEDAD I=1]: 5 ==> [111069M   -MATEMATICAS BASICAS PARA SALUD=1, 620051M   -DESARROLLO HUMANO I=1]: 5   <conf:(1)> lift:(105.33) lev:(0.01) conv:(4.95) 
 24. [111069M   -MATEMATICAS BASICAS PARA SALUD=1, 620067M   -DISCAPACIDAD Y SOCIEDAD I=1]: 5 ==> [620051M   -DESARROLLO HUMANO I=1]: 5   <conf:(1)> lift:(90.29) lev:(0.01) conv:(4.94) 
 25. [620051M   -DESARROLLO HUMANO I=1, 620067M   -DISCAPACIDAD Y SOCIEDAD I=1]: 5 ==> [111069M   -MATEMATICAS BASICAS PARA SALUD=1]: 5   <conf:(1)> lift:(8.78) lev:(0.01) conv:(4.43) 
 26. [204101M   -LECTURA DE TEXTOS ACADEMICOS EN INGLES I=1, 622030M   -FOTOGRAFIA CLINICA Y ARTISTICA (E)=1]: 4 ==> [607005M   -ETICA I=1]: 4   <conf:(1)> lift:(22.57) lev:(0.01) conv:(3.82) 
 27. [607028M   -CONSTITUCION POLITICA DE COLOMBIA=1, 607005M   -ETICA I=1]: 7 ==> [607021M   -FRANJA SOCIAL EN SALUD I=1]: 7   <conf:(1)> lift:(23.41) lev:(0.01) conv:(6.7) 
 28. [607005M   -ETICA I=1, 607021M   -FRANJA SOCIAL EN SALUD I=1]: 7 ==> [607028M   -CONSTITUCION POLITICA DE COLOMBIA=1]: 7   <conf:(1)> lift:(21.79) lev:(0.01) conv:(6.68) 
 29. [607005M   -ETICA I=1, 605001M   -BIOMOLECULAS Y CELULA=1]: 6 ==> [607028M   -CONSTITUCION POLITICA DE COLOMBIA=1]: 6   <conf:(1)> lift:(21.79) lev:(0.01) conv:(5.72) 
 30. [607028M   -CONSTITUCION POLITICA DE COLOMBIA=1, 204252M   -CORRECCION IDIOMATICA=1]: 4 ==> [607005M   -ETICA I=1]: 4   <conf:(1)> lift:(22.57) lev:(0.01) conv:(3.82) 
 31. [607005M   -ETICA I=1, 204252M   -CORRECCION IDIOMATICA=1]: 4 ==> [607028M   -CONSTITUCION POLITICA DE COLOMBIA=1]: 4   <conf:(1)> lift:(21.79) lev:(0.01) conv:(3.82) 
 32. [607028M   -CONSTITUCION POLITICA DE COLOMBIA=1, 605001M   -BIOMOLECULAS Y CELULA=1]: 8 ==> [607021M   -FRANJA SOCIAL EN SALUD I=1]: 8   <conf:(1)> lift:(23.41) lev:(0.01) conv:(7.66) 
 33. [607028M   -CONSTITUCION POLITICA DE COLOMBIA=1, 204252M   -CORRECCION IDIOMATICA=1]: 4 ==> [607021M   -FRANJA SOCIAL EN SALUD I=1]: 4   <conf:(1)> lift:(23.41) lev:(0.01) conv:(3.83) 
 34. [607028M   -CONSTITUCION POLITICA DE COLOMBIA=1, 204252M   -CORRECCION IDIOMATICA=1]: 4 ==> [605001M   -BIOMOLECULAS Y CELULA=1]: 4   <conf:(1)> lift:(45.14) lev:(0.01) conv:(3.91) 
 35. [605001M   -BIOMOLECULAS Y CELULA=1, 204252M   -CORRECCION IDIOMATICA=1]: 4 ==> [607028M   -CONSTITUCION POLITICA DE COLOMBIA=1]: 4   <conf:(1)> lift:(21.79) lev:(0.01) conv:(3.82) 
 36. [607005M   -ETICA I=1, 605001M   -BIOMOLECULAS Y CELULA=1]: 6 ==> [607021M   -FRANJA SOCIAL EN SALUD I=1]: 6   <conf:(1)> lift:(23.41) lev:(0.01) conv:(5.74) 
 37. [607005M   -ETICA I=1, 204252M   -CORRECCION IDIOMATICA=1]: 4 ==> [607021M   -FRANJA SOCIAL EN SALUD I=1]: 4   <conf:(1)> lift:(23.41) lev:(0.01) conv:(3.83) 
 38. [607005M   -ETICA I=1, 204252M   -CORRECCION IDIOMATICA=1]: 4 ==> [605001M   -BIOMOLECULAS Y CELULA=1]: 4   <conf:(1)> lift:(45.14) lev:(0.01) conv:(3.91) 
 39. [605001M   -BIOMOLECULAS Y CELULA=1, 204252M   -CORRECCION IDIOMATICA=1]: 4 ==> [607005M   -ETICA I=1]: 4   <conf:(1)> lift:(22.57) lev:(0.01) conv:(3.82) 
 40. [106073M   -FISICA PARA LAS CIENCIAS DE LA SALUD=1, 605001M   -BIOMOLECULAS Y CELULA=1]: 4 ==> [607021M   -FRANJA SOCIAL EN SALUD I=1]: 4   <conf:(1)> lift:(23.41) lev:(0.01) conv:(3.83) 
 41. [605001M   -BIOMOLECULAS Y CELULA=1, 204252M   -CORRECCION IDIOMATICA=1]: 4 ==> [607021M   -FRANJA SOCIAL EN SALUD I=1]: 4   <conf:(1)> lift:(23.41) lev:(0.01) conv:(3.83) 
 42. [607021M   -FRANJA SOCIAL EN SALUD I=1, 204161M   -COMPRENSION Y PRODUCCION DE TEXTOS ACADEMICOS=1]: 4 ==> [605001M   -BIOMOLECULAS Y CELULA=1]: 4   <conf:(1)> lift:(45.14) lev:(0.01) conv:(3.91) 
 43. [605001M   -BIOMOLECULAS Y CELULA=1, 204161M   -COMPRENSION Y PRODUCCION DE TEXTOS ACADEMICOS=1]: 4 ==> [607021M   -FRANJA SOCIAL EN SALUD I=1]: 4   <conf:(1)> lift:(23.41) lev:(0.01) conv:(3.83) 
 44. [605022M   -FUNDAMENTOS DE BIOQUIMICA I=1, 620051M   -DESARROLLO HUMANO I=1]: 5 ==> [620067M   -DISCAPACIDAD Y SOCIEDAD I=1]: 5   <conf:(1)> lift:(126.4) lev:(0.01) conv:(4.96) 
 45. [620067M   -DISCAPACIDAD Y SOCIEDAD I=1]: 5 ==> [605022M   -FUNDAMENTOS DE BIOQUIMICA I=1, 620051M   -DESARROLLO HUMANO I=1]: 5   <conf:(1)> lift:(126.4) lev:(0.01) conv:(4.96) 
 46. [605022M   -FUNDAMENTOS DE BIOQUIMICA I=1, 620067M   -DISCAPACIDAD Y SOCIEDAD I=1]: 5 ==> [620051M   -DESARROLLO HUMANO I=1]: 5   <conf:(1)> lift:(90.29) lev:(0.01) conv:(4.94) 
 47. [620051M   -DESARROLLO HUMANO I=1, 620067M   -DISCAPACIDAD Y SOCIEDAD I=1]: 5 ==> [605022M   -FUNDAMENTOS DE BIOQUIMICA I=1]: 5   <conf:(1)> lift:(39.5) lev:(0.01) conv:(4.87) 
 48. [111069M   -MATEMATICAS BASICAS PARA SALUD=1, 607005M   -ETICA I=1]: 7 ==> [607028M   -CONSTITUCION POLITICA DE COLOMBIA=1, 607021M   -FRANJA SOCIAL EN SALUD I=1]: 7   <conf:(1)> lift:(57.45) lev:(0.01) conv:(6.88) 
 49. [607028M   -CONSTITUCION POLITICA DE COLOMBIA=1, 607005M   -ETICA I=1]: 7 ==> [111069M   -MATEMATICAS BASICAS PARA SALUD=1, 607021M   -FRANJA SOCIAL EN SALUD I=1]: 7   <conf:(1)> lift:(42.13) lev:(0.01) conv:(6.83) 
 50. [111069M   -MATEMATICAS BASICAS PARA SALUD=1, 607028M   -CONSTITUCION POLITICA DE COLOMBIA=1, 607005M   -ETICA I=1]: 7 ==> [607021M   -FRANJA SOCIAL EN SALUD I=1]: 7   <conf:(1)> lift:(23.41) lev:(0.01) conv:(6.7) 
 51. [111069M   -MATEMATICAS BASICAS PARA SALUD=1, 607028M   -CONSTITUCION POLITICA DE COLOMBIA=1, 607021M   -FRANJA SOCIAL EN SALUD I=1]: 7 ==> [607005M   -ETICA I=1]: 7   <conf:(1)> lift:(22.57) lev:(0.01) conv:(6.69) 
 52. [607005M   -ETICA I=1, 607021M   -FRANJA SOCIAL EN SALUD I=1]: 7 ==> [111069M   -MATEMATICAS BASICAS PARA SALUD=1, 607028M   -CONSTITUCION POLITICA DE COLOMBIA=1]: 7   <conf:(1)> lift:(63.2) lev:(0.01) conv:(6.89) 
 53. [111069M   -MATEMATICAS BASICAS PARA SALUD=1, 607005M   -ETICA I=1, 607021M   -FRANJA SOCIAL EN SALUD I=1]: 7 ==> [607028M   -CONSTITUCION POLITICA DE COLOMBIA=1]: 7   <conf:(1)> lift:(21.79) lev:(0.01) conv:(6.68) 
 54. [607028M   -CONSTITUCION POLITICA DE COLOMBIA=1, 607005M   -ETICA I=1, 607021M   -FRANJA SOCIAL EN SALUD I=1]: 7 ==> [111069M   -MATEMATICAS BASICAS PARA SALUD=1]: 7   <conf:(1)> lift:(8.78) lev:(0.01) conv:(6.2) 
 55. [111069M   -MATEMATICAS BASICAS PARA SALUD=1, 607028M   -CONSTITUCION POLITICA DE COLOMBIA=1, 605001M   -BIOMOLECULAS Y CELULA=1]: 6 ==> [607005M   -ETICA I=1]: 6   <conf:(1)> lift:(22.57) lev:(0.01) conv:(5.73) 
 56. [607005M   -ETICA I=1, 605001M   -BIOMOLECULAS Y CELULA=1]: 6 ==> [111069M   -MATEMATICAS BASICAS PARA SALUD=1, 607028M   -CONSTITUCION POLITICA DE COLOMBIA=1]: 6   <conf:(1)> lift:(63.2) lev:(0.01) conv:(5.91) 
 57. [111069M   -MATEMATICAS BASICAS PARA SALUD=1, 607005M   -ETICA I=1, 605001M   -BIOMOLECULAS Y CELULA=1]: 6 ==> [607028M   -CONSTITUCION POLITICA DE COLOMBIA=1]: 6   <conf:(1)> lift:(21.79) lev:(0.01) conv:(5.72) 
 58. [607028M   -CONSTITUCION POLITICA DE COLOMBIA=1, 607005M   -ETICA I=1, 605001M   -BIOMOLECULAS Y CELULA=1]: 6 ==> [111069M   -MATEMATICAS BASICAS PARA SALUD=1]: 6   <conf:(1)> lift:(8.78) lev:(0.01) conv:(5.32) 
 59. [607028M   -CONSTITUCION POLITICA DE COLOMBIA=1, 204252M   -CORRECCION IDIOMATICA=1]: 4 ==> [111069M   -MATEMATICAS BASICAS PARA SALUD=1, 607005M   -ETICA I=1]: 4   <conf:(1)> lift:(90.29) lev:(0.01) conv:(3.96) 
 60. [111069M   -MATEMATICAS BASICAS PARA SALUD=1, 607028M   -CONSTITUCION POLITICA DE COLOMBIA=1, 204252M   -CORRECCION IDIOMATICA=1]: 4 ==> [607005M   -ETICA I=1]: 4   <conf:(1)> lift:(22.57) lev:(0.01) conv:(3.82) 
 61. [607005M   -ETICA I=1, 204252M   -CORRECCION IDIOMATICA=1]: 4 ==> [111069M   -MATEMATICAS BASICAS PARA SALUD=1, 607028M   -CONSTITUCION POLITICA DE COLOMBIA=1]: 4   <conf:(1)> lift:(63.2) lev:(0.01) conv:(3.94) 
 62. [111069M   -MATEMATICAS BASICAS PARA SALUD=1, 607005M   -ETICA I=1, 204252M   -CORRECCION IDIOMATICA=1]: 4 ==> [607028M   -CONSTITUCION POLITICA DE COLOMBIA=1]: 4   <conf:(1)> lift:(21.79) lev:(0.01) conv:(3.82) 
 63. [607028M   -CONSTITUCION POLITICA DE COLOMBIA=1, 607005M   -ETICA I=1, 204252M   -CORRECCION IDIOMATICA=1]: 4 ==> [111069M   -MATEMATICAS BASICAS PARA SALUD=1]: 4   <conf:(1)> lift:(8.78) lev:(0.01) conv:(3.54) 
 64. [111069M   -MATEMATICAS BASICAS PARA SALUD=1, 607028M   -CONSTITUCION POLITICA DE COLOMBIA=1, 605001M   -BIOMOLECULAS Y CELULA=1]: 6 ==> [607021M   -FRANJA SOCIAL EN SALUD I=1]: 6   <conf:(1)> lift:(23.41) lev:(0.01) conv:(5.74) 
 65. [607028M   -CONSTITUCION POLITICA DE COLOMBIA=1, 204252M   -CORRECCION IDIOMATICA=1]: 4 ==> [111069M   -MATEMATICAS BASICAS PARA SALUD=1, 607021M   -FRANJA SOCIAL EN SALUD I=1]: 4   <conf:(1)> lift:(42.13) lev:(0.01) conv:(3.91) 
 66. [111069M   -MATEMATICAS BASICAS PARA SALUD=1, 607028M   -CONSTITUCION POLITICA DE COLOMBIA=1, 204252M   -CORRECCION IDIOMATICA=1]: 4 ==> [607021M   -FRANJA SOCIAL EN SALUD I=1]: 4   <conf:(1)> lift:(23.41) lev:(0.01) conv:(3.83) 
 67. [111069M   -MATEMATICAS BASICAS PARA SALUD=1, 607021M   -FRANJA SOCIAL EN SALUD I=1, 204252M   -CORRECCION IDIOMATICA=1]: 4 ==> [607028M   -CONSTITUCION POLITICA DE COLOMBIA=1]: 4   <conf:(1)> lift:(21.79) lev:(0.01) conv:(3.82) 
 68. [607028M   -CONSTITUCION POLITICA DE COLOMBIA=1, 607021M   -FRANJA SOCIAL EN SALUD I=1, 204252M   -CORRECCION IDIOMATICA=1]: 4 ==> [111069M   -MATEMATICAS BASICAS PARA SALUD=1]: 4   <conf:(1)> lift:(8.78) lev:(0.01) conv:(3.54) 
 69. [607028M   -CONSTITUCION POLITICA DE COLOMBIA=1, 204252M   -CORRECCION IDIOMATICA=1]: 4 ==> [111069M   -MATEMATICAS BASICAS PARA SALUD=1, 605001M   -BIOMOLECULAS Y CELULA=1]: 4   <conf:(1)> lift:(70.22) lev:(0.01) conv:(3.94) 
 70. [111069M   -MATEMATICAS BASICAS PARA SALUD=1, 607028M   -CONSTITUCION POLITICA DE COLOMBIA=1, 204252M   -CORRECCION IDIOMATICA=1]: 4 ==> [605001M   -BIOMOLECULAS Y CELULA=1]: 4   <conf:(1)> lift:(45.14) lev:(0.01) conv:(3.91) 
 71. [605001M   -BIOMOLECULAS Y CELULA=1, 204252M   -CORRECCION IDIOMATICA=1]: 4 ==> [111069M   -MATEMATICAS BASICAS PARA SALUD=1, 607028M   -CONSTITUCION POLITICA DE COLOMBIA=1]: 4   <conf:(1)> lift:(63.2) lev:(0.01) conv:(3.94) 
 72. [111069M   -MATEMATICAS BASICAS PARA SALUD=1, 605001M   -BIOMOLECULAS Y CELULA=1, 204252M   -CORRECCION IDIOMATICA=1]: 4 ==> [607028M   -CONSTITUCION POLITICA DE COLOMBIA=1]: 4   <conf:(1)> lift:(21.79) lev:(0.01) conv:(3.82) 
 73. [607028M   -CONSTITUCION POLITICA DE COLOMBIA=1, 605001M   -BIOMOLECULAS Y CELULA=1, 204252M   -CORRECCION IDIOMATICA=1]: 4 ==> [111069M   -MATEMATICAS BASICAS PARA SALUD=1]: 4   <conf:(1)> lift:(8.78) lev:(0.01) conv:(3.54) 
 74. [607005M   -ETICA I=1, 605001M   -BIOMOLECULAS Y CELULA=1]: 6 ==> [111069M   -MATEMATICAS BASICAS PARA SALUD=1, 607021M   -FRANJA SOCIAL EN SALUD I=1]: 6   <conf:(1)> lift:(42.13) lev:(0.01) conv:(5.86) 
 75. [111069M   -MATEMATICAS BASICAS PARA SALUD=1, 607005M   -ETICA I=1, 605001M   -BIOMOLECULAS Y CELULA=1]: 6 ==> [607021M   -FRANJA SOCIAL EN SALUD I=1]: 6   <conf:(1)> lift:(23.41) lev:(0.01) conv:(5.74) 
 76. [607005M   -ETICA I=1, 607021M   -FRANJA SOCIAL EN SALUD I=1, 605001M   -BIOMOLECULAS Y CELULA=1]: 6 ==> [111069M   -MATEMATICAS BASICAS PARA SALUD=1]: 6   <conf:(1)> lift:(8.78) lev:(0.01) conv:(5.32) 
 77. [607005M   -ETICA I=1, 204252M   -CORRECCION IDIOMATICA=1]: 4 ==> [111069M   -MATEMATICAS BASICAS PARA SALUD=1, 607021M   -FRANJA SOCIAL EN SALUD I=1]: 4   <conf:(1)> lift:(42.13) lev:(0.01) conv:(3.91) 
 78. [111069M   -MATEMATICAS BASICAS PARA SALUD=1, 607005M   -ETICA I=1, 204252M   -CORRECCION IDIOMATICA=1]: 4 ==> [607021M   -FRANJA SOCIAL EN SALUD I=1]: 4   <conf:(1)> lift:(23.41) lev:(0.01) conv:(3.83) 
 79. [111069M   -MATEMATICAS BASICAS PARA SALUD=1, 607021M   -FRANJA SOCIAL EN SALUD I=1, 204252M   -CORRECCION IDIOMATICA=1]: 4 ==> [607005M   -ETICA I=1]: 4   <conf:(1)> lift:(22.57) lev:(0.01) conv:(3.82) 
 80. [607005M   -ETICA I=1, 607021M   -FRANJA SOCIAL EN SALUD I=1, 204252M   -CORRECCION IDIOMATICA=1]: 4 ==> [111069M   -MATEMATICAS BASICAS PARA SALUD=1]: 4   <conf:(1)> lift:(8.78) lev:(0.01) conv:(3.54) 
 81. [607005M   -ETICA I=1, 204252M   -CORRECCION IDIOMATICA=1]: 4 ==> [111069M   -MATEMATICAS BASICAS PARA SALUD=1, 605001M   -BIOMOLECULAS Y CELULA=1]: 4   <conf:(1)> lift:(70.22) lev:(0.01) conv:(3.94) 
 82. [111069M   -MATEMATICAS BASICAS PARA SALUD=1, 607005M   -ETICA I=1, 204252M   -CORRECCION IDIOMATICA=1]: 4 ==> [605001M   -BIOMOLECULAS Y CELULA=1]: 4   <conf:(1)> lift:(45.14) lev:(0.01) conv:(3.91) 
 83. [605001M   -BIOMOLECULAS Y CELULA=1, 204252M   -CORRECCION IDIOMATICA=1]: 4 ==> [111069M   -MATEMATICAS BASICAS PARA SALUD=1, 607005M   -ETICA I=1]: 4   <conf:(1)> lift:(90.29) lev:(0.01) conv:(3.96) 
 84. [111069M   -MATEMATICAS BASICAS PARA SALUD=1, 605001M   -BIOMOLECULAS Y CELULA=1, 204252M   -CORRECCION IDIOMATICA=1]: 4 ==> [607005M   -ETICA I=1]: 4   <conf:(1)> lift:(22.57) lev:(0.01) conv:(3.82) 
 85. [607005M   -ETICA I=1, 605001M   -BIOMOLECULAS Y CELULA=1, 204252M   -CORRECCION IDIOMATICA=1]: 4 ==> [111069M   -MATEMATICAS BASICAS PARA SALUD=1]: 4   <conf:(1)> lift:(8.78) lev:(0.01) conv:(3.54) 
 86. [111069M   -MATEMATICAS BASICAS PARA SALUD=1, 607021M   -FRANJA SOCIAL EN SALUD I=1, 204252M   -CORRECCION IDIOMATICA=1]: 4 ==> [605001M   -BIOMOLECULAS Y CELULA=1]: 4   <conf:(1)> lift:(45.14) lev:(0.01) conv:(3.91) 
 87. [605001M   -BIOMOLECULAS Y CELULA=1, 204252M   -CORRECCION IDIOMATICA=1]: 4 ==> [111069M   -MATEMATICAS BASICAS PARA SALUD=1, 607021M   -FRANJA SOCIAL EN SALUD I=1]: 4   <conf:(1)> lift:(42.13) lev:(0.01) conv:(3.91) 
 88. [111069M   -MATEMATICAS BASICAS PARA SALUD=1, 605001M   -BIOMOLECULAS Y CELULA=1, 204252M   -CORRECCION IDIOMATICA=1]: 4 ==> [607021M   -FRANJA SOCIAL EN SALUD I=1]: 4   <conf:(1)> lift:(23.41) lev:(0.01) conv:(3.83) 
 89. [607021M   -FRANJA SOCIAL EN SALUD I=1, 605001M   -BIOMOLECULAS Y CELULA=1, 204252M   -CORRECCION IDIOMATICA=1]: 4 ==> [111069M   -MATEMATICAS BASICAS PARA SALUD=1]: 4   <conf:(1)> lift:(8.78) lev:(0.01) conv:(3.54) 
 90. [111069M   -MATEMATICAS BASICAS PARA SALUD=1, 204161M   -COMPRENSION Y PRODUCCION DE TEXTOS ACADEMICOS=1]: 4 ==> [607021M   -FRANJA SOCIAL EN SALUD I=1, 605001M   -BIOMOLECULAS Y CELULA=1]: 4   <conf:(1)> lift:(52.67) lev:(0.01) conv:(3.92) 
 91. [607021M   -FRANJA SOCIAL EN SALUD I=1, 204161M   -COMPRENSION Y PRODUCCION DE TEXTOS ACADEMICOS=1]: 4 ==> [111069M   -MATEMATICAS BASICAS PARA SALUD=1, 605001M   -BIOMOLECULAS Y CELULA=1]: 4   <conf:(1)> lift:(70.22) lev:(0.01) conv:(3.94) 
 92. [111069M   -MATEMATICAS BASICAS PARA SALUD=1, 607021M   -FRANJA SOCIAL EN SALUD I=1, 204161M   -COMPRENSION Y PRODUCCION DE TEXTOS ACADEMICOS=1]: 4 ==> [605001M   -BIOMOLECULAS Y CELULA=1]: 4   <conf:(1)> lift:(45.14) lev:(0.01) conv:(3.91) 
 93. [605001M   -BIOMOLECULAS Y CELULA=1, 204161M   -COMPRENSION Y PRODUCCION DE TEXTOS ACADEMICOS=1]: 4 ==> [111069M   -MATEMATICAS BASICAS PARA SALUD=1, 607021M   -FRANJA SOCIAL EN SALUD I=1]: 4   <conf:(1)> lift:(42.13) lev:(0.01) conv:(3.91) 
 94. [111069M   -MATEMATICAS BASICAS PARA SALUD=1, 605001M   -BIOMOLECULAS Y CELULA=1, 204161M   -COMPRENSION Y PRODUCCION DE TEXTOS ACADEMICOS=1]: 4 ==> [607021M   -FRANJA SOCIAL EN SALUD I=1]: 4   <conf:(1)> lift:(23.41) lev:(0.01) conv:(3.83) 
 95. [607021M   -FRANJA SOCIAL EN SALUD I=1, 605001M   -BIOMOLECULAS Y CELULA=1, 204161M   -COMPRENSION Y PRODUCCION DE TEXTOS ACADEMICOS=1]: 4 ==> [111069M   -MATEMATICAS BASICAS PARA SALUD=1]: 4   <conf:(1)> lift:(8.78) lev:(0.01) conv:(3.54) 
 96. [605022M   -FUNDAMENTOS DE BIOQUIMICA I=1, 620051M   -DESARROLLO HUMANO I=1]: 5 ==> [111069M   -MATEMATICAS BASICAS PARA SALUD=1, 620067M   -DISCAPACIDAD Y SOCIEDAD I=1]: 5   <conf:(1)> lift:(126.4) lev:(0.01) conv:(4.96) 
 97. [111069M   -MATEMATICAS BASICAS PARA SALUD=1, 605022M   -FUNDAMENTOS DE BIOQUIMICA I=1, 620051M   -DESARROLLO HUMANO I=1]: 5 ==> [620067M   -DISCAPACIDAD Y SOCIEDAD I=1]: 5   <conf:(1)> lift:(126.4) lev:(0.01) conv:(4.96) 
 98. [620067M   -DISCAPACIDAD Y SOCIEDAD I=1]: 5 ==> [111069M   -MATEMATICAS BASICAS PARA SALUD=1, 605022M   -FUNDAMENTOS DE BIOQUIMICA I=1, 620051M   -DESARROLLO HUMANO I=1]: 5   <conf:(1)> lift:(126.4) lev:(0.01) conv:(4.96) 
 99. [111069M   -MATEMATICAS BASICAS PARA SALUD=1, 620067M   -DISCAPACIDAD Y SOCIEDAD I=1]: 5 ==> [605022M   -FUNDAMENTOS DE BIOQUIMICA I=1, 620051M   -DESARROLLO HUMANO I=1]: 5   <conf:(1)> lift:(126.4) lev:(0.01) conv:(4.96) 
100. [605022M   -FUNDAMENTOS DE BIOQUIMICA I=1, 620067M   -DISCAPACIDAD Y SOCIEDAD I=1]: 5 ==> [111069M   -MATEMATICAS BASICAS PARA SALUD=1, 620051M   -DESARROLLO HUMANO I=1]: 5   <conf:(1)> lift:(105.33) lev:(0.01) conv:(4.95) 
101. [111069M   -MATEMATICAS BASICAS PARA SALUD=1, 605022M   -FUNDAMENTOS DE BIOQUIMICA I=1, 620067M   -DISCAPACIDAD Y SOCIEDAD I=1]: 5 ==> [620051M   -DESARROLLO HUMANO I=1]: 5   <conf:(1)> lift:(90.29) lev:(0.01) conv:(4.94) 
102. [620051M   -DESARROLLO HUMANO I=1, 620067M   -DISCAPACIDAD Y SOCIEDAD I=1]: 5 ==> [111069M   -MATEMATICAS BASICAS PARA SALUD=1, 605022M   -FUNDAMENTOS DE BIOQUIMICA I=1]: 5   <conf:(1)> lift:(63.2) lev:(0.01) conv:(4.92) 
103. [111069M   -MATEMATICAS BASICAS PARA SALUD=1, 620051M   -DESARROLLO HUMANO I=1, 620067M   -DISCAPACIDAD Y SOCIEDAD I=1]: 5 ==> [605022M   -FUNDAMENTOS DE BIOQUIMICA I=1]: 5   <conf:(1)> lift:(39.5) lev:(0.01) conv:(4.87) 
104. [605022M   -FUNDAMENTOS DE BIOQUIMICA I=1, 620051M   -DESARROLLO HUMANO I=1, 620067M   -DISCAPACIDAD Y SOCIEDAD I=1]: 5 ==> [111069M   -MATEMATICAS BASICAS PARA SALUD=1]: 5   <conf:(1)> lift:(8.78) lev:(0.01) conv:(4.43) 
105. [607005M   -ETICA I=1, 605001M   -BIOMOLECULAS Y CELULA=1]: 6 ==> [607028M   -CONSTITUCION POLITICA DE COLOMBIA=1, 607021M   -FRANJA SOCIAL EN SALUD I=1]: 6   <conf:(1)> lift:(57.45) lev:(0.01) conv:(5.9) 
106. [607028M   -CONSTITUCION POLITICA DE COLOMBIA=1, 607005M   -ETICA I=1, 605001M   -BIOMOLECULAS Y CELULA=1]: 6 ==> [607021M   -FRANJA SOCIAL EN SALUD I=1]: 6   <conf:(1)> lift:(23.41) lev:(0.01) conv:(5.74) 
107. [607005M   -ETICA I=1, 607021M   -FRANJA SOCIAL EN SALUD I=1, 605001M   -BIOMOLECULAS Y CELULA=1]: 6 ==> [607028M   -CONSTITUCION POLITICA DE COLOMBIA=1]: 6   <conf:(1)> lift:(21.79) lev:(0.01) conv:(5.72) 
108. [607028M   -CONSTITUCION POLITICA DE COLOMBIA=1, 204252M   -CORRECCION IDIOMATICA=1]: 4 ==> [607005M   -ETICA I=1, 607021M   -FRANJA SOCIAL EN SALUD I=1]: 4   <conf:(1)> lift:(90.29) lev:(0.01) conv:(3.96) 
109. [607005M   -ETICA I=1, 204252M   -CORRECCION IDIOMATICA=1]: 4 ==> [607028M   -CONSTITUCION POLITICA DE COLOMBIA=1, 607021M   -FRANJA SOCIAL EN SALUD I=1]: 4   <conf:(1)> lift:(57.45) lev:(0.01) conv:(3.93) 
110. [607028M   -CONSTITUCION POLITICA DE COLOMBIA=1, 607005M   -ETICA I=1, 204252M   -CORRECCION IDIOMATICA=1]: 4 ==> [607021M   -FRANJA SOCIAL EN SALUD I=1]: 4   <conf:(1)> lift:(23.41) lev:(0.01) conv:(3.83) 
111. [607028M   -CONSTITUCION POLITICA DE COLOMBIA=1, 607021M   -FRANJA SOCIAL EN SALUD I=1, 204252M   -CORRECCION IDIOMATICA=1]: 4 ==> [607005M   -ETICA I=1]: 4   <conf:(1)> lift:(22.57) lev:(0.01) conv:(3.82) 
112. [607005M   -ETICA I=1, 607021M   -FRANJA SOCIAL EN SALUD I=1, 204252M   -CORRECCION IDIOMATICA=1]: 4 ==> [607028M   -CONSTITUCION POLITICA DE COLOMBIA=1]: 4   <conf:(1)> lift:(21.79) lev:(0.01) conv:(3.82) 
113. [607028M   -CONSTITUCION POLITICA DE COLOMBIA=1, 204252M   -CORRECCION IDIOMATICA=1]: 4 ==> [607005M   -ETICA I=1, 605001M   -BIOMOLECULAS Y CELULA=1]: 4   <conf:(1)> lift:(105.33) lev:(0.01) conv:(3.96) 
114. [607005M   -ETICA I=1, 204252M   -CORRECCION IDIOMATICA=1]: 4 ==> [607028M   -CONSTITUCION POLITICA DE COLOMBIA=1, 605001M   -BIOMOLECULAS Y CELULA=1]: 4   <conf:(1)> lift:(79) lev:(0.01) conv:(3.95) 
115. [607028M   -CONSTITUCION POLITICA DE COLOMBIA=1, 607005M   -ETICA I=1, 204252M   -CORRECCION IDIOMATICA=1]: 4 ==> [605001M   -BIOMOLECULAS Y CELULA=1]: 4   <conf:(1)> lift:(45.14) lev:(0.01) conv:(3.91) 
116. [605001M   -BIOMOLECULAS Y CELULA=1, 204252M   -CORRECCION IDIOMATICA=1]: 4 ==> [607028M   -CONSTITUCION POLITICA DE COLOMBIA=1, 607005M   -ETICA I=1]: 4   <conf:(1)> lift:(90.29) lev:(0.01) conv:(3.96) 
117. [607028M   -CONSTITUCION POLITICA DE COLOMBIA=1, 605001M   -BIOMOLECULAS Y CELULA=1, 204252M   -CORRECCION IDIOMATICA=1]: 4 ==> [607005M   -ETICA I=1]: 4   <conf:(1)> lift:(22.57) lev:(0.01) conv:(3.82) 
118. [607005M   -ETICA I=1, 605001M   -BIOMOLECULAS Y CELULA=1, 204252M   -CORRECCION IDIOMATICA=1]: 4 ==> [607028M   -CONSTITUCION POLITICA DE COLOMBIA=1]: 4   <conf:(1)> lift:(21.79) lev:(0.01) conv:(3.82) 
119. [607028M   -CONSTITUCION POLITICA DE COLOMBIA=1, 204252M   -CORRECCION IDIOMATICA=1]: 4 ==> [607021M   -FRANJA SOCIAL EN SALUD I=1, 605001M   -BIOMOLECULAS Y CELULA=1]: 4   <conf:(1)> lift:(52.67) lev:(0.01) conv:(3.92) 
120. [607028M   -CONSTITUCION POLITICA DE COLOMBIA=1, 607021M   -FRANJA SOCIAL EN SALUD I=1, 204252M   -CORRECCION IDIOMATICA=1]: 4 ==> [605001M   -BIOMOLECULAS Y CELULA=1]: 4   <conf:(1)> lift:(45.14) lev:(0.01) conv:(3.91) 
121. [605001M   -BIOMOLECULAS Y CELULA=1, 204252M   -CORRECCION IDIOMATICA=1]: 4 ==> [607028M   -CONSTITUCION POLITICA DE COLOMBIA=1, 607021M   -FRANJA SOCIAL EN SALUD I=1]: 4   <conf:(1)> lift:(57.45) lev:(0.01) conv:(3.93) 
122. [607028M   -CONSTITUCION POLITICA DE COLOMBIA=1, 605001M   -BIOMOLECULAS Y CELULA=1, 204252M   -CORRECCION IDIOMATICA=1]: 4 ==> [607021M   -FRANJA SOCIAL EN SALUD I=1]: 4   <conf:(1)> lift:(23.41) lev:(0.01) conv:(3.83) 
123. [607021M   -FRANJA SOCIAL EN SALUD I=1, 605001M   -BIOMOLECULAS Y CELULA=1, 204252M   -CORRECCION IDIOMATICA=1]: 4 ==> [607028M   -CONSTITUCION POLITICA DE COLOMBIA=1]: 4   <conf:(1)> lift:(21.79) lev:(0.01) conv:(3.82) 
124. [607005M   -ETICA I=1, 204252M   -CORRECCION IDIOMATICA=1]: 4 ==> [607021M   -FRANJA SOCIAL EN SALUD I=1, 605001M   -BIOMOLECULAS Y CELULA=1]: 4   <conf:(1)> lift:(52.67) lev:(0.01) conv:(3.92) 
125. [607005M   -ETICA I=1, 607021M   -FRANJA SOCIAL EN SALUD I=1, 204252M   -CORRECCION IDIOMATICA=1]: 4 ==> [605001M   -BIOMOLECULAS Y CELULA=1]: 4   <conf:(1)> lift:(45.14) lev:(0.01) conv:(3.91) 
126. [605001M   -BIOMOLECULAS Y CELULA=1, 204252M   -CORRECCION IDIOMATICA=1]: 4 ==> [607005M   -ETICA I=1, 607021M   -FRANJA SOCIAL EN SALUD I=1]: 4   <conf:(1)> lift:(90.29) lev:(0.01) conv:(3.96) 
127. [607005M   -ETICA I=1, 605001M   -BIOMOLECULAS Y CELULA=1, 204252M   -CORRECCION IDIOMATICA=1]: 4 ==> [607021M   -FRANJA SOCIAL EN SALUD I=1]: 4   <conf:(1)> lift:(23.41) lev:(0.01) conv:(3.83) 
128. [607021M   -FRANJA SOCIAL EN SALUD I=1, 605001M   -BIOMOLECULAS Y CELULA=1, 204252M   -CORRECCION IDIOMATICA=1]: 4 ==> [607005M   -ETICA I=1]: 4   <conf:(1)> lift:(22.57) lev:(0.01) conv:(3.82) 
129. [111069M   -MATEMATICAS BASICAS PARA SALUD=1, 607028M   -CONSTITUCION POLITICA DE COLOMBIA=1, 605001M   -BIOMOLECULAS Y CELULA=1]: 6 ==> [607005M   -ETICA I=1, 607021M   -FRANJA SOCIAL EN SALUD I=1]: 6   <conf:(1)> lift:(90.29) lev:(0.01) conv:(5.93) 
130. [607005M   -ETICA I=1, 605001M   -BIOMOLECULAS Y CELULA=1]: 6 ==> [111069M   -MATEMATICAS BASICAS PARA SALUD=1, 607028M   -CONSTITUCION POLITICA DE COLOMBIA=1, 607021M   -FRANJA SOCIAL EN SALUD I=1]: 6   <conf:(1)> lift:(90.29) lev:(0.01) conv:(5.93) 
131. [111069M   -MATEMATICAS BASICAS PARA SALUD=1, 607005M   -ETICA I=1, 605001M   -BIOMOLECULAS Y CELULA=1]: 6 ==> [607028M   -CONSTITUCION POLITICA DE COLOMBIA=1, 607021M   -FRANJA SOCIAL EN SALUD I=1]: 6   <conf:(1)> lift:(57.45) lev:(0.01) conv:(5.9) 
132. [607028M   -CONSTITUCION POLITICA DE COLOMBIA=1, 607005M   -ETICA I=1, 605001M   -BIOMOLECULAS Y CELULA=1]: 6 ==> [111069M   -MATEMATICAS BASICAS PARA SALUD=1, 607021M   -FRANJA SOCIAL EN SALUD I=1]: 6   <conf:(1)> lift:(42.13) lev:(0.01) conv:(5.86) 
133. [111069M   -MATEMATICAS BASICAS PARA SALUD=1, 607028M   -CONSTITUCION POLITICA DE COLOMBIA=1, 607005M   -ETICA I=1, 605001M   -BIOMOLECULAS Y CELULA=1]: 6 ==> [607021M   -FRANJA SOCIAL EN SALUD I=1]: 6   <conf:(1)> lift:(23.41) lev:(0.01) conv:(5.74) 
134. [111069M   -MATEMATICAS BASICAS PARA SALUD=1, 607028M   -CONSTITUCION POLITICA DE COLOMBIA=1, 607021M   -FRANJA SOCIAL EN SALUD I=1, 605001M   -BIOMOLECULAS Y CELULA=1]: 6 ==> [607005M   -ETICA I=1]: 6   <conf:(1)> lift:(22.57) lev:(0.01) conv:(5.73) 
135. [607005M   -ETICA I=1, 607021M   -FRANJA SOCIAL EN SALUD I=1, 605001M   -BIOMOLECULAS Y CELULA=1]: 6 ==> [111069M   -MATEMATICAS BASICAS PARA SALUD=1, 607028M   -CONSTITUCION POLITICA DE COLOMBIA=1]: 6   <conf:(1)> lift:(63.2) lev:(0.01) conv:(5.91) 
136. [111069M   -MATEMATICAS BASICAS PARA SALUD=1, 607005M   -ETICA I=1, 607021M   -FRANJA SOCIAL EN SALUD I=1, 605001M   -BIOMOLECULAS Y CELULA=1]: 6 ==> [607028M   -CONSTITUCION POLITICA DE COLOMBIA=1]: 6   <conf:(1)> lift:(21.79) lev:(0.01) conv:(5.72) 
137. [607028M   -CONSTITUCION POLITICA DE COLOMBIA=1, 607005M   -ETICA I=1, 607021M   -FRANJA SOCIAL EN SALUD I=1, 605001M   -BIOMOLECULAS Y CELULA=1]: 6 ==> [111069M   -MATEMATICAS BASICAS PARA SALUD=1]: 6   <conf:(1)> lift:(8.78) lev:(0.01) conv:(5.32) 
138. [607028M   -CONSTITUCION POLITICA DE COLOMBIA=1, 204252M   -CORRECCION IDIOMATICA=1]: 4 ==> [111069M   -MATEMATICAS BASICAS PARA SALUD=1, 607005M   -ETICA I=1, 607021M   -FRANJA SOCIAL EN SALUD I=1]: 4   <conf:(1)> lift:(90.29) lev:(0.01) conv:(3.96) 
139. [111069M   -MATEMATICAS BASICAS PARA SALUD=1, 607028M   -CONSTITUCION POLITICA DE COLOMBIA=1, 204252M   -CORRECCION IDIOMATICA=1]: 4 ==> [607005M   -ETICA I=1, 607021M   -FRANJA SOCIAL EN SALUD I=1]: 4   <conf:(1)> lift:(90.29) lev:(0.01) conv:(3.96) 
140. [607005M   -ETICA I=1, 204252M   -CORRECCION IDIOMATICA=1]: 4 ==> [111069M   -MATEMATICAS BASICAS PARA SALUD=1, 607028M   -CONSTITUCION POLITICA DE COLOMBIA=1, 607021M   -FRANJA SOCIAL EN SALUD I=1]: 4   <conf:(1)> lift:(90.29) lev:(0.01) conv:(3.96) 
141. [111069M   -MATEMATICAS BASICAS PARA SALUD=1, 607005M   -ETICA I=1, 204252M   -CORRECCION IDIOMATICA=1]: 4 ==> [607028M   -CONSTITUCION POLITICA DE COLOMBIA=1, 607021M   -FRANJA SOCIAL EN SALUD I=1]: 4   <conf:(1)> lift:(57.45) lev:(0.01) conv:(3.93) 
142. [607028M   -CONSTITUCION POLITICA DE COLOMBIA=1, 607005M   -ETICA I=1, 204252M   -CORRECCION IDIOMATICA=1]: 4 ==> [111069M   -MATEMATICAS BASICAS PARA SALUD=1, 607021M   -FRANJA SOCIAL EN SALUD I=1]: 4   <conf:(1)> lift:(42.13) lev:(0.01) conv:(3.91) 
143. [111069M   -MATEMATICAS BASICAS PARA SALUD=1, 607028M   -CONSTITUCION POLITICA DE COLOMBIA=1, 607005M   -ETICA I=1, 204252M   -CORRECCION IDIOMATICA=1]: 4 ==> [607021M   -FRANJA SOCIAL EN SALUD I=1]: 4   <conf:(1)> lift:(23.41) lev:(0.01) conv:(3.83) 
144. [111069M   -MATEMATICAS BASICAS PARA SALUD=1, 607021M   -FRANJA SOCIAL EN SALUD I=1, 204252M   -CORRECCION IDIOMATICA=1]: 4 ==> [607028M   -CONSTITUCION POLITICA DE COLOMBIA=1, 607005M   -ETICA I=1]: 4   <conf:(1)> lift:(90.29) lev:(0.01) conv:(3.96) 
145. [607028M   -CONSTITUCION POLITICA DE COLOMBIA=1, 607021M   -FRANJA SOCIAL EN SALUD I=1, 204252M   -CORRECCION IDIOMATICA=1]: 4 ==> [111069M   -MATEMATICAS BASICAS PARA SALUD=1, 607005M   -ETICA I=1]: 4   <conf:(1)> lift:(90.29) lev:(0.01) conv:(3.96) 
146. [111069M   -MATEMATICAS BASICAS PARA SALUD=1, 607028M   -CONSTITUCION POLITICA DE COLOMBIA=1, 607021M   -FRANJA SOCIAL EN SALUD I=1, 204252M   -CORRECCION IDIOMATICA=1]: 4 ==> [607005M   -ETICA I=1]: 4   <conf:(1)> lift:(22.57) lev:(0.01) conv:(3.82) 
147. [607005M   -ETICA I=1, 607021M   -FRANJA SOCIAL EN SALUD I=1, 204252M   -CORRECCION IDIOMATICA=1]: 4 ==> [111069M   -MATEMATICAS BASICAS PARA SALUD=1, 607028M   -CONSTITUCION POLITICA DE COLOMBIA=1]: 4   <conf:(1)> lift:(63.2) lev:(0.01) conv:(3.94) 
148. [111069M   -MATEMATICAS BASICAS PARA SALUD=1, 607005M   -ETICA I=1, 607021M   -FRANJA SOCIAL EN SALUD I=1, 204252M   -CORRECCION IDIOMATICA=1]: 4 ==> [607028M   -CONSTITUCION POLITICA DE COLOMBIA=1]: 4   <conf:(1)> lift:(21.79) lev:(0.01) conv:(3.82) 
149. [607028M   -CONSTITUCION POLITICA DE COLOMBIA=1, 607005M   -ETICA I=1, 607021M   -FRANJA SOCIAL EN SALUD I=1, 204252M   -CORRECCION IDIOMATICA=1]: 4 ==> [111069M   -MATEMATICAS BASICAS PARA SALUD=1]: 4   <conf:(1)> lift:(8.78) lev:(0.01) conv:(3.54) 
150. [607028M   -CONSTITUCION POLITICA DE COLOMBIA=1, 204252M   -CORRECCION IDIOMATICA=1]: 4 ==> [111069M   -MATEMATICAS BASICAS PARA SALUD=1, 607005M   -ETICA I=1, 605001M   -BIOMOLECULAS Y CELULA=1]: 4   <conf:(1)> lift:(105.33) lev:(0.01) conv:(3.96) 
151. [111069M   -MATEMATICAS BASICAS PARA SALUD=1, 607028M   -CONSTITUCION POLITICA DE COLOMBIA=1, 204252M   -CORRECCION IDIOMATICA=1]: 4 ==> [607005M   -ETICA I=1, 605001M   -BIOMOLECULAS Y CELULA=1]: 4   <conf:(1)> lift:(105.33) lev:(0.01) conv:(3.96) 
152. [607005M   -ETICA I=1, 204252M   -CORRECCION IDIOMATICA=1]: 4 ==> [111069M   -MATEMATICAS BASICAS PARA SALUD=1, 607028M   -CONSTITUCION POLITICA DE COLOMBIA=1, 605001M   -BIOMOLECULAS Y CELULA=1]: 4   <conf:(1)> lift:(105.33) lev:(0.01) conv:(3.96) 
153. [111069M   -MATEMATICAS BASICAS PARA SALUD=1, 607005M   -ETICA I=1, 204252M   -CORRECCION IDIOMATICA=1]: 4 ==> [607028M   -CONSTITUCION POLITICA DE COLOMBIA=1, 605001M   -BIOMOLECULAS Y CELULA=1]: 4   <conf:(1)> lift:(79) lev:(0.01) conv:(3.95) 
154. [607028M   -CONSTITUCION POLITICA DE COLOMBIA=1, 607005M   -ETICA I=1, 204252M   -CORRECCION IDIOMATICA=1]: 4 ==> [111069M   -MATEMATICAS BASICAS PARA SALUD=1, 605001M   -BIOMOLECULAS Y CELULA=1]: 4   <conf:(1)> lift:(70.22) lev:(0.01) conv:(3.94) 
155. [111069M   -MATEMATICAS BASICAS PARA SALUD=1, 607028M   -CONSTITUCION POLITICA DE COLOMBIA=1, 607005M   -ETICA I=1, 204252M   -CORRECCION IDIOMATICA=1]: 4 ==> [605001M   -BIOMOLECULAS Y CELULA=1]: 4   <conf:(1)> lift:(45.14) lev:(0.01) conv:(3.91) 
156. [605001M   -BIOMOLECULAS Y CELULA=1, 204252M   -CORRECCION IDIOMATICA=1]: 4 ==> [111069M   -MATEMATICAS BASICAS PARA SALUD=1, 607028M   -CONSTITUCION POLITICA DE COLOMBIA=1, 607005M   -ETICA I=1]: 4   <conf:(1)> lift:(90.29) lev:(0.01) conv:(3.96) 
157. [111069M   -MATEMATICAS BASICAS PARA SALUD=1, 605001M   -BIOMOLECULAS Y CELULA=1, 204252M   -CORRECCION IDIOMATICA=1]: 4 ==> [607028M   -CONSTITUCION POLITICA DE COLOMBIA=1, 607005M   -ETICA I=1]: 4   <conf:(1)> lift:(90.29) lev:(0.01) conv:(3.96) 
158. [607028M   -CONSTITUCION POLITICA DE COLOMBIA=1, 605001M   -BIOMOLECULAS Y CELULA=1, 204252M   -CORRECCION IDIOMATICA=1]: 4 ==> [111069M   -MATEMATICAS BASICAS PARA SALUD=1, 607005M   -ETICA I=1]: 4   <conf:(1)> lift:(90.29) lev:(0.01) conv:(3.96) 
159. [111069M   -MATEMATICAS BASICAS PARA SALUD=1, 607028M   -CONSTITUCION POLITICA DE COLOMBIA=1, 605001M   -BIOMOLECULAS Y CELULA=1, 204252M   -CORRECCION IDIOMATICA=1]: 4 ==> [607005M   -ETICA I=1]: 4   <conf:(1)> lift:(22.57) lev:(0.01) conv:(3.82) 
160. [607005M   -ETICA I=1, 605001M   -BIOMOLECULAS Y CELULA=1, 204252M   -CORRECCION IDIOMATICA=1]: 4 ==> [111069M   -MATEMATICAS BASICAS PARA SALUD=1, 607028M   -CONSTITUCION POLITICA DE COLOMBIA=1]: 4   <conf:(1)> lift:(63.2) lev:(0.01) conv:(3.94) 
161. [111069M   -MATEMATICAS BASICAS PARA SALUD=1, 607005M   -ETICA I=1, 605001M   -BIOMOLECULAS Y CELULA=1, 204252M   -CORRECCION IDIOMATICA=1]: 4 ==> [607028M   -CONSTITUCION POLITICA DE COLOMBIA=1]: 4   <conf:(1)> lift:(21.79) lev:(0.01) conv:(3.82) 
162. [607028M   -CONSTITUCION POLITICA DE COLOMBIA=1, 607005M   -ETICA I=1, 605001M   -BIOMOLECULAS Y CELULA=1, 204252M   -CORRECCION IDIOMATICA=1]: 4 ==> [111069M   -MATEMATICAS BASICAS PARA SALUD=1]: 4   <conf:(1)> lift:(8.78) lev:(0.01) conv:(3.54) 
163. [607028M   -CONSTITUCION POLITICA DE COLOMBIA=1, 204252M   -CORRECCION IDIOMATICA=1]: 4 ==> [111069M   -MATEMATICAS BASICAS PARA SALUD=1, 607021M   -FRANJA SOCIAL EN SALUD I=1, 605001M   -BIOMOLECULAS Y CELULA=1]: 4   <conf:(1)> lift:(70.22) lev:(0.01) conv:(3.94) 
164. [111069M   -MATEMATICAS BASICAS PARA SALUD=1, 607028M   -CONSTITUCION POLITICA DE COLOMBIA=1, 204252M   -CORRECCION IDIOMATICA=1]: 4 ==> [607021M   -FRANJA SOCIAL EN SALUD I=1, 605001M   -BIOMOLECULAS Y CELULA=1]: 4   <conf:(1)> lift:(52.67) lev:(0.01) conv:(3.92) 
165. [111069M   -MATEMATICAS BASICAS PARA SALUD=1, 607021M   -FRANJA SOCIAL EN SALUD I=1, 204252M   -CORRECCION IDIOMATICA=1]: 4 ==> [607028M   -CONSTITUCION POLITICA DE COLOMBIA=1, 605001M   -BIOMOLECULAS Y CELULA=1]: 4   <conf:(1)> lift:(79) lev:(0.01) conv:(3.95) 
166. [607028M   -CONSTITUCION POLITICA DE COLOMBIA=1, 607021M   -FRANJA SOCIAL EN SALUD I=1, 204252M   -CORRECCION IDIOMATICA=1]: 4 ==> [111069M   -MATEMATICAS BASICAS PARA SALUD=1, 605001M   -BIOMOLECULAS Y CELULA=1]: 4   <conf:(1)> lift:(70.22) lev:(0.01) conv:(3.94) 
167. [111069M   -MATEMATICAS BASICAS PARA SALUD=1, 607028M   -CONSTITUCION POLITICA DE COLOMBIA=1, 607021M   -FRANJA SOCIAL EN SALUD I=1, 204252M   -CORRECCION IDIOMATICA=1]: 4 ==> [605001M   -BIOMOLECULAS Y CELULA=1]: 4   <conf:(1)> lift:(45.14) lev:(0.01) conv:(3.91) 
168. [605001M   -BIOMOLECULAS Y CELULA=1, 204252M   -CORRECCION IDIOMATICA=1]: 4 ==> [111069M   -MATEMATICAS BASICAS PARA SALUD=1, 607028M   -CONSTITUCION POLITICA DE COLOMBIA=1, 607021M   -FRANJA SOCIAL EN SALUD I=1]: 4   <conf:(1)> lift:(90.29) lev:(0.01) conv:(3.96) 
169. [111069M   -MATEMATICAS BASICAS PARA SALUD=1, 605001M   -BIOMOLECULAS Y CELULA=1, 204252M   -CORRECCION IDIOMATICA=1]: 4 ==> [607028M   -CONSTITUCION POLITICA DE COLOMBIA=1, 607021M   -FRANJA SOCIAL EN SALUD I=1]: 4   <conf:(1)> lift:(57.45) lev:(0.01) conv:(3.93) 
170. [607028M   -CONSTITUCION POLITICA DE COLOMBIA=1, 605001M   -BIOMOLECULAS Y CELULA=1, 204252M   -CORRECCION IDIOMATICA=1]: 4 ==> [111069M   -MATEMATICAS BASICAS PARA SALUD=1, 607021M   -FRANJA SOCIAL EN SALUD I=1]: 4   <conf:(1)> lift:(42.13) lev:(0.01) conv:(3.91) 
171. [111069M   -MATEMATICAS BASICAS PARA SALUD=1, 607028M   -CONSTITUCION POLITICA DE COLOMBIA=1, 605001M   -BIOMOLECULAS Y CELULA=1, 204252M   -CORRECCION IDIOMATICA=1]: 4 ==> [607021M   -FRANJA SOCIAL EN SALUD I=1]: 4   <conf:(1)> lift:(23.41) lev:(0.01) conv:(3.83) 
172. [607021M   -FRANJA SOCIAL EN SALUD I=1, 605001M   -BIOMOLECULAS Y CELULA=1, 204252M   -CORRECCION IDIOMATICA=1]: 4 ==> [111069M   -MATEMATICAS BASICAS PARA SALUD=1, 607028M   -CONSTITUCION POLITICA DE COLOMBIA=1]: 4   <conf:(1)> lift:(63.2) lev:(0.01) conv:(3.94) 
173. [111069M   -MATEMATICAS BASICAS PARA SALUD=1, 607021M   -FRANJA SOCIAL EN SALUD I=1, 605001M   -BIOMOLECULAS Y CELULA=1, 204252M   -CORRECCION IDIOMATICA=1]: 4 ==> [607028M   -CONSTITUCION POLITICA DE COLOMBIA=1]: 4   <conf:(1)> lift:(21.79) lev:(0.01) conv:(3.82) 
174. [607028M   -CONSTITUCION POLITICA DE COLOMBIA=1, 607021M   -FRANJA SOCIAL EN SALUD I=1, 605001M   -BIOMOLECULAS Y CELULA=1, 204252M   -CORRECCION IDIOMATICA=1]: 4 ==> [111069M   -MATEMATICAS BASICAS PARA SALUD=1]: 4   <conf:(1)> lift:(8.78) lev:(0.01) conv:(3.54) 
175. [607005M   -ETICA I=1, 204252M   -CORRECCION IDIOMATICA=1]: 4 ==> [111069M   -MATEMATICAS BASICAS PARA SALUD=1, 607021M   -FRANJA SOCIAL EN SALUD I=1, 605001M   -BIOMOLECULAS Y CELULA=1]: 4   <conf:(1)> lift:(70.22) lev:(0.01) conv:(3.94) 
176. [111069M   -MATEMATICAS BASICAS PARA SALUD=1, 607005M   -ETICA I=1, 204252M   -CORRECCION IDIOMATICA=1]: 4 ==> [607021M   -FRANJA SOCIAL EN SALUD I=1, 605001M   -BIOMOLECULAS Y CELULA=1]: 4   <conf:(1)> lift:(52.67) lev:(0.01) conv:(3.92) 
177. [111069M   -MATEMATICAS BASICAS PARA SALUD=1, 607021M   -FRANJA SOCIAL EN SALUD I=1, 204252M   -CORRECCION IDIOMATICA=1]: 4 ==> [607005M   -ETICA I=1, 605001M   -BIOMOLECULAS Y CELULA=1]: 4   <conf:(1)> lift:(105.33) lev:(0.01) conv:(3.96) 
178. [607005M   -ETICA I=1, 607021M   -FRANJA SOCIAL EN SALUD I=1, 204252M   -CORRECCION IDIOMATICA=1]: 4 ==> [111069M   -MATEMATICAS BASICAS PARA SALUD=1, 605001M   -BIOMOLECULAS Y CELULA=1]: 4   <conf:(1)> lift:(70.22) lev:(0.01) conv:(3.94) 
179. [111069M   -MATEMATICAS BASICAS PARA SALUD=1, 607005M   -ETICA I=1, 607021M   -FRANJA SOCIAL EN SALUD I=1, 204252M   -CORRECCION IDIOMATICA=1]: 4 ==> [605001M   -BIOMOLECULAS Y CELULA=1]: 4   <conf:(1)> lift:(45.14) lev:(0.01) conv:(3.91) 
180. [605001M   -BIOMOLECULAS Y CELULA=1, 204252M   -CORRECCION IDIOMATICA=1]: 4 ==> [111069M   -MATEMATICAS BASICAS PARA SALUD=1, 607005M   -ETICA I=1, 607021M   -FRANJA SOCIAL EN SALUD I=1]: 4   <conf:(1)> lift:(90.29) lev:(0.01) conv:(3.96) 
181. [111069M   -MATEMATICAS BASICAS PARA SALUD=1, 605001M   -BIOMOLECULAS Y CELULA=1, 204252M   -CORRECCION IDIOMATICA=1]: 4 ==> [607005M   -ETICA I=1, 607021M   -FRANJA SOCIAL EN SALUD I=1]: 4   <conf:(1)> lift:(90.29) lev:(0.01) conv:(3.96) 
182. [607005M   -ETICA I=1, 605001M   -BIOMOLECULAS Y CELULA=1, 204252M   -CORRECCION IDIOMATICA=1]: 4 ==> [111069M   -MATEMATICAS BASICAS PARA SALUD=1, 607021M   -FRANJA SOCIAL EN SALUD I=1]: 4   <conf:(1)> lift:(42.13) lev:(0.01) conv:(3.91) 
183. [111069M   -MATEMATICAS BASICAS PARA SALUD=1, 607005M   -ETICA I=1, 605001M   -BIOMOLECULAS Y CELULA=1, 204252M   -CORRECCION IDIOMATICA=1]: 4 ==> [607021M   -FRANJA SOCIAL EN SALUD I=1]: 4   <conf:(1)> lift:(23.41) lev:(0.01) conv:(3.83) 
184. [607021M   -FRANJA SOCIAL EN SALUD I=1, 605001M   -BIOMOLECULAS Y CELULA=1, 204252M   -CORRECCION IDIOMATICA=1]: 4 ==> [111069M   -MATEMATICAS BASICAS PARA SALUD=1, 607005M   -ETICA I=1]: 4   <conf:(1)> lift:(90.29) lev:(0.01) conv:(3.96) 
185. [111069M   -MATEMATICAS BASICAS PARA SALUD=1, 607021M   -FRANJA SOCIAL EN SALUD I=1, 605001M   -BIOMOLECULAS Y CELULA=1, 204252M   -CORRECCION IDIOMATICA=1]: 4 ==> [607005M   -ETICA I=1]: 4   <conf:(1)> lift:(22.57) lev:(0.01) conv:(3.82) 
186. [607005M   -ETICA I=1, 607021M   -FRANJA SOCIAL EN SALUD I=1, 605001M   -BIOMOLECULAS Y CELULA=1, 204252M   -CORRECCION IDIOMATICA=1]: 4 ==> [111069M   -MATEMATICAS BASICAS PARA SALUD=1]: 4   <conf:(1)> lift:(8.78) lev:(0.01) conv:(3.54) 
187. [607028M   -CONSTITUCION POLITICA DE COLOMBIA=1, 204252M   -CORRECCION IDIOMATICA=1]: 4 ==> [607005M   -ETICA I=1, 607021M   -FRANJA SOCIAL EN SALUD I=1, 605001M   -BIOMOLECULAS Y CELULA=1]: 4   <conf:(1)> lift:(105.33) lev:(0.01) conv:(3.96) 
188. [607005M   -ETICA I=1, 204252M   -CORRECCION IDIOMATICA=1]: 4 ==> [607028M   -CONSTITUCION POLITICA DE COLOMBIA=1, 607021M   -FRANJA SOCIAL EN SALUD I=1, 605001M   -BIOMOLECULAS Y CELULA=1]: 4   <conf:(1)> lift:(79) lev:(0.01) conv:(3.95) 
189. [607028M   -CONSTITUCION POLITICA DE COLOMBIA=1, 607005M   -ETICA I=1, 204252M   -CORRECCION IDIOMATICA=1]: 4 ==> [607021M   -FRANJA SOCIAL EN SALUD I=1, 605001M   -BIOMOLECULAS Y CELULA=1]: 4   <conf:(1)> lift:(52.67) lev:(0.01) conv:(3.92) 
190. [607028M   -CONSTITUCION POLITICA DE COLOMBIA=1, 607021M   -FRANJA SOCIAL EN SALUD I=1, 204252M   -CORRECCION IDIOMATICA=1]: 4 ==> [607005M   -ETICA I=1, 605001M   -BIOMOLECULAS Y CELULA=1]: 4   <conf:(1)> lift:(105.33) lev:(0.01) conv:(3.96) 
191. [607005M   -ETICA I=1, 607021M   -FRANJA SOCIAL EN SALUD I=1, 204252M   -CORRECCION IDIOMATICA=1]: 4 ==> [607028M   -CONSTITUCION POLITICA DE COLOMBIA=1, 605001M   -BIOMOLECULAS Y CELULA=1]: 4   <conf:(1)> lift:(79) lev:(0.01) conv:(3.95) 
192. [607028M   -CONSTITUCION POLITICA DE COLOMBIA=1, 607005M   -ETICA I=1, 607021M   -FRANJA SOCIAL EN SALUD I=1, 204252M   -CORRECCION IDIOMATICA=1]: 4 ==> [605001M   -BIOMOLECULAS Y CELULA=1]: 4   <conf:(1)> lift:(45.14) lev:(0.01) conv:(3.91) 
193. [605001M   -BIOMOLECULAS Y CELULA=1, 204252M   -CORRECCION IDIOMATICA=1]: 4 ==> [607028M   -CONSTITUCION POLITICA DE COLOMBIA=1, 607005M   -ETICA I=1, 607021M   -FRANJA SOCIAL EN SALUD I=1]: 4   <conf:(1)> lift:(90.29) lev:(0.01) conv:(3.96) 
194. [607028M   -CONSTITUCION POLITICA DE COLOMBIA=1, 605001M   -BIOMOLECULAS Y CELULA=1, 204252M   -CORRECCION IDIOMATICA=1]: 4 ==> [607005M   -ETICA I=1, 607021M   -FRANJA SOCIAL EN SALUD I=1]: 4   <conf:(1)> lift:(90.29) lev:(0.01) conv:(3.96) 
195. [607005M   -ETICA I=1, 605001M   -BIOMOLECULAS Y CELULA=1, 204252M   -CORRECCION IDIOMATICA=1]: 4 ==> [607028M   -CONSTITUCION POLITICA DE COLOMBIA=1, 607021M   -FRANJA SOCIAL EN SALUD I=1]: 4   <conf:(1)> lift:(57.45) lev:(0.01) conv:(3.93) 
196. [607028M   -CONSTITUCION POLITICA DE COLOMBIA=1, 607005M   -ETICA I=1, 605001M   -BIOMOLECULAS Y CELULA=1, 204252M   -CORRECCION IDIOMATICA=1]: 4 ==> [607021M   -FRANJA SOCIAL EN SALUD I=1]: 4   <conf:(1)> lift:(23.41) lev:(0.01) conv:(3.83) 
197. [607021M   -FRANJA SOCIAL EN SALUD I=1, 605001M   -BIOMOLECULAS Y CELULA=1, 204252M   -CORRECCION IDIOMATICA=1]: 4 ==> [607028M   -CONSTITUCION POLITICA DE COLOMBIA=1, 607005M   -ETICA I=1]: 4   <conf:(1)> lift:(90.29) lev:(0.01) conv:(3.96) 
198. [607028M   -CONSTITUCION POLITICA DE COLOMBIA=1, 607021M   -FRANJA SOCIAL EN SALUD I=1, 605001M   -BIOMOLECULAS Y CELULA=1, 204252M   -CORRECCION IDIOMATICA=1]: 4 ==> [607005M   -ETICA I=1]: 4   <conf:(1)> lift:(22.57) lev:(0.01) conv:(3.82) 
199. [607005M   -ETICA I=1, 607021M   -FRANJA SOCIAL EN SALUD I=1, 605001M   -BIOMOLECULAS Y CELULA=1, 204252M   -CORRECCION IDIOMATICA=1]: 4 ==> [607028M   -CONSTITUCION POLITICA DE COLOMBIA=1]: 4   <conf:(1)> lift:(21.79) lev:(0.01) conv:(3.82) 
200. [607028M   -CONSTITUCION POLITICA DE COLOMBIA=1, 204252M   -CORRECCION IDIOMATICA=1]: 4 ==> [111069M   -MATEMATICAS BASICAS PARA SALUD=1, 607005M   -ETICA I=1, 607021M   -FRANJA SOCIAL EN SALUD I=1, 605001M   -BIOMOLECULAS Y CELULA=1]: 4   <conf:(1)> lift:(105.33) lev:(0.01) conv:(3.96) 
201. [111069M   -MATEMATICAS BASICAS PARA SALUD=1, 607028M   -CONSTITUCION POLITICA DE COLOMBIA=1, 204252M   -CORRECCION IDIOMATICA=1]: 4 ==> [607005M   -ETICA I=1, 607021M   -FRANJA SOCIAL EN SALUD I=1, 605001M   -BIOMOLECULAS Y CELULA=1]: 4   <conf:(1)> lift:(105.33) lev:(0.01) conv:(3.96) 
202. [607005M   -ETICA I=1, 204252M   -CORRECCION IDIOMATICA=1]: 4 ==> [111069M   -MATEMATICAS BASICAS PARA SALUD=1, 607028M   -CONSTITUCION POLITICA DE COLOMBIA=1, 607021M   -FRANJA SOCIAL EN SALUD I=1, 605001M   -BIOMOLECULAS Y CELULA=1]: 4   <conf:(1)> lift:(105.33) lev:(0.01) conv:(3.96) 
203. [111069M   -MATEMATICAS BASICAS PARA SALUD=1, 607005M   -ETICA I=1, 204252M   -CORRECCION IDIOMATICA=1]: 4 ==> [607028M   -CONSTITUCION POLITICA DE COLOMBIA=1, 607021M   -FRANJA SOCIAL EN SALUD I=1, 605001M   -BIOMOLECULAS Y CELULA=1]: 4   <conf:(1)> lift:(79) lev:(0.01) conv:(3.95) 
204. [607028M   -CONSTITUCION POLITICA DE COLOMBIA=1, 607005M   -ETICA I=1, 204252M   -CORRECCION IDIOMATICA=1]: 4 ==> [111069M   -MATEMATICAS BASICAS PARA SALUD=1, 607021M   -FRANJA SOCIAL EN SALUD I=1, 605001M   -BIOMOLECULAS Y CELULA=1]: 4   <conf:(1)> lift:(70.22) lev:(0.01) conv:(3.94) 
205. [111069M   -MATEMATICAS BASICAS PARA SALUD=1, 607028M   -CONSTITUCION POLITICA DE COLOMBIA=1, 607005M   -ETICA I=1, 204252M   -CORRECCION IDIOMATICA=1]: 4 ==> [607021M   -FRANJA SOCIAL EN SALUD I=1, 605001M   -BIOMOLECULAS Y CELULA=1]: 4   <conf:(1)> lift:(52.67) lev:(0.01) conv:(3.92) 
206. [111069M   -MATEMATICAS BASICAS PARA SALUD=1, 607021M   -FRANJA SOCIAL EN SALUD I=1, 204252M   -CORRECCION IDIOMATICA=1]: 4 ==> [607028M   -CONSTITUCION POLITICA DE COLOMBIA=1, 607005M   -ETICA I=1, 605001M   -BIOMOLECULAS Y CELULA=1]: 4   <conf:(1)> lift:(105.33) lev:(0.01) conv:(3.96) 
207. [607028M   -CONSTITUCION POLITICA DE COLOMBIA=1, 607021M   -FRANJA SOCIAL EN SALUD I=1, 204252M   -CORRECCION IDIOMATICA=1]: 4 ==> [111069M   -MATEMATICAS BASICAS PARA SALUD=1, 607005M   -ETICA I=1, 605001M   -BIOMOLECULAS Y CELULA=1]: 4   <conf:(1)> lift:(105.33) lev:(0.01) conv:(3.96) 
208. [111069M   -MATEMATICAS BASICAS PARA SALUD=1, 607028M   -CONSTITUCION POLITICA DE COLOMBIA=1, 607021M   -FRANJA SOCIAL EN SALUD I=1, 204252M   -CORRECCION IDIOMATICA=1]: 4 ==> [607005M   -ETICA I=1, 605001M   -BIOMOLECULAS Y CELULA=1]: 4   <conf:(1)> lift:(105.33) lev:(0.01) conv:(3.96) 
209. [607005M   -ETICA I=1, 607021M   -FRANJA SOCIAL EN SALUD I=1, 204252M   -CORRECCION IDIOMATICA=1]: 4 ==> [111069M   -MATEMATICAS BASICAS PARA SALUD=1, 607028M   -CONSTITUCION POLITICA DE COLOMBIA=1, 605001M   -BIOMOLECULAS Y CELULA=1]: 4   <conf:(1)> lift:(105.33) lev:(0.01) conv:(3.96) 
210. [111069M   -MATEMATICAS BASICAS PARA SALUD=1, 607005M   -ETICA I=1, 607021M   -FRANJA SOCIAL EN SALUD I=1, 204252M   -CORRECCION IDIOMATICA=1]: 4 ==> [607028M   -CONSTITUCION POLITICA DE COLOMBIA=1, 605001M   -BIOMOLECULAS Y CELULA=1]: 4   <conf:(1)> lift:(79) lev:(0.01) conv:(3.95) 
211. [607028M   -CONSTITUCION POLITICA DE COLOMBIA=1, 607005M   -ETICA I=1, 607021M   -FRANJA SOCIAL EN SALUD I=1, 204252M   -CORRECCION IDIOMATICA=1]: 4 ==> [111069M   -MATEMATICAS BASICAS PARA SALUD=1, 605001M   -BIOMOLECULAS Y CELULA=1]: 4   <conf:(1)> lift:(70.22) lev:(0.01) conv:(3.94) 
212. [111069M   -MATEMATICAS BASICAS PARA SALUD=1, 607028M   -CONSTITUCION POLITICA DE COLOMBIA=1, 607005M   -ETICA I=1, 607021M   -FRANJA SOCIAL EN SALUD I=1, 204252M   -CORRECCION IDIOMATICA=1]: 4 ==> [605001M   -BIOMOLECULAS Y CELULA=1]: 4   <conf:(1)> lift:(45.14) lev:(0.01) conv:(3.91) 
213. [605001M   -BIOMOLECULAS Y CELULA=1, 204252M   -CORRECCION IDIOMATICA=1]: 4 ==> [111069M   -MATEMATICAS BASICAS PARA SALUD=1, 607028M   -CONSTITUCION POLITICA DE COLOMBIA=1, 607005M   -ETICA I=1, 607021M   -FRANJA SOCIAL EN SALUD I=1]: 4   <conf:(1)> lift:(90.29) lev:(0.01) conv:(3.96) 
214. [111069M   -MATEMATICAS BASICAS PARA SALUD=1, 605001M   -BIOMOLECULAS Y CELULA=1, 204252M   -CORRECCION IDIOMATICA=1]: 4 ==> [607028M   -CONSTITUCION POLITICA DE COLOMBIA=1, 607005M   -ETICA I=1, 607021M   -FRANJA SOCIAL EN SALUD I=1]: 4   <conf:(1)> lift:(90.29) lev:(0.01) conv:(3.96) 
215. [607028M   -CONSTITUCION POLITICA DE COLOMBIA=1, 605001M   -BIOMOLECULAS Y CELULA=1, 204252M   -CORRECCION IDIOMATICA=1]: 4 ==> [111069M   -MATEMATICAS BASICAS PARA SALUD=1, 607005M   -ETICA I=1, 607021M   -FRANJA SOCIAL EN SALUD I=1]: 4   <conf:(1)> lift:(90.29) lev:(0.01) conv:(3.96) 
216. [111069M   -MATEMATICAS BASICAS PARA SALUD=1, 607028M   -CONSTITUCION POLITICA DE COLOMBIA=1, 605001M   -BIOMOLECULAS Y CELULA=1, 204252M   -CORRECCION IDIOMATICA=1]: 4 ==> [607005M   -ETICA I=1, 607021M   -FRANJA SOCIAL EN SALUD I=1]: 4   <conf:(1)> lift:(90.29) lev:(0.01) conv:(3.96) 
217. [607005M   -ETICA I=1, 605001M   -BIOMOLECULAS Y CELULA=1, 204252M   -CORRECCION IDIOMATICA=1]: 4 ==> [111069M   -MATEMATICAS BASICAS PARA SALUD=1, 607028M   -CONSTITUCION POLITICA DE COLOMBIA=1, 607021M   -FRANJA SOCIAL EN SALUD I=1]: 4   <conf:(1)> lift:(90.29) lev:(0.01) conv:(3.96) 
218. [111069M   -MATEMATICAS BASICAS PARA SALUD=1, 607005M   -ETICA I=1, 605001M   -BIOMOLECULAS Y CELULA=1, 204252M   -CORRECCION IDIOMATICA=1]: 4 ==> [607028M   -CONSTITUCION POLITICA DE COLOMBIA=1, 607021M   -FRANJA SOCIAL EN SALUD I=1]: 4   <conf:(1)> lift:(57.45) lev:(0.01) conv:(3.93) 
219. [607028M   -CONSTITUCION POLITICA DE COLOMBIA=1, 607005M   -ETICA I=1, 605001M   -BIOMOLECULAS Y CELULA=1, 204252M   -CORRECCION IDIOMATICA=1]: 4 ==> [111069M   -MATEMATICAS BASICAS PARA SALUD=1, 607021M   -FRANJA SOCIAL EN SALUD I=1]: 4   <conf:(1)> lift:(42.13) lev:(0.01) conv:(3.91) 
220. [111069M   -MATEMATICAS BASICAS PARA SALUD=1, 607028M   -CONSTITUCION POLITICA DE COLOMBIA=1, 607005M   -ETICA I=1, 605001M   -BIOMOLECULAS Y CELULA=1, 204252M   -CORRECCION IDIOMATICA=1]: 4 ==> [607021M   -FRANJA SOCIAL EN SALUD I=1]: 4   <conf:(1)> lift:(23.41) lev:(0.01) conv:(3.83) 
221. [607021M   -FRANJA SOCIAL EN SALUD I=1, 605001M   -BIOMOLECULAS Y CELULA=1, 204252M   -CORRECCION IDIOMATICA=1]: 4 ==> [111069M   -MATEMATICAS BASICAS PARA SALUD=1, 607028M   -CONSTITUCION POLITICA DE COLOMBIA=1, 607005M   -ETICA I=1]: 4   <conf:(1)> lift:(90.29) lev:(0.01) conv:(3.96) 
222. [111069M   -MATEMATICAS BASICAS PARA SALUD=1, 607021M   -FRANJA SOCIAL EN SALUD I=1, 605001M   -BIOMOLECULAS Y CELULA=1, 204252M   -CORRECCION IDIOMATICA=1]: 4 ==> [607028M   -CONSTITUCION POLITICA DE COLOMBIA=1, 607005M   -ETICA I=1]: 4   <conf:(1)> lift:(90.29) lev:(0.01) conv:(3.96) 
223. [607028M   -CONSTITUCION POLITICA DE COLOMBIA=1, 607021M   -FRANJA SOCIAL EN SALUD I=1, 605001M   -BIOMOLECULAS Y CELULA=1, 204252M   -CORRECCION IDIOMATICA=1]: 4 ==> [111069M   -MATEMATICAS BASICAS PARA SALUD=1, 607005M   -ETICA I=1]: 4   <conf:(1)> lift:(90.29) lev:(0.01) conv:(3.96) 
224. [111069M   -MATEMATICAS BASICAS PARA SALUD=1, 607028M   -CONSTITUCION POLITICA DE COLOMBIA=1, 607021M   -FRANJA SOCIAL EN SALUD I=1, 605001M   -BIOMOLECULAS Y CELULA=1, 204252M   -CORRECCION IDIOMATICA=1]: 4 ==> [607005M   -ETICA I=1]: 4   <conf:(1)> lift:(22.57) lev:(0.01) conv:(3.82) 
225. [607005M   -ETICA I=1, 607021M   -FRANJA SOCIAL EN SALUD I=1, 605001M   -BIOMOLECULAS Y CELULA=1, 204252M   -CORRECCION IDIOMATICA=1]: 4 ==> [111069M   -MATEMATICAS BASICAS PARA SALUD=1, 607028M   -CONSTITUCION POLITICA DE COLOMBIA=1]: 4   <conf:(1)> lift:(63.2) lev:(0.01) conv:(3.94) 
226. [111069M   -MATEMATICAS BASICAS PARA SALUD=1, 607005M   -ETICA I=1, 607021M   -FRANJA SOCIAL EN SALUD I=1, 605001M   -BIOMOLECULAS Y CELULA=1, 204252M   -CORRECCION IDIOMATICA=1]: 4 ==> [607028M   -CONSTITUCION POLITICA DE COLOMBIA=1]: 4   <conf:(1)> lift:(21.79) lev:(0.01) conv:(3.82) 
227. [607028M   -CONSTITUCION POLITICA DE COLOMBIA=1, 607005M   -ETICA I=1, 607021M   -FRANJA SOCIAL EN SALUD I=1, 605001M   -BIOMOLECULAS Y CELULA=1, 204252M   -CORRECCION IDIOMATICA=1]: 4 ==> [111069M   -MATEMATICAS BASICAS PARA SALUD=1]: 4   <conf:(1)> lift:(8.78) lev:(0.01) conv:(3.54) 

