=== Run information ===

Scheme:       weka.associations.FPGrowth -P 2 -I -1 -N 100 -T 0 -C 0.7 -D 0.05 -U 384.0 -M 3.0
Relation:     cancelaciones_ciencias_sociales_economia
Instances:    384
Attributes:   165
[list of attributes omitted]
=== Associator model (full training set) ===

FPGrowth found 18 rules (displaying top 18)

 1. [304002M   -TALLER DE RECURSOS BIBLIOGRAFICOS Y COMUNICACION CIENTIFICA=1]: 3 ==> [204101M   -LECTURA DE TEXTOS ACADEMICOS EN INGLES I=1]: 3   <conf:(1)> lift:(11.64) lev:(0.01) conv:(2.74) 
 2. [204101M   -LECTURA DE TEXTOS ACADEMICOS EN INGLES I=1, 201008M   -HISTORIA ECONOMICA GENERAL=1]: 3 ==> [204161M   -COMPRENSION Y PRODUCCION DE TEXTOS ACADEMICOS=1]: 3   <conf:(1)> lift:(25.6) lev:(0.01) conv:(2.88) 
 3. [204101M   -LECTURA DE TEXTOS ACADEMICOS EN INGLES I=1, 303068M   -PRINCIPIOS DE ECONOMIA=1]: 4 ==> [204161M   -COMPRENSION Y PRODUCCION DE TEXTOS ACADEMICOS=1]: 4   <conf:(1)> lift:(25.6) lev:(0.01) conv:(3.84) 
 4. [204161M   -COMPRENSION Y PRODUCCION DE TEXTOS ACADEMICOS=1, 303068M   -PRINCIPIOS DE ECONOMIA=1]: 4 ==> [204101M   -LECTURA DE TEXTOS ACADEMICOS EN INGLES I=1]: 4   <conf:(1)> lift:(11.64) lev:(0.01) conv:(3.66) 
 5. [204101M   -LECTURA DE TEXTOS ACADEMICOS EN INGLES I=1, 303068M   -PRINCIPIOS DE ECONOMIA=1]: 4 ==> [111095M   -MATEMATICA BASICA=1]: 4   <conf:(1)> lift:(29.54) lev:(0.01) conv:(3.86) 
 6. [111095M   -MATEMATICA BASICA=1, 303068M   -PRINCIPIOS DE ECONOMIA=1]: 4 ==> [204101M   -LECTURA DE TEXTOS ACADEMICOS EN INGLES I=1]: 4   <conf:(1)> lift:(11.64) lev:(0.01) conv:(3.66) 
 7. [204161M   -COMPRENSION Y PRODUCCION DE TEXTOS ACADEMICOS=1, 303068M   -PRINCIPIOS DE ECONOMIA=1]: 4 ==> [111095M   -MATEMATICA BASICA=1]: 4   <conf:(1)> lift:(29.54) lev:(0.01) conv:(3.86) 
 8. [111095M   -MATEMATICA BASICA=1, 303068M   -PRINCIPIOS DE ECONOMIA=1]: 4 ==> [204161M   -COMPRENSION Y PRODUCCION DE TEXTOS ACADEMICOS=1]: 4   <conf:(1)> lift:(25.6) lev:(0.01) conv:(3.84) 
 9. [204101M   -LECTURA DE TEXTOS ACADEMICOS EN INGLES I=1, 303068M   -PRINCIPIOS DE ECONOMIA=1]: 4 ==> [204161M   -COMPRENSION Y PRODUCCION DE TEXTOS ACADEMICOS=1, 111095M   -MATEMATICA BASICA=1]: 4   <conf:(1)> lift:(54.86) lev:(0.01) conv:(3.93) 
10. [204161M   -COMPRENSION Y PRODUCCION DE TEXTOS ACADEMICOS=1, 303068M   -PRINCIPIOS DE ECONOMIA=1]: 4 ==> [204101M   -LECTURA DE TEXTOS ACADEMICOS EN INGLES I=1, 111095M   -MATEMATICA BASICA=1]: 4   <conf:(1)> lift:(54.86) lev:(0.01) conv:(3.93) 
11. [204101M   -LECTURA DE TEXTOS ACADEMICOS EN INGLES I=1, 204161M   -COMPRENSION Y PRODUCCION DE TEXTOS ACADEMICOS=1, 303068M   -PRINCIPIOS DE ECONOMIA=1]: 4 ==> [111095M   -MATEMATICA BASICA=1]: 4   <conf:(1)> lift:(29.54) lev:(0.01) conv:(3.86) 
12. [111095M   -MATEMATICA BASICA=1, 303068M   -PRINCIPIOS DE ECONOMIA=1]: 4 ==> [204101M   -LECTURA DE TEXTOS ACADEMICOS EN INGLES I=1, 204161M   -COMPRENSION Y PRODUCCION DE TEXTOS ACADEMICOS=1]: 4   <conf:(1)> lift:(38.4) lev:(0.01) conv:(3.9) 
13. [204101M   -LECTURA DE TEXTOS ACADEMICOS EN INGLES I=1, 111095M   -MATEMATICA BASICA=1, 303068M   -PRINCIPIOS DE ECONOMIA=1]: 4 ==> [204161M   -COMPRENSION Y PRODUCCION DE TEXTOS ACADEMICOS=1]: 4   <conf:(1)> lift:(25.6) lev:(0.01) conv:(3.84) 
14. [204161M   -COMPRENSION Y PRODUCCION DE TEXTOS ACADEMICOS=1, 111095M   -MATEMATICA BASICA=1, 303068M   -PRINCIPIOS DE ECONOMIA=1]: 4 ==> [204101M   -LECTURA DE TEXTOS ACADEMICOS EN INGLES I=1]: 4   <conf:(1)> lift:(11.64) lev:(0.01) conv:(3.66) 
15. [204101M   -LECTURA DE TEXTOS ACADEMICOS EN INGLES I=1, 111095M   -MATEMATICA BASICA=1]: 7 ==> [204161M   -COMPRENSION Y PRODUCCION DE TEXTOS ACADEMICOS=1]: 6   <conf:(0.86)> lift:(21.94) lev:(0.01) conv:(3.36) 
16. [204161M   -COMPRENSION Y PRODUCCION DE TEXTOS ACADEMICOS=1, 111095M   -MATEMATICA BASICA=1]: 7 ==> [204101M   -LECTURA DE TEXTOS ACADEMICOS EN INGLES I=1]: 6   <conf:(0.86)> lift:(9.97) lev:(0.01) conv:(3.2) 
17. [801082M   -POLITICA ECONOMICA NACIONAL E INTERNACIONAL=1]: 4 ==> [802049M   -MERCADO DE CAPITALES EN COLOMBIA=1]: 3   <conf:(0.75)> lift:(22.15) lev:(0.01) conv:(1.93) 
18. [204161M   -COMPRENSION Y PRODUCCION DE TEXTOS ACADEMICOS=1, 201008M   -HISTORIA ECONOMICA GENERAL=1]: 4 ==> [204101M   -LECTURA DE TEXTOS ACADEMICOS EN INGLES I=1]: 3   <conf:(0.75)> lift:(8.73) lev:(0.01) conv:(1.83) 

