=== Run information ===

Scheme:       weka.associations.FPGrowth -P 2 -I -1 -N 227 -T 0 -C 0.8 -D 0.05 -U 1.0 -M 5.0
Relation:     cancelaciones_Salud  
Instances:    632
Attributes:   218
[list of attributes omitted]
=== Associator model (full training set) ===

FPGrowth found 88 rules (displaying top 88)

 1. [620067M   -DISCAPACIDAD Y SOCIEDAD I=1]: 5 ==> [111069M   -MATEMATICAS BASICAS PARA SALUD=1]: 5   <conf:(1)> lift:(8.78) lev:(0.01) conv:(4.43) 
 2. [620067M   -DISCAPACIDAD Y SOCIEDAD I=1]: 5 ==> [605022M   -FUNDAMENTOS DE BIOQUIMICA I=1]: 5   <conf:(1)> lift:(39.5) lev:(0.01) conv:(4.87) 
 3. [620067M   -DISCAPACIDAD Y SOCIEDAD I=1]: 5 ==> [620051M   -DESARROLLO HUMANO I=1]: 5   <conf:(1)> lift:(90.29) lev:(0.01) conv:(4.94) 
 4. [111069M   -MATEMATICAS BASICAS PARA SALUD=1, 607005M   -ETICA I=1]: 7 ==> [607028M   -CONSTITUCION POLITICA DE COLOMBIA=1]: 7   <conf:(1)> lift:(21.79) lev:(0.01) conv:(6.68) 
 5. [607028M   -CONSTITUCION POLITICA DE COLOMBIA=1, 607005M   -ETICA I=1]: 7 ==> [111069M   -MATEMATICAS BASICAS PARA SALUD=1]: 7   <conf:(1)> lift:(8.78) lev:(0.01) conv:(6.2) 
 6. [111069M   -MATEMATICAS BASICAS PARA SALUD=1, 607005M   -ETICA I=1]: 7 ==> [607021M   -FRANJA SOCIAL EN SALUD I=1]: 7   <conf:(1)> lift:(23.41) lev:(0.01) conv:(6.7) 
 7. [607005M   -ETICA I=1, 607021M   -FRANJA SOCIAL EN SALUD I=1]: 7 ==> [111069M   -MATEMATICAS BASICAS PARA SALUD=1]: 7   <conf:(1)> lift:(8.78) lev:(0.01) conv:(6.2) 
 8. [607005M   -ETICA I=1, 605001M   -BIOMOLECULAS Y CELULA=1]: 6 ==> [111069M   -MATEMATICAS BASICAS PARA SALUD=1]: 6   <conf:(1)> lift:(8.78) lev:(0.01) conv:(5.32) 
 9. [111069M   -MATEMATICAS BASICAS PARA SALUD=1, 605001M   -BIOMOLECULAS Y CELULA=1]: 9 ==> [607021M   -FRANJA SOCIAL EN SALUD I=1]: 9   <conf:(1)> lift:(23.41) lev:(0.01) conv:(8.62) 
10. [605022M   -FUNDAMENTOS DE BIOQUIMICA I=1, 620051M   -DESARROLLO HUMANO I=1]: 5 ==> [111069M   -MATEMATICAS BASICAS PARA SALUD=1]: 5   <conf:(1)> lift:(8.78) lev:(0.01) conv:(4.43) 
11. [620067M   -DISCAPACIDAD Y SOCIEDAD I=1]: 5 ==> [111069M   -MATEMATICAS BASICAS PARA SALUD=1, 605022M   -FUNDAMENTOS DE BIOQUIMICA I=1]: 5   <conf:(1)> lift:(63.2) lev:(0.01) conv:(4.92) 
12. [111069M   -MATEMATICAS BASICAS PARA SALUD=1, 620067M   -DISCAPACIDAD Y SOCIEDAD I=1]: 5 ==> [605022M   -FUNDAMENTOS DE BIOQUIMICA I=1]: 5   <conf:(1)> lift:(39.5) lev:(0.01) conv:(4.87) 
13. [605022M   -FUNDAMENTOS DE BIOQUIMICA I=1, 620067M   -DISCAPACIDAD Y SOCIEDAD I=1]: 5 ==> [111069M   -MATEMATICAS BASICAS PARA SALUD=1]: 5   <conf:(1)> lift:(8.78) lev:(0.01) conv:(4.43) 
14. [620067M   -DISCAPACIDAD Y SOCIEDAD I=1]: 5 ==> [111069M   -MATEMATICAS BASICAS PARA SALUD=1, 620051M   -DESARROLLO HUMANO I=1]: 5   <conf:(1)> lift:(105.33) lev:(0.01) conv:(4.95) 
15. [111069M   -MATEMATICAS BASICAS PARA SALUD=1, 620067M   -DISCAPACIDAD Y SOCIEDAD I=1]: 5 ==> [620051M   -DESARROLLO HUMANO I=1]: 5   <conf:(1)> lift:(90.29) lev:(0.01) conv:(4.94) 
16. [620051M   -DESARROLLO HUMANO I=1, 620067M   -DISCAPACIDAD Y SOCIEDAD I=1]: 5 ==> [111069M   -MATEMATICAS BASICAS PARA SALUD=1]: 5   <conf:(1)> lift:(8.78) lev:(0.01) conv:(4.43) 
17. [607028M   -CONSTITUCION POLITICA DE COLOMBIA=1, 607005M   -ETICA I=1]: 7 ==> [607021M   -FRANJA SOCIAL EN SALUD I=1]: 7   <conf:(1)> lift:(23.41) lev:(0.01) conv:(6.7) 
18. [607005M   -ETICA I=1, 607021M   -FRANJA SOCIAL EN SALUD I=1]: 7 ==> [607028M   -CONSTITUCION POLITICA DE COLOMBIA=1]: 7   <conf:(1)> lift:(21.79) lev:(0.01) conv:(6.68) 
19. [607005M   -ETICA I=1, 605001M   -BIOMOLECULAS Y CELULA=1]: 6 ==> [607028M   -CONSTITUCION POLITICA DE COLOMBIA=1]: 6   <conf:(1)> lift:(21.79) lev:(0.01) conv:(5.72) 
20. [607028M   -CONSTITUCION POLITICA DE COLOMBIA=1, 605001M   -BIOMOLECULAS Y CELULA=1]: 8 ==> [607021M   -FRANJA SOCIAL EN SALUD I=1]: 8   <conf:(1)> lift:(23.41) lev:(0.01) conv:(7.66) 
21. [607005M   -ETICA I=1, 605001M   -BIOMOLECULAS Y CELULA=1]: 6 ==> [607021M   -FRANJA SOCIAL EN SALUD I=1]: 6   <conf:(1)> lift:(23.41) lev:(0.01) conv:(5.74) 
22. [605022M   -FUNDAMENTOS DE BIOQUIMICA I=1, 620051M   -DESARROLLO HUMANO I=1]: 5 ==> [620067M   -DISCAPACIDAD Y SOCIEDAD I=1]: 5   <conf:(1)> lift:(126.4) lev:(0.01) conv:(4.96) 
23. [620067M   -DISCAPACIDAD Y SOCIEDAD I=1]: 5 ==> [605022M   -FUNDAMENTOS DE BIOQUIMICA I=1, 620051M   -DESARROLLO HUMANO I=1]: 5   <conf:(1)> lift:(126.4) lev:(0.01) conv:(4.96) 
24. [605022M   -FUNDAMENTOS DE BIOQUIMICA I=1, 620067M   -DISCAPACIDAD Y SOCIEDAD I=1]: 5 ==> [620051M   -DESARROLLO HUMANO I=1]: 5   <conf:(1)> lift:(90.29) lev:(0.01) conv:(4.94) 
25. [620051M   -DESARROLLO HUMANO I=1, 620067M   -DISCAPACIDAD Y SOCIEDAD I=1]: 5 ==> [605022M   -FUNDAMENTOS DE BIOQUIMICA I=1]: 5   <conf:(1)> lift:(39.5) lev:(0.01) conv:(4.87) 
26. [111069M   -MATEMATICAS BASICAS PARA SALUD=1, 607005M   -ETICA I=1]: 7 ==> [607028M   -CONSTITUCION POLITICA DE COLOMBIA=1, 607021M   -FRANJA SOCIAL EN SALUD I=1]: 7   <conf:(1)> lift:(57.45) lev:(0.01) conv:(6.88) 
27. [607028M   -CONSTITUCION POLITICA DE COLOMBIA=1, 607005M   -ETICA I=1]: 7 ==> [111069M   -MATEMATICAS BASICAS PARA SALUD=1, 607021M   -FRANJA SOCIAL EN SALUD I=1]: 7   <conf:(1)> lift:(42.13) lev:(0.01) conv:(6.83) 
28. [111069M   -MATEMATICAS BASICAS PARA SALUD=1, 607028M   -CONSTITUCION POLITICA DE COLOMBIA=1, 607005M   -ETICA I=1]: 7 ==> [607021M   -FRANJA SOCIAL EN SALUD I=1]: 7   <conf:(1)> lift:(23.41) lev:(0.01) conv:(6.7) 
29. [111069M   -MATEMATICAS BASICAS PARA SALUD=1, 607028M   -CONSTITUCION POLITICA DE COLOMBIA=1, 607021M   -FRANJA SOCIAL EN SALUD I=1]: 7 ==> [607005M   -ETICA I=1]: 7   <conf:(1)> lift:(22.57) lev:(0.01) conv:(6.69) 
30. [607005M   -ETICA I=1, 607021M   -FRANJA SOCIAL EN SALUD I=1]: 7 ==> [111069M   -MATEMATICAS BASICAS PARA SALUD=1, 607028M   -CONSTITUCION POLITICA DE COLOMBIA=1]: 7   <conf:(1)> lift:(63.2) lev:(0.01) conv:(6.89) 
31. [111069M   -MATEMATICAS BASICAS PARA SALUD=1, 607005M   -ETICA I=1, 607021M   -FRANJA SOCIAL EN SALUD I=1]: 7 ==> [607028M   -CONSTITUCION POLITICA DE COLOMBIA=1]: 7   <conf:(1)> lift:(21.79) lev:(0.01) conv:(6.68) 
32. [607028M   -CONSTITUCION POLITICA DE COLOMBIA=1, 607005M   -ETICA I=1, 607021M   -FRANJA SOCIAL EN SALUD I=1]: 7 ==> [111069M   -MATEMATICAS BASICAS PARA SALUD=1]: 7   <conf:(1)> lift:(8.78) lev:(0.01) conv:(6.2) 
33. [111069M   -MATEMATICAS BASICAS PARA SALUD=1, 607028M   -CONSTITUCION POLITICA DE COLOMBIA=1, 605001M   -BIOMOLECULAS Y CELULA=1]: 6 ==> [607005M   -ETICA I=1]: 6   <conf:(1)> lift:(22.57) lev:(0.01) conv:(5.73) 
34. [607005M   -ETICA I=1, 605001M   -BIOMOLECULAS Y CELULA=1]: 6 ==> [111069M   -MATEMATICAS BASICAS PARA SALUD=1, 607028M   -CONSTITUCION POLITICA DE COLOMBIA=1]: 6   <conf:(1)> lift:(63.2) lev:(0.01) conv:(5.91) 
35. [111069M   -MATEMATICAS BASICAS PARA SALUD=1, 607005M   -ETICA I=1, 605001M   -BIOMOLECULAS Y CELULA=1]: 6 ==> [607028M   -CONSTITUCION POLITICA DE COLOMBIA=1]: 6   <conf:(1)> lift:(21.79) lev:(0.01) conv:(5.72) 
36. [607028M   -CONSTITUCION POLITICA DE COLOMBIA=1, 607005M   -ETICA I=1, 605001M   -BIOMOLECULAS Y CELULA=1]: 6 ==> [111069M   -MATEMATICAS BASICAS PARA SALUD=1]: 6   <conf:(1)> lift:(8.78) lev:(0.01) conv:(5.32) 
37. [111069M   -MATEMATICAS BASICAS PARA SALUD=1, 607028M   -CONSTITUCION POLITICA DE COLOMBIA=1, 605001M   -BIOMOLECULAS Y CELULA=1]: 6 ==> [607021M   -FRANJA SOCIAL EN SALUD I=1]: 6   <conf:(1)> lift:(23.41) lev:(0.01) conv:(5.74) 
38. [607005M   -ETICA I=1, 605001M   -BIOMOLECULAS Y CELULA=1]: 6 ==> [111069M   -MATEMATICAS BASICAS PARA SALUD=1, 607021M   -FRANJA SOCIAL EN SALUD I=1]: 6   <conf:(1)> lift:(42.13) lev:(0.01) conv:(5.86) 
39. [111069M   -MATEMATICAS BASICAS PARA SALUD=1, 607005M   -ETICA I=1, 605001M   -BIOMOLECULAS Y CELULA=1]: 6 ==> [607021M   -FRANJA SOCIAL EN SALUD I=1]: 6   <conf:(1)> lift:(23.41) lev:(0.01) conv:(5.74) 
40. [607005M   -ETICA I=1, 607021M   -FRANJA SOCIAL EN SALUD I=1, 605001M   -BIOMOLECULAS Y CELULA=1]: 6 ==> [111069M   -MATEMATICAS BASICAS PARA SALUD=1]: 6   <conf:(1)> lift:(8.78) lev:(0.01) conv:(5.32) 
41. [605022M   -FUNDAMENTOS DE BIOQUIMICA I=1, 620051M   -DESARROLLO HUMANO I=1]: 5 ==> [111069M   -MATEMATICAS BASICAS PARA SALUD=1, 620067M   -DISCAPACIDAD Y SOCIEDAD I=1]: 5   <conf:(1)> lift:(126.4) lev:(0.01) conv:(4.96) 
42. [111069M   -MATEMATICAS BASICAS PARA SALUD=1, 605022M   -FUNDAMENTOS DE BIOQUIMICA I=1, 620051M   -DESARROLLO HUMANO I=1]: 5 ==> [620067M   -DISCAPACIDAD Y SOCIEDAD I=1]: 5   <conf:(1)> lift:(126.4) lev:(0.01) conv:(4.96) 
43. [620067M   -DISCAPACIDAD Y SOCIEDAD I=1]: 5 ==> [111069M   -MATEMATICAS BASICAS PARA SALUD=1, 605022M   -FUNDAMENTOS DE BIOQUIMICA I=1, 620051M   -DESARROLLO HUMANO I=1]: 5   <conf:(1)> lift:(126.4) lev:(0.01) conv:(4.96) 
44. [111069M   -MATEMATICAS BASICAS PARA SALUD=1, 620067M   -DISCAPACIDAD Y SOCIEDAD I=1]: 5 ==> [605022M   -FUNDAMENTOS DE BIOQUIMICA I=1, 620051M   -DESARROLLO HUMANO I=1]: 5   <conf:(1)> lift:(126.4) lev:(0.01) conv:(4.96) 
45. [605022M   -FUNDAMENTOS DE BIOQUIMICA I=1, 620067M   -DISCAPACIDAD Y SOCIEDAD I=1]: 5 ==> [111069M   -MATEMATICAS BASICAS PARA SALUD=1, 620051M   -DESARROLLO HUMANO I=1]: 5   <conf:(1)> lift:(105.33) lev:(0.01) conv:(4.95) 
46. [111069M   -MATEMATICAS BASICAS PARA SALUD=1, 605022M   -FUNDAMENTOS DE BIOQUIMICA I=1, 620067M   -DISCAPACIDAD Y SOCIEDAD I=1]: 5 ==> [620051M   -DESARROLLO HUMANO I=1]: 5   <conf:(1)> lift:(90.29) lev:(0.01) conv:(4.94) 
47. [620051M   -DESARROLLO HUMANO I=1, 620067M   -DISCAPACIDAD Y SOCIEDAD I=1]: 5 ==> [111069M   -MATEMATICAS BASICAS PARA SALUD=1, 605022M   -FUNDAMENTOS DE BIOQUIMICA I=1]: 5   <conf:(1)> lift:(63.2) lev:(0.01) conv:(4.92) 
48. [111069M   -MATEMATICAS BASICAS PARA SALUD=1, 620051M   -DESARROLLO HUMANO I=1, 620067M   -DISCAPACIDAD Y SOCIEDAD I=1]: 5 ==> [605022M   -FUNDAMENTOS DE BIOQUIMICA I=1]: 5   <conf:(1)> lift:(39.5) lev:(0.01) conv:(4.87) 
49. [605022M   -FUNDAMENTOS DE BIOQUIMICA I=1, 620051M   -DESARROLLO HUMANO I=1, 620067M   -DISCAPACIDAD Y SOCIEDAD I=1]: 5 ==> [111069M   -MATEMATICAS BASICAS PARA SALUD=1]: 5   <conf:(1)> lift:(8.78) lev:(0.01) conv:(4.43) 
50. [607005M   -ETICA I=1, 605001M   -BIOMOLECULAS Y CELULA=1]: 6 ==> [607028M   -CONSTITUCION POLITICA DE COLOMBIA=1, 607021M   -FRANJA SOCIAL EN SALUD I=1]: 6   <conf:(1)> lift:(57.45) lev:(0.01) conv:(5.9) 
51. [607028M   -CONSTITUCION POLITICA DE COLOMBIA=1, 607005M   -ETICA I=1, 605001M   -BIOMOLECULAS Y CELULA=1]: 6 ==> [607021M   -FRANJA SOCIAL EN SALUD I=1]: 6   <conf:(1)> lift:(23.41) lev:(0.01) conv:(5.74) 
52. [607005M   -ETICA I=1, 607021M   -FRANJA SOCIAL EN SALUD I=1, 605001M   -BIOMOLECULAS Y CELULA=1]: 6 ==> [607028M   -CONSTITUCION POLITICA DE COLOMBIA=1]: 6   <conf:(1)> lift:(21.79) lev:(0.01) conv:(5.72) 
53. [111069M   -MATEMATICAS BASICAS PARA SALUD=1, 607028M   -CONSTITUCION POLITICA DE COLOMBIA=1, 605001M   -BIOMOLECULAS Y CELULA=1]: 6 ==> [607005M   -ETICA I=1, 607021M   -FRANJA SOCIAL EN SALUD I=1]: 6   <conf:(1)> lift:(90.29) lev:(0.01) conv:(5.93) 
54. [607005M   -ETICA I=1, 605001M   -BIOMOLECULAS Y CELULA=1]: 6 ==> [111069M   -MATEMATICAS BASICAS PARA SALUD=1, 607028M   -CONSTITUCION POLITICA DE COLOMBIA=1, 607021M   -FRANJA SOCIAL EN SALUD I=1]: 6   <conf:(1)> lift:(90.29) lev:(0.01) conv:(5.93) 
55. [111069M   -MATEMATICAS BASICAS PARA SALUD=1, 607005M   -ETICA I=1, 605001M   -BIOMOLECULAS Y CELULA=1]: 6 ==> [607028M   -CONSTITUCION POLITICA DE COLOMBIA=1, 607021M   -FRANJA SOCIAL EN SALUD I=1]: 6   <conf:(1)> lift:(57.45) lev:(0.01) conv:(5.9) 
56. [607028M   -CONSTITUCION POLITICA DE COLOMBIA=1, 607005M   -ETICA I=1, 605001M   -BIOMOLECULAS Y CELULA=1]: 6 ==> [111069M   -MATEMATICAS BASICAS PARA SALUD=1, 607021M   -FRANJA SOCIAL EN SALUD I=1]: 6   <conf:(1)> lift:(42.13) lev:(0.01) conv:(5.86) 
57. [111069M   -MATEMATICAS BASICAS PARA SALUD=1, 607028M   -CONSTITUCION POLITICA DE COLOMBIA=1, 607005M   -ETICA I=1, 605001M   -BIOMOLECULAS Y CELULA=1]: 6 ==> [607021M   -FRANJA SOCIAL EN SALUD I=1]: 6   <conf:(1)> lift:(23.41) lev:(0.01) conv:(5.74) 
58. [111069M   -MATEMATICAS BASICAS PARA SALUD=1, 607028M   -CONSTITUCION POLITICA DE COLOMBIA=1, 607021M   -FRANJA SOCIAL EN SALUD I=1, 605001M   -BIOMOLECULAS Y CELULA=1]: 6 ==> [607005M   -ETICA I=1]: 6   <conf:(1)> lift:(22.57) lev:(0.01) conv:(5.73) 
59. [607005M   -ETICA I=1, 607021M   -FRANJA SOCIAL EN SALUD I=1, 605001M   -BIOMOLECULAS Y CELULA=1]: 6 ==> [111069M   -MATEMATICAS BASICAS PARA SALUD=1, 607028M   -CONSTITUCION POLITICA DE COLOMBIA=1]: 6   <conf:(1)> lift:(63.2) lev:(0.01) conv:(5.91) 
60. [111069M   -MATEMATICAS BASICAS PARA SALUD=1, 607005M   -ETICA I=1, 607021M   -FRANJA SOCIAL EN SALUD I=1, 605001M   -BIOMOLECULAS Y CELULA=1]: 6 ==> [607028M   -CONSTITUCION POLITICA DE COLOMBIA=1]: 6   <conf:(1)> lift:(21.79) lev:(0.01) conv:(5.72) 
61. [607028M   -CONSTITUCION POLITICA DE COLOMBIA=1, 607005M   -ETICA I=1, 607021M   -FRANJA SOCIAL EN SALUD I=1, 605001M   -BIOMOLECULAS Y CELULA=1]: 6 ==> [111069M   -MATEMATICAS BASICAS PARA SALUD=1]: 6   <conf:(1)> lift:(8.78) lev:(0.01) conv:(5.32) 
62. [620051M   -DESARROLLO HUMANO I=1]: 7 ==> [111069M   -MATEMATICAS BASICAS PARA SALUD=1]: 6   <conf:(0.86)> lift:(7.52) lev:(0.01) conv:(3.1) 
63. [605001M   -BIOMOLECULAS Y CELULA=1]: 14 ==> [607021M   -FRANJA SOCIAL EN SALUD I=1]: 12   <conf:(0.86)> lift:(20.06) lev:(0.02) conv:(4.47) 
64. [111069M   -MATEMATICAS BASICAS PARA SALUD=1, 607005M   -ETICA I=1]: 7 ==> [605001M   -BIOMOLECULAS Y CELULA=1]: 6   <conf:(0.86)> lift:(38.69) lev:(0.01) conv:(3.42) 
65. [111069M   -MATEMATICAS BASICAS PARA SALUD=1, 106073M   -FISICA PARA LAS CIENCIAS DE LA SALUD=1]: 7 ==> [607021M   -FRANJA SOCIAL EN SALUD I=1]: 6   <conf:(0.86)> lift:(20.06) lev:(0.01) conv:(3.35) 
66. [607028M   -CONSTITUCION POLITICA DE COLOMBIA=1, 607005M   -ETICA I=1]: 7 ==> [605001M   -BIOMOLECULAS Y CELULA=1]: 6   <conf:(0.86)> lift:(38.69) lev:(0.01) conv:(3.42) 
67. [607005M   -ETICA I=1, 607021M   -FRANJA SOCIAL EN SALUD I=1]: 7 ==> [605001M   -BIOMOLECULAS Y CELULA=1]: 6   <conf:(0.86)> lift:(38.69) lev:(0.01) conv:(3.42) 
68. [111069M   -MATEMATICAS BASICAS PARA SALUD=1, 607005M   -ETICA I=1]: 7 ==> [607028M   -CONSTITUCION POLITICA DE COLOMBIA=1, 605001M   -BIOMOLECULAS Y CELULA=1]: 6   <conf:(0.86)> lift:(67.71) lev:(0.01) conv:(3.46) 
69. [607028M   -CONSTITUCION POLITICA DE COLOMBIA=1, 607005M   -ETICA I=1]: 7 ==> [111069M   -MATEMATICAS BASICAS PARA SALUD=1, 605001M   -BIOMOLECULAS Y CELULA=1]: 6   <conf:(0.86)> lift:(60.19) lev:(0.01) conv:(3.45) 
70. [111069M   -MATEMATICAS BASICAS PARA SALUD=1, 607028M   -CONSTITUCION POLITICA DE COLOMBIA=1, 607005M   -ETICA I=1]: 7 ==> [605001M   -BIOMOLECULAS Y CELULA=1]: 6   <conf:(0.86)> lift:(38.69) lev:(0.01) conv:(3.42) 
71. [111069M   -MATEMATICAS BASICAS PARA SALUD=1, 607028M   -CONSTITUCION POLITICA DE COLOMBIA=1, 607021M   -FRANJA SOCIAL EN SALUD I=1]: 7 ==> [605001M   -BIOMOLECULAS Y CELULA=1]: 6   <conf:(0.86)> lift:(38.69) lev:(0.01) conv:(3.42) 
72. [111069M   -MATEMATICAS BASICAS PARA SALUD=1, 607005M   -ETICA I=1]: 7 ==> [607021M   -FRANJA SOCIAL EN SALUD I=1, 605001M   -BIOMOLECULAS Y CELULA=1]: 6   <conf:(0.86)> lift:(45.14) lev:(0.01) conv:(3.43) 
73. [607005M   -ETICA I=1, 607021M   -FRANJA SOCIAL EN SALUD I=1]: 7 ==> [111069M   -MATEMATICAS BASICAS PARA SALUD=1, 605001M   -BIOMOLECULAS Y CELULA=1]: 6   <conf:(0.86)> lift:(60.19) lev:(0.01) conv:(3.45) 
74. [111069M   -MATEMATICAS BASICAS PARA SALUD=1, 607005M   -ETICA I=1, 607021M   -FRANJA SOCIAL EN SALUD I=1]: 7 ==> [605001M   -BIOMOLECULAS Y CELULA=1]: 6   <conf:(0.86)> lift:(38.69) lev:(0.01) conv:(3.42) 
75. [607028M   -CONSTITUCION POLITICA DE COLOMBIA=1, 607005M   -ETICA I=1]: 7 ==> [607021M   -FRANJA SOCIAL EN SALUD I=1, 605001M   -BIOMOLECULAS Y CELULA=1]: 6   <conf:(0.86)> lift:(45.14) lev:(0.01) conv:(3.43) 
76. [607005M   -ETICA I=1, 607021M   -FRANJA SOCIAL EN SALUD I=1]: 7 ==> [607028M   -CONSTITUCION POLITICA DE COLOMBIA=1, 605001M   -BIOMOLECULAS Y CELULA=1]: 6   <conf:(0.86)> lift:(67.71) lev:(0.01) conv:(3.46) 
77. [607028M   -CONSTITUCION POLITICA DE COLOMBIA=1, 607005M   -ETICA I=1, 607021M   -FRANJA SOCIAL EN SALUD I=1]: 7 ==> [605001M   -BIOMOLECULAS Y CELULA=1]: 6   <conf:(0.86)> lift:(38.69) lev:(0.01) conv:(3.42) 
78. [111069M   -MATEMATICAS BASICAS PARA SALUD=1, 607005M   -ETICA I=1]: 7 ==> [607028M   -CONSTITUCION POLITICA DE COLOMBIA=1, 607021M   -FRANJA SOCIAL EN SALUD I=1, 605001M   -BIOMOLECULAS Y CELULA=1]: 6   <conf:(0.86)> lift:(67.71) lev:(0.01) conv:(3.46) 
79. [607028M   -CONSTITUCION POLITICA DE COLOMBIA=1, 607005M   -ETICA I=1]: 7 ==> [111069M   -MATEMATICAS BASICAS PARA SALUD=1, 607021M   -FRANJA SOCIAL EN SALUD I=1, 605001M   -BIOMOLECULAS Y CELULA=1]: 6   <conf:(0.86)> lift:(60.19) lev:(0.01) conv:(3.45) 
80. [111069M   -MATEMATICAS BASICAS PARA SALUD=1, 607028M   -CONSTITUCION POLITICA DE COLOMBIA=1, 607005M   -ETICA I=1]: 7 ==> [607021M   -FRANJA SOCIAL EN SALUD I=1, 605001M   -BIOMOLECULAS Y CELULA=1]: 6   <conf:(0.86)> lift:(45.14) lev:(0.01) conv:(3.43) 
81. [111069M   -MATEMATICAS BASICAS PARA SALUD=1, 607028M   -CONSTITUCION POLITICA DE COLOMBIA=1, 607021M   -FRANJA SOCIAL EN SALUD I=1]: 7 ==> [607005M   -ETICA I=1, 605001M   -BIOMOLECULAS Y CELULA=1]: 6   <conf:(0.86)> lift:(90.29) lev:(0.01) conv:(3.47) 
82. [607005M   -ETICA I=1, 607021M   -FRANJA SOCIAL EN SALUD I=1]: 7 ==> [111069M   -MATEMATICAS BASICAS PARA SALUD=1, 607028M   -CONSTITUCION POLITICA DE COLOMBIA=1, 605001M   -BIOMOLECULAS Y CELULA=1]: 6   <conf:(0.86)> lift:(90.29) lev:(0.01) conv:(3.47) 
83. [111069M   -MATEMATICAS BASICAS PARA SALUD=1, 607005M   -ETICA I=1, 607021M   -FRANJA SOCIAL EN SALUD I=1]: 7 ==> [607028M   -CONSTITUCION POLITICA DE COLOMBIA=1, 605001M   -BIOMOLECULAS Y CELULA=1]: 6   <conf:(0.86)> lift:(67.71) lev:(0.01) conv:(3.46) 
84. [607028M   -CONSTITUCION POLITICA DE COLOMBIA=1, 607005M   -ETICA I=1, 607021M   -FRANJA SOCIAL EN SALUD I=1]: 7 ==> [111069M   -MATEMATICAS BASICAS PARA SALUD=1, 605001M   -BIOMOLECULAS Y CELULA=1]: 6   <conf:(0.86)> lift:(60.19) lev:(0.01) conv:(3.45) 
85. [111069M   -MATEMATICAS BASICAS PARA SALUD=1, 607028M   -CONSTITUCION POLITICA DE COLOMBIA=1, 607005M   -ETICA I=1, 607021M   -FRANJA SOCIAL EN SALUD I=1]: 7 ==> [605001M   -BIOMOLECULAS Y CELULA=1]: 6   <conf:(0.86)> lift:(38.69) lev:(0.01) conv:(3.42) 
86. [111069M   -MATEMATICAS BASICAS PARA SALUD=1, 620051M   -DESARROLLO HUMANO I=1]: 6 ==> [605022M   -FUNDAMENTOS DE BIOQUIMICA I=1]: 5   <conf:(0.83)> lift:(32.92) lev:(0.01) conv:(2.92) 
87. [111069M   -MATEMATICAS BASICAS PARA SALUD=1, 620051M   -DESARROLLO HUMANO I=1]: 6 ==> [620067M   -DISCAPACIDAD Y SOCIEDAD I=1]: 5   <conf:(0.83)> lift:(105.33) lev:(0.01) conv:(2.98) 
88. [111069M   -MATEMATICAS BASICAS PARA SALUD=1, 620051M   -DESARROLLO HUMANO I=1]: 6 ==> [605022M   -FUNDAMENTOS DE BIOQUIMICA I=1, 620067M   -DISCAPACIDAD Y SOCIEDAD I=1]: 5   <conf:(0.83)> lift:(105.33) lev:(0.01) conv:(2.98) 

